%!PS-Adobe-3.0 EPSF-3.0
%%Creator: cairo 1.16.0 (https://cairographics.org)
%%CreationDate: Mon Sep 23 08:21:20 2019
%%Pages: 1
%%DocumentData: Clean7Bit
%%LanguageLevel: 2
%%BoundingBox: 0 40 384 344
%%EndComments
%%BeginProlog
50 dict begin
/q { gsave } bind def
/Q { grestore } bind def
/cm { 6 array astore concat } bind def
/w { setlinewidth } bind def
/J { setlinecap } bind def
/j { setlinejoin } bind def
/M { setmiterlimit } bind def
/d { setdash } bind def
/m { moveto } bind def
/l { lineto } bind def
/c { curveto } bind def
/h { closepath } bind def
/re { exch dup neg 3 1 roll 5 3 roll moveto 0 rlineto
      0 exch rlineto 0 rlineto closepath } bind def
/S { stroke } bind def
/f { fill } bind def
/f* { eofill } bind def
/n { newpath } bind def
/W { clip } bind def
/W* { eoclip } bind def
/BT { } bind def
/ET { } bind def
/BDC { mark 3 1 roll /BDC pdfmark } bind def
/EMC { mark /EMC pdfmark } bind def
/cairo_store_point { /cairo_point_y exch def /cairo_point_x exch def } def
/Tj { show currentpoint cairo_store_point } bind def
/TJ {
  {
    dup
    type /stringtype eq
    { show } { -0.001 mul 0 cairo_font_matrix dtransform rmoveto } ifelse
  } forall
  currentpoint cairo_store_point
} bind def
/cairo_selectfont { cairo_font_matrix aload pop pop pop 0 0 6 array astore
    cairo_font exch selectfont cairo_point_x cairo_point_y moveto } bind def
/Tf { pop /cairo_font exch def /cairo_font_matrix where
      { pop cairo_selectfont } if } bind def
/Td { matrix translate cairo_font_matrix matrix concatmatrix dup
      /cairo_font_matrix exch def dup 4 get exch 5 get cairo_store_point
      /cairo_font where { pop cairo_selectfont } if } bind def
/Tm { 2 copy 8 2 roll 6 array astore /cairo_font_matrix exch def
      cairo_store_point /cairo_font where { pop cairo_selectfont } if } bind def
/g { setgray } bind def
/rg { setrgbcolor } bind def
/d1 { setcachedevice } bind def
/cairo_data_source {
  CairoDataIndex CairoData length lt
    { CairoData CairoDataIndex get /CairoDataIndex CairoDataIndex 1 add def }
    { () } ifelse
} def
/cairo_flush_ascii85_file { cairo_ascii85_file status { cairo_ascii85_file flushfile } if } def
/cairo_image { image cairo_flush_ascii85_file } def
/cairo_imagemask { imagemask cairo_flush_ascii85_file } def
%%EndProlog
%%BeginSetup
%%EndSetup
%%Page: 1 1
%%BeginPageSetup
%%PageBoundingBox: 0 40 384 344
%%EndPageSetup
q 0 40 384 304 rectclip
1 0 0 -1 0 384 cm q
0 g
368.332 60.703 m 363.02 59.363 357.387 60.207 352.699 63.043 c 256.676 
125.309 l 248.52 130.285 244.824 140.191 247.727 149.289 c 213.824 171.238
 l 219.117 179.422 l 252.793 157.621 l 255.438 160.27 258.762 162.148 262.398
 163.043 c 264.043 163.457 265.73 163.664 267.426 163.668 c 271.164 163.664
 274.828 162.641 278.027 160.703 c 374.059 98.441 l 383.816 92.508 386.922
 79.785 380.988 70.027 c 378.16 65.375 373.613 62.023 368.332 60.703 c h
368.332 60.703 m f
44.32 98.742 m 25.914 192.227 l 203.945 265.246 l 166.621 95.246 l h
44.32 98.742 m f
216.453 194.969 m 204.441 147.508 l 186.32 139.539 l 202.887 214.98 l h
216.453 194.969 m f
166.359 85.504 m 173.762 40.785 l 6.809 45.344 l 43.699 89.012 l h
166.359 85.504 m f
215.434 317.57 m 206.484 276.82 l 23.992 201.973 l 0 323.816 l 0.59 334.91
 9.914 343.512 21.02 343.207 c 195.559 338.211 l 206.688 337.871 215.512
 328.707 215.434 317.57 c h
215.434 317.57 m f
Q Q
showpage
%%Trailer
end
%%EOF
