%!PS-Adobe-3.0 EPSF-3.0
%%Creator: cairo 1.16.0 (https://cairographics.org)
%%CreationDate: Mon Sep 23 08:21:20 2019
%%Pages: 1
%%DocumentData: Clean7Bit
%%LanguageLevel: 2
%%BoundingBox: 32 0 352 384
%%EndComments
%%BeginProlog
50 dict begin
/q { gsave } bind def
/Q { grestore } bind def
/cm { 6 array astore concat } bind def
/w { setlinewidth } bind def
/J { setlinecap } bind def
/j { setlinejoin } bind def
/M { setmiterlimit } bind def
/d { setdash } bind def
/m { moveto } bind def
/l { lineto } bind def
/c { curveto } bind def
/h { closepath } bind def
/re { exch dup neg 3 1 roll 5 3 roll moveto 0 rlineto
      0 exch rlineto 0 rlineto closepath } bind def
/S { stroke } bind def
/f { fill } bind def
/f* { eofill } bind def
/n { newpath } bind def
/W { clip } bind def
/W* { eoclip } bind def
/BT { } bind def
/ET { } bind def
/BDC { mark 3 1 roll /BDC pdfmark } bind def
/EMC { mark /EMC pdfmark } bind def
/cairo_store_point { /cairo_point_y exch def /cairo_point_x exch def } def
/Tj { show currentpoint cairo_store_point } bind def
/TJ {
  {
    dup
    type /stringtype eq
    { show } { -0.001 mul 0 cairo_font_matrix dtransform rmoveto } ifelse
  } forall
  currentpoint cairo_store_point
} bind def
/cairo_selectfont { cairo_font_matrix aload pop pop pop 0 0 6 array astore
    cairo_font exch selectfont cairo_point_x cairo_point_y moveto } bind def
/Tf { pop /cairo_font exch def /cairo_font_matrix where
      { pop cairo_selectfont } if } bind def
/Td { matrix translate cairo_font_matrix matrix concatmatrix dup
      /cairo_font_matrix exch def dup 4 get exch 5 get cairo_store_point
      /cairo_font where { pop cairo_selectfont } if } bind def
/Tm { 2 copy 8 2 roll 6 array astore /cairo_font_matrix exch def
      cairo_store_point /cairo_font where { pop cairo_selectfont } if } bind def
/g { setgray } bind def
/rg { setrgbcolor } bind def
/d1 { setcachedevice } bind def
/cairo_data_source {
  CairoDataIndex CairoData length lt
    { CairoData CairoDataIndex get /CairoDataIndex CairoDataIndex 1 add def }
    { () } ifelse
} def
/cairo_flush_ascii85_file { cairo_ascii85_file status { cairo_ascii85_file flushfile } if } def
/cairo_image { image cairo_flush_ascii85_file } def
/cairo_imagemask { imagemask cairo_flush_ascii85_file } def
%%EndProlog
%%BeginSetup
%%EndSetup
%%Page: 1 1
%%BeginPageSetup
%%PageBoundingBox: 32 0 352 384
%%EndPageSetup
q 32 0 320 384 rectclip
1 0 0 -1 0 384 cm q
0 g
187.027 36.004 m 187.027 66.352 l 187.027 69.098 189.254 71.324 192 71.324
 c 194.746 71.324 196.973 69.098 196.973 66.352 c 196.973 36.004 l 196.973
 33.258 194.746 31.031 192 31.031 c 189.254 31.031 187.027 33.258 187.027
 36.004 c h
187.027 36.004 m f
200.566 13.238 m 191.57 0 l 182.57 13.238 l 179.195 18.207 180.484 24.973
 185.453 28.352 c 190.422 31.73 197.188 30.438 200.566 25.469 c 203.074 
21.777 203.074 16.93 200.566 13.238 c h
200.566 13.238 m f
254.613 36.004 m 254.613 66.352 l 254.613 69.098 256.84 71.324 259.586 
71.324 c 262.332 71.324 264.559 69.098 264.559 66.352 c 264.559 36.004 l
 264.559 33.258 262.332 31.031 259.586 31.031 c 256.84 31.031 254.613 33.258
 254.613 36.004 c h
254.613 36.004 m f
268.148 13.238 m 259.152 0 l 250.156 13.238 l 246.777 18.207 248.066 24.973
 253.039 28.352 c 258.008 31.727 264.773 30.438 268.148 25.469 c 270.66 
21.777 270.66 16.93 268.148 13.238 c h
268.148 13.238 m f
119.441 36.004 m 119.441 66.352 l 119.441 69.098 121.668 71.324 124.414
 71.324 c 127.164 71.324 129.391 69.098 129.391 66.352 c 129.391 36.004 
l 129.391 33.258 127.164 31.031 124.414 31.031 c 121.668 31.031 119.441 
33.258 119.441 36.004 c h
119.441 36.004 m f
132.98 13.238 m 123.984 0 l 114.988 13.238 l 111.609 18.207 112.898 24.973
 117.867 28.352 c 122.836 31.73 129.602 30.438 132.98 25.469 c 135.488 21.777
 135.488 16.93 132.98 13.238 c h
132.98 13.238 m f
52.152 82.25 m 52.152 89.723 l 59.703 102.973 76.57 107.594 89.824 100.043
 c 94.461 97.398 98.234 93.469 100.684 88.727 c 101.941 86.285 104.938 85.324
 107.383 86.582 c 108.301 87.055 109.047 87.801 109.523 88.719 c 116.531
 102.273 133.203 107.578 146.758 100.566 c 151.84 97.938 155.98 93.797 158.609
 88.719 c 159.871 86.277 162.871 85.324 165.312 86.586 c 166.207 87.051 
166.941 87.777 167.418 88.668 c 174.398 102.238 191.059 107.582 204.629 
100.605 c 209.734 97.977 213.895 93.828 216.531 88.727 c 217.383 87.086 
219.07 86.047 220.922 86.035 c 220.953 86.035 l 222.789 86.031 224.48 87.043
 225.344 88.664 c 232.32 102.238 248.98 107.586 262.555 100.609 c 267.66
 97.984 271.824 93.832 274.465 88.73 c 275.316 87.082 277.016 86.043 278.871
 86.035 c 278.887 86.035 l 280.734 86.035 282.43 87.055 283.293 88.688 c
 290.27 102.25 306.922 107.59 320.484 100.609 c 325.254 98.156 329.203 94.367
 331.855 89.711 c 331.855 81.992 l 331.855 76.105 327.082 71.332 321.195
 71.332 c 321.184 71.332 l 62.805 71.582 l 56.918 71.594 52.156 76.363 52.152
 82.25 c h
52.152 82.25 m f
253.312 166.574 m 253.312 169.16 251.215 171.258 248.629 171.258 c 246.043
 171.258 243.945 169.16 243.945 166.574 c 243.945 163.988 246.043 161.895
 248.629 161.895 c 251.215 161.895 253.312 163.988 253.312 166.574 c h
253.312 166.574 m f
82.125 166.574 m 82.125 169.16 80.031 171.258 77.445 171.258 c 74.859 171.258
 72.762 169.16 72.762 166.574 c 72.762 163.988 74.859 161.895 77.445 161.895
 c 80.031 161.895 82.125 163.988 82.125 166.574 c h
82.125 166.574 m f
301.008 166.574 m 301.008 169.16 303.105 171.258 305.691 171.258 c 308.277
 171.258 310.371 169.16 310.371 166.574 c 310.371 163.988 308.277 161.895
 305.691 161.895 c 303.105 161.895 301.012 163.992 301.008 166.574 c h
301.008 166.574 m f
192.266 161.941 m 194.82 162.355 196.555 164.758 196.141 167.309 c 195.727
 169.863 193.32 171.598 190.77 171.184 c 188.219 170.77 186.484 168.363 
186.898 165.812 c 187.312 163.262 189.715 161.527 192.266 161.941 c h
192.266 161.941 m f
139.188 166.574 m 139.188 169.16 137.094 171.258 134.508 171.258 c 131.922
 171.258 129.824 169.16 129.824 166.574 c 129.824 163.988 131.922 161.895
 134.508 161.895 c 137.094 161.895 139.188 163.988 139.188 166.574 c h
139.188 166.574 m f
71.316 233.684 m 312.684 233.684 l 318.676 233.672 324.031 229.938 326.113
 224.32 c 57.887 224.32 l 59.969 229.938 65.324 233.672 71.316 233.684 c
 h
71.316 233.684 m f
157.02 243.629 69.965 17.801 re f
346.477 205.012 m 37.523 205.012 l 34.938 205.016 32.844 207.117 32.848
 209.703 c 32.852 212.285 34.941 214.375 37.523 214.379 c 346.477 214.379
 l 349.062 214.375 351.156 212.273 351.152 209.691 c 351.148 207.109 349.059
 205.016 346.477 205.012 c h
346.477 205.012 m f
278.887 99.992 m 265.641 115.992 241.934 118.223 225.938 104.977 c 224.121
 103.473 222.453 101.805 220.953 99.992 c 207.711 115.992 184.004 118.223
 168.004 104.977 c 166.191 103.477 164.523 101.809 163.02 99.992 c 149.773
 115.984 126.066 118.211 110.074 104.965 c 108.266 103.465 106.602 101.805
 105.105 99.996 c 91.852 115.992 68.145 118.219 52.145 104.969 c 52.145 
195.059 l 331.852 195.059 l 331.852 104.977 l 315.855 118.227 292.141 116
 278.891 100.004 c 278.891 100 278.887 100 278.887 99.996 c h
77.445 181.203 m 69.367 181.203 62.816 174.652 62.816 166.574 c 62.816 
158.496 69.367 151.945 77.445 151.945 c 85.523 151.945 92.07 158.496 92.07
 166.574 c 92.062 174.648 85.52 181.191 77.445 181.203 c h
134.508 181.203 m 126.43 181.203 119.879 174.652 119.879 166.574 c 119.879
 158.496 126.43 151.945 134.508 151.945 c 142.586 151.945 149.137 158.496
 149.137 166.574 c 149.125 174.648 142.582 181.191 134.508 181.203 c h
191.57 181.203 m 183.492 181.203 176.941 174.652 176.941 166.574 c 176.941
 158.496 183.492 151.945 191.57 151.945 c 199.648 151.945 206.195 158.496
 206.195 166.574 c 206.188 174.648 199.645 181.191 191.57 181.203 c h
248.629 181.203 m 240.551 181.203 234 174.652 234 166.574 c 234 158.496
 240.551 151.945 248.629 151.945 c 256.707 151.945 263.258 158.496 263.258
 166.574 c 263.246 174.648 256.703 181.191 248.629 181.203 c h
320.32 166.574 m 320.32 174.652 313.77 181.203 305.691 181.203 c 297.613
 181.203 291.066 174.652 291.066 166.574 c 291.066 158.496 297.613 151.945
 305.691 151.945 c 313.766 151.957 320.309 158.5 320.316 166.574 c h
320.32 166.574 m f
187.027 266.402 9.945 87.844 re f
245.711 359.219 m 138.289 359.219 l 124.039 359.234 112.027 369.855 110.266
 384 c 273.734 384 l 271.973 369.855 259.965 359.234 245.711 359.219 c h
245.711 359.219 m f
Q Q
showpage
%%Trailer
end
%%EOF
