%!PS-Adobe-3.0 EPSF-3.0
%%Creator: cairo 1.16.0 (https://cairographics.org)
%%CreationDate: Mon Sep 23 08:21:20 2019
%%Pages: 1
%%DocumentData: Clean7Bit
%%LanguageLevel: 2
%%BoundingBox: 0 0 384 384
%%EndComments
%%BeginProlog
50 dict begin
/q { gsave } bind def
/Q { grestore } bind def
/cm { 6 array astore concat } bind def
/w { setlinewidth } bind def
/J { setlinecap } bind def
/j { setlinejoin } bind def
/M { setmiterlimit } bind def
/d { setdash } bind def
/m { moveto } bind def
/l { lineto } bind def
/c { curveto } bind def
/h { closepath } bind def
/re { exch dup neg 3 1 roll 5 3 roll moveto 0 rlineto
      0 exch rlineto 0 rlineto closepath } bind def
/S { stroke } bind def
/f { fill } bind def
/f* { eofill } bind def
/n { newpath } bind def
/W { clip } bind def
/W* { eoclip } bind def
/BT { } bind def
/ET { } bind def
/BDC { mark 3 1 roll /BDC pdfmark } bind def
/EMC { mark /EMC pdfmark } bind def
/cairo_store_point { /cairo_point_y exch def /cairo_point_x exch def } def
/Tj { show currentpoint cairo_store_point } bind def
/TJ {
  {
    dup
    type /stringtype eq
    { show } { -0.001 mul 0 cairo_font_matrix dtransform rmoveto } ifelse
  } forall
  currentpoint cairo_store_point
} bind def
/cairo_selectfont { cairo_font_matrix aload pop pop pop 0 0 6 array astore
    cairo_font exch selectfont cairo_point_x cairo_point_y moveto } bind def
/Tf { pop /cairo_font exch def /cairo_font_matrix where
      { pop cairo_selectfont } if } bind def
/Td { matrix translate cairo_font_matrix matrix concatmatrix dup
      /cairo_font_matrix exch def dup 4 get exch 5 get cairo_store_point
      /cairo_font where { pop cairo_selectfont } if } bind def
/Tm { 2 copy 8 2 roll 6 array astore /cairo_font_matrix exch def
      cairo_store_point /cairo_font where { pop cairo_selectfont } if } bind def
/g { setgray } bind def
/rg { setrgbcolor } bind def
/d1 { setcachedevice } bind def
/cairo_data_source {
  CairoDataIndex CairoData length lt
    { CairoData CairoDataIndex get /CairoDataIndex CairoDataIndex 1 add def }
    { () } ifelse
} def
/cairo_flush_ascii85_file { cairo_ascii85_file status { cairo_ascii85_file flushfile } if } def
/cairo_image { image cairo_flush_ascii85_file } def
/cairo_imagemask { imagemask cairo_flush_ascii85_file } def
%%EndProlog
%%BeginSetup
%%EndSetup
%%Page: 1 1
%%BeginPageSetup
%%PageBoundingBox: 0 0 384 384
%%EndPageSetup
q 0 0 384 384 rectclip
1 0 0 -1 0 384 cm q
0 g
171.926 32.395 m 156.68 32.395 149.738 44.398 149.738 55.555 c 149.738 
71.531 160.883 78.684 171.926 78.684 c 187.172 78.684 194.117 66.68 194.117
 55.523 c 194.117 39.543 182.973 32.395 171.926 32.395 c h
171.926 32.395 m f
227.629 291.199 m 218.543 291.199 214.477 298.129 214.477 305 c 214.418
 308.508 215.598 311.922 217.805 314.648 c 220.156 317.387 223.465 318.777
 227.629 318.777 c 236.715 318.777 240.785 311.848 240.785 304.977 c 240.84
 301.469 239.664 298.055 237.453 295.328 c 235.102 292.586 231.797 291.199
 227.629 291.199 c h
227.629 291.199 m f
107.094 166.926 m 107.172 161.664 105.395 156.539 102.07 152.457 c 98.52
 148.32 93.363 146.141 87.164 146.141 c 77.238 146.141 67.23 152.578 67.23
 166.965 c 67.156 172.227 68.934 177.352 72.254 181.434 c 75.805 185.57 
80.961 187.75 87.164 187.75 c 97.082 187.75 107.094 181.312 107.094 166.926
 c h
107.094 166.926 m f
116.227 250.359 m 100.98 250.359 94.035 262.367 94.035 273.523 c 94.035
 289.496 105.18 296.652 116.227 296.652 c 131.469 296.652 138.414 284.645
 138.414 273.488 c 138.414 257.508 127.27 250.359 116.227 250.359 c h
116.227 250.359 m f
198.566 174.949 m 189.48 174.949 185.414 181.879 185.414 188.75 c 185.355
 192.258 186.535 195.676 188.742 198.402 c 191.098 201.141 194.402 202.531
 198.566 202.531 c 207.652 202.531 211.719 195.598 211.719 188.727 c 211.777
 185.219 210.602 181.805 208.395 179.078 c 206.039 176.34 202.734 174.949
 198.566 174.949 c h
198.566 174.949 m f
343.848 161.887 m 335.031 165.234 325.672 166.934 316.238 166.902 c 273.238
 166.871 238.375 132.035 238.312 89.031 c 238.312 88.188 238.328 87.336 
238.355 86.473 c 220.949 75.055 216.078 51.695 227.465 34.27 c 226.824 30.777
 226.5 27.23 226.504 23.68 c 226.496 16.91 227.676 10.191 229.992 3.832 
c 126.07 -17.141 24.82 50.105 3.848 154.027 c -17.121 257.949 50.125 359.199
 154.047 380.168 c 257.969 401.141 359.215 333.898 380.188 229.973 c 382.711
 217.477 383.98 204.762 383.98 192.02 c 383.98 187.188 383.793 182.219 383.426
 177.191 c 368.91 176.574 355.004 171.195 343.848 161.887 c h
57.387 166.957 m 57.387 151.719 67.617 136.293 87.16 136.293 c 106.707 
136.293 116.934 151.703 116.934 166.926 c 116.934 182.164 106.707 197.59
 87.16 197.59 c 67.617 197.59 57.387 182.184 57.387 166.957 c h
116.227 306.492 m 95.195 306.492 84.191 289.906 84.191 273.52 c 84.078 
265.305 86.902 257.32 92.16 251.008 c 98.051 244.145 106.375 240.516 116.227
 240.516 c 137.254 240.516 148.258 257.102 148.258 273.488 c 148.258 289.887
 137.254 306.492 116.227 306.492 c h
139.895 55.555 m 139.895 39.152 150.898 22.551 171.926 22.551 c 192.957
 22.551 203.961 39.137 203.961 55.523 c 203.961 71.926 192.957 88.527 171.926
 88.527 c 150.898 88.527 139.895 71.941 139.895 55.555 c h
175.574 188.75 m 175.574 177 183.473 165.105 198.57 165.105 c 213.664 165.105
 221.566 176.988 221.566 188.73 c 221.641 194.598 219.617 200.297 215.859
 204.805 c 211.609 209.754 205.633 212.371 198.57 212.371 c 183.473 212.371
 175.57 200.488 175.57 188.75 c h
227.633 328.621 m 212.535 328.621 204.637 316.738 204.637 305 c 204.562
 299.129 206.586 293.43 210.344 288.922 c 214.594 283.973 220.57 281.355
 227.633 281.355 c 242.727 281.355 250.629 293.238 250.629 304.977 c 250.629
 316.715 242.727 328.621 227.629 328.621 c h
317.238 255.965 m 302.141 255.965 294.246 244.082 294.246 232.344 c 294.168
 226.477 296.195 220.773 299.953 216.27 c 304.199 211.316 310.18 208.699
 317.238 208.699 c 332.336 208.699 340.234 220.582 340.234 232.32 c 340.234
 244.062 332.336 255.965 317.238 255.965 c h
317.238 255.965 m f
317.238 218.543 m 308.152 218.543 304.086 225.473 304.086 232.344 c 304.027
 235.852 305.207 239.27 307.414 241.992 c 309.766 244.734 313.074 246.121
 317.238 246.121 c 326.324 246.121 330.391 239.191 330.391 232.32 c 330.449
 228.812 329.27 225.398 327.062 222.672 c 324.711 219.93 321.402 218.543
 317.238 218.543 c h
317.238 218.543 m f
Q Q
showpage
%%Trailer
end
%%EOF
