%!PS-Adobe-3.0 EPSF-3.0
%%Creator: cairo 1.16.0 (https://cairographics.org)
%%CreationDate: Mon Sep 23 08:21:21 2019
%%Pages: 1
%%DocumentData: Clean7Bit
%%LanguageLevel: 2
%%BoundingBox: 0 0 384 384
%%EndComments
%%BeginProlog
50 dict begin
/q { gsave } bind def
/Q { grestore } bind def
/cm { 6 array astore concat } bind def
/w { setlinewidth } bind def
/J { setlinecap } bind def
/j { setlinejoin } bind def
/M { setmiterlimit } bind def
/d { setdash } bind def
/m { moveto } bind def
/l { lineto } bind def
/c { curveto } bind def
/h { closepath } bind def
/re { exch dup neg 3 1 roll 5 3 roll moveto 0 rlineto
      0 exch rlineto 0 rlineto closepath } bind def
/S { stroke } bind def
/f { fill } bind def
/f* { eofill } bind def
/n { newpath } bind def
/W { clip } bind def
/W* { eoclip } bind def
/BT { } bind def
/ET { } bind def
/BDC { mark 3 1 roll /BDC pdfmark } bind def
/EMC { mark /EMC pdfmark } bind def
/cairo_store_point { /cairo_point_y exch def /cairo_point_x exch def } def
/Tj { show currentpoint cairo_store_point } bind def
/TJ {
  {
    dup
    type /stringtype eq
    { show } { -0.001 mul 0 cairo_font_matrix dtransform rmoveto } ifelse
  } forall
  currentpoint cairo_store_point
} bind def
/cairo_selectfont { cairo_font_matrix aload pop pop pop 0 0 6 array astore
    cairo_font exch selectfont cairo_point_x cairo_point_y moveto } bind def
/Tf { pop /cairo_font exch def /cairo_font_matrix where
      { pop cairo_selectfont } if } bind def
/Td { matrix translate cairo_font_matrix matrix concatmatrix dup
      /cairo_font_matrix exch def dup 4 get exch 5 get cairo_store_point
      /cairo_font where { pop cairo_selectfont } if } bind def
/Tm { 2 copy 8 2 roll 6 array astore /cairo_font_matrix exch def
      cairo_store_point /cairo_font where { pop cairo_selectfont } if } bind def
/g { setgray } bind def
/rg { setrgbcolor } bind def
/d1 { setcachedevice } bind def
/cairo_data_source {
  CairoDataIndex CairoData length lt
    { CairoData CairoDataIndex get /CairoDataIndex CairoDataIndex 1 add def }
    { () } ifelse
} def
/cairo_flush_ascii85_file { cairo_ascii85_file status { cairo_ascii85_file flushfile } if } def
/cairo_image { image cairo_flush_ascii85_file } def
/cairo_imagemask { imagemask cairo_flush_ascii85_file } def
%%EndProlog
%%BeginSetup
%%EndSetup
%%Page: 1 1
%%BeginPageSetup
%%PageBoundingBox: 0 0 384 384
%%EndPageSetup
q 0 0 384 384 rectclip
1 0 0 -1 0 384 cm q
0 g
175.168 183.488 m 179.738 170.883 189.098 160.594 201.215 154.855 c 200.445
 151.438 199.762 147.965 199.051 144.297 c 197.047 133.988 194.977 123.328
 190.684 113.668 c 180.016 89.668 169.547 89.668 156.293 89.668 c 142.172
 89.668 126.168 89.668 112.902 59.82 c 106.566 45.559 96.27 39.453 81.418
 41.145 c 67.062 42.785 52.816 51.273 46.879 55.199 c 96.246 104.566 l 122.059
 93.699 151.793 105.812 162.66 131.621 c 167.961 144.207 167.961 158.395
 162.66 170.98 c h
175.168 183.488 m f
222.977 230.25 m 222.602 230.246 222.227 230.223 221.852 230.172 c 232.215
 240.531 l 254.172 235.344 267.77 213.34 262.582 191.383 c 257.398 169.426
 235.391 155.828 213.434 161.016 c 198.379 164.57 186.621 176.328 183.066
 191.383 c 193.488 201.805 l 193.129 199.051 194.07 196.285 196.031 194.32
 c 198.594 191.742 202.465 190.973 205.824 192.371 c 206.113 192.492 206.395
 192.641 206.656 192.812 c 212.328 196.566 l 214.598 198.066 215.219 201.121
 213.719 203.391 c 213.352 203.941 212.879 204.414 212.328 204.781 c 206.656
 208.535 l 206.391 208.707 206.113 208.859 205.82 208.977 c 204.383 209.586
 202.809 209.793 201.266 209.59 c 214.047 222.371 l 213.855 220.828 214.07
 219.262 214.668 217.824 c 214.789 217.531 214.938 217.254 215.109 216.992
 c 218.863 211.316 l 220.363 209.047 223.418 208.426 225.688 209.926 c 226.238
 210.293 226.711 210.766 227.078 211.316 c 230.832 216.992 l 231.004 217.254
 231.152 217.531 231.273 217.824 c 233.172 222.41 230.992 227.668 226.406
 229.566 c 225.316 230.016 224.148 230.25 222.969 230.25 c h
230.836 184.359 m 227.082 190.035 l 225.582 192.301 222.527 192.926 220.258
 191.422 c 219.707 191.059 219.234 190.586 218.871 190.035 c 215.117 184.359
 l 214.941 184.098 214.793 183.82 214.676 183.527 c 212.773 178.941 214.949
 173.688 219.535 171.785 c 222.895 170.395 226.758 171.16 229.328 173.734
 c 231.906 176.301 232.676 180.168 231.277 183.523 c 231.156 183.816 231.008
 184.098 230.836 184.359 c h
231.41 200.676 m 231.41 199.023 232.242 197.484 233.617 196.574 c 239.293
 192.82 l 239.555 192.645 239.832 192.496 240.125 192.379 c 244.711 190.473
 249.969 192.648 251.875 197.234 c 253.777 201.82 251.605 207.078 247.02
 208.984 c 244.812 209.898 242.332 209.898 240.125 208.984 c 239.832 208.863
 239.551 208.715 239.289 208.539 c 233.613 204.785 l 232.238 203.871 231.41
 202.328 231.41 200.676 c h
231.41 200.676 m f
138.914 117.52 m 128.762 110.641 116.062 108.672 104.301 112.148 c 114.508
 112.098 124.484 115.148 132.914 120.902 c 146.797 130.387 155.102 146.109
 155.113 162.926 c 160.152 145.879 153.605 127.527 138.914 117.52 c h
138.914 117.52 m f
33.316 0.434 m 31.262 1.254 29.926 3.254 29.953 5.469 c 29.953 38.273 l
 39.781 48.102 l 44.195 45.047 56.562 37.09 70.852 33.215 c 39.254 1.613
 l 37.711 0.031 35.352 -0.438 33.316 0.434 c h
33.316 0.434 m f
127.387 129.047 m 123.625 126.488 119.461 124.574 115.07 123.387 c 143.906
 152.223 l 141.387 142.754 135.516 134.52 127.387 129.047 c h
127.387 129.047 m f
368.113 332.168 m 366.133 337.527 363.238 342.504 359.559 346.875 c 357.758
 348.914 354.645 349.109 352.605 347.309 c 350.566 345.508 350.375 342.398
 352.172 340.359 c 352.254 340.266 359.34 332.059 360.098 323.441 c 360.031
 322.91 360.055 322.371 360.16 321.848 c 360.16 320.656 360.004 319.473 
359.699 318.32 c 358.16 312.609 352.543 308.078 343 304.852 c 339.406 303.641
 335.078 300.727 334.852 293.746 c 334.727 289.895 335.906 285.52 337.152
 280.883 c 341.078 266.289 345.141 251.199 318.473 240.891 c 284.211 227.648
 264.992 251.477 264.801 251.719 c 263.152 253.883 260.062 254.297 257.898
 252.648 c 255.738 251 255.324 247.91 256.973 245.746 c 257 245.711 257.027
 245.676 257.055 245.641 c 261.137 240.887 266.051 236.914 271.555 233.918
 c 265.707 228.07 l 265.465 228.445 265.23 228.824 264.977 229.195 c 258.949
 238.09 250.242 244.836 240.121 248.445 c 345.734 354.059 l 378.543 354.059
 l 381.551 354.059 383.992 351.617 383.988 348.609 c 383.988 347.211 383.453
 345.863 382.488 344.852 c h
368.113 332.168 m f
21.555 43.801 m 21.543 43.789 l 9.312 31.555 l 8.336 30.527 6.977 29.945
 5.559 29.945 c 4.809 29.949 4.07 30.094 3.375 30.375 c 1.32 31.195 -0.02
 33.195 0.012 35.41 c 0.012 378.547 l 0.012 381.559 2.449 384 5.461 384 
c 348.598 384 l 351.605 384.004 354.047 381.566 354.051 378.555 c 354.051
 377.109 353.477 375.723 352.453 374.699 c h
96.469 167.715 m 98.391 169.637 98.391 172.754 96.469 174.676 c 58.332 
212.812 l 56.426 214.754 53.309 214.777 51.371 212.871 c 49.434 210.965 
49.406 207.848 51.312 205.91 c 51.367 205.852 l 89.508 167.715 l 91.43 165.789
 94.547 165.789 96.469 167.711 c 96.469 167.711 96.469 167.711 96.473 167.715
 c h
37.062 160.375 m 35.141 158.453 35.141 155.336 37.062 153.414 c 56.133 
134.344 l 58.039 132.402 61.156 132.379 63.094 134.285 c 65.035 136.191 
65.059 139.309 63.152 141.246 c 63.133 141.266 63.113 141.285 63.094 141.305
 c 44.031 160.375 l 42.105 162.297 38.988 162.297 37.066 160.375 c h
48.379 282.973 m 45.66 282.973 43.457 280.77 43.457 278.051 c 43.457 276.695
 44.016 275.398 45.004 274.469 c 122.98 200.984 l 124.938 199.098 128.055
 199.156 129.941 201.113 c 131.828 203.07 131.773 206.188 129.812 208.074
 c 129.789 208.098 129.762 208.125 129.734 208.148 c 51.758 281.633 l 50.844
 282.496 49.637 282.977 48.383 282.973 c h
80.855 318.027 m 78.137 318.027 75.93 315.824 75.93 313.105 c 75.93 311.758
 76.48 310.469 77.457 309.539 c 156.332 234.375 l 158.316 232.516 161.434
 232.617 163.293 234.602 c 165.129 236.562 165.055 239.633 163.125 241.5
 c 84.25 316.668 l 83.336 317.543 82.121 318.031 80.859 318.031 c h
115.129 349.715 m 112.41 349.715 110.203 347.512 110.203 344.793 c 110.203
 343.438 110.766 342.141 111.75 341.211 c 189.73 267.727 l 191.707 265.863
 194.824 265.953 196.688 267.934 c 198.555 269.91 198.461 273.027 196.484
 274.891 c 118.504 348.375 l 117.59 349.238 116.383 349.719 115.129 349.715
 c h
229.957 308.16 m 194.996 343.121 l 193.074 345.043 189.957 345.047 188.035
 343.121 c 186.113 341.199 186.109 338.082 188.035 336.16 c 222.992 301.199
 l 224.914 299.277 228.031 299.277 229.957 301.199 c 231.879 303.121 231.879
 306.238 229.957 308.16 c h
263.328 341.531 m 247.438 357.422 l 245.547 359.379 242.43 359.434 240.473
 357.543 c 238.52 355.656 238.465 352.539 240.355 350.582 c 240.395 350.543
 240.434 350.5 240.473 350.461 c 256.367 334.57 l 258.262 332.621 261.379
 332.582 263.328 334.477 c 265.273 336.371 265.316 339.488 263.422 341.438
 c 263.391 341.469 263.359 341.5 263.328 341.531 c h
263.328 341.531 m f
Q Q
showpage
%%Trailer
end
%%EOF
