%!PS-Adobe-3.0 EPSF-3.0
%%Creator: cairo 1.16.0 (https://cairographics.org)
%%CreationDate: Mon Sep 23 08:21:21 2019
%%Pages: 1
%%DocumentData: Clean7Bit
%%LanguageLevel: 2
%%BoundingBox: 0 32 384 352
%%EndComments
%%BeginProlog
50 dict begin
/q { gsave } bind def
/Q { grestore } bind def
/cm { 6 array astore concat } bind def
/w { setlinewidth } bind def
/J { setlinecap } bind def
/j { setlinejoin } bind def
/M { setmiterlimit } bind def
/d { setdash } bind def
/m { moveto } bind def
/l { lineto } bind def
/c { curveto } bind def
/h { closepath } bind def
/re { exch dup neg 3 1 roll 5 3 roll moveto 0 rlineto
      0 exch rlineto 0 rlineto closepath } bind def
/S { stroke } bind def
/f { fill } bind def
/f* { eofill } bind def
/n { newpath } bind def
/W { clip } bind def
/W* { eoclip } bind def
/BT { } bind def
/ET { } bind def
/BDC { mark 3 1 roll /BDC pdfmark } bind def
/EMC { mark /EMC pdfmark } bind def
/cairo_store_point { /cairo_point_y exch def /cairo_point_x exch def } def
/Tj { show currentpoint cairo_store_point } bind def
/TJ {
  {
    dup
    type /stringtype eq
    { show } { -0.001 mul 0 cairo_font_matrix dtransform rmoveto } ifelse
  } forall
  currentpoint cairo_store_point
} bind def
/cairo_selectfont { cairo_font_matrix aload pop pop pop 0 0 6 array astore
    cairo_font exch selectfont cairo_point_x cairo_point_y moveto } bind def
/Tf { pop /cairo_font exch def /cairo_font_matrix where
      { pop cairo_selectfont } if } bind def
/Td { matrix translate cairo_font_matrix matrix concatmatrix dup
      /cairo_font_matrix exch def dup 4 get exch 5 get cairo_store_point
      /cairo_font where { pop cairo_selectfont } if } bind def
/Tm { 2 copy 8 2 roll 6 array astore /cairo_font_matrix exch def
      cairo_store_point /cairo_font where { pop cairo_selectfont } if } bind def
/g { setgray } bind def
/rg { setrgbcolor } bind def
/d1 { setcachedevice } bind def
/cairo_data_source {
  CairoDataIndex CairoData length lt
    { CairoData CairoDataIndex get /CairoDataIndex CairoDataIndex 1 add def }
    { () } ifelse
} def
/cairo_flush_ascii85_file { cairo_ascii85_file status { cairo_ascii85_file flushfile } if } def
/cairo_image { image cairo_flush_ascii85_file } def
/cairo_imagemask { imagemask cairo_flush_ascii85_file } def
%%EndProlog
%%BeginSetup
%%EndSetup
%%Page: 1 1
%%BeginPageSetup
%%PageBoundingBox: 0 32 384 352
%%EndPageSetup
q 0 32 384 320 rectclip
1 0 0 -1 0 384 cm q
0 g
139.039 259.219 m 140.297 259.238 141.332 258.23 141.352 256.973 c 141.367
 255.715 140.359 254.68 139.102 254.664 c 137.844 254.645 136.809 255.652
 136.793 256.91 c 136.793 256.941 l 136.785 258.191 137.789 259.211 139.039
 259.219 c h
139.039 259.219 m f
159.004 115.594 m 159.004 116.984 157.891 118.113 156.516 118.113 c 155.141
 118.113 154.027 116.984 154.027 115.594 c 154.027 114.199 155.141 113.074
 156.516 113.074 c 157.891 113.074 159.004 114.199 159.004 115.594 c h
159.004 115.594 m f
220.77 208.574 m 222.406 208.594 223.75 207.281 223.766 205.648 c 223.785
 204.012 222.477 202.668 220.84 202.648 c 219.203 202.633 217.863 203.941
 217.844 205.578 c 217.844 205.613 l 217.836 207.238 219.145 208.562 220.77
 208.574 c h
220.77 208.574 m f
226.141 315.664 m 224.52 315.645 223.188 316.945 223.172 318.566 c 223.152
 320.188 224.449 321.516 226.07 321.535 c 227.691 321.555 229.023 320.258
 229.039 318.633 c 229.039 318.625 229.039 318.609 229.039 318.598 c 229.047
 316.988 227.75 315.676 226.141 315.664 c h
226.141 315.664 m f
79.492 181.762 m 80.199 181.773 80.785 181.215 80.801 180.508 c 80.816 
179.801 80.254 179.215 79.547 179.199 c 78.84 179.184 78.254 179.746 78.238
 180.453 c 78.238 180.48 l 78.23 181.18 78.793 181.75 79.492 181.762 c h
79.492 181.762 m f
53.398 93.156 m 54.02 93.168 54.531 92.68 54.547 92.062 c 54.562 91.441
 54.07 90.93 53.453 90.914 c 52.832 90.898 52.32 91.391 52.305 92.008 c 
52.305 92.035 l 52.301 92.645 52.789 93.145 53.398 93.156 c h
53.398 93.156 m f
64.684 303.66 m 64.684 305.434 63.258 306.875 61.504 306.875 c 59.746 306.875
 58.324 305.434 58.324 303.66 c 58.324 301.883 59.746 300.441 61.504 300.441
 c 63.258 300.441 64.684 301.883 64.684 303.66 c h
64.684 303.66 m f
230.438 82.805 m 231.055 82.82 231.566 82.328 231.582 81.711 c 231.598 
81.094 231.105 80.578 230.488 80.566 c 229.871 80.551 229.355 81.039 229.344
 81.66 c 229.344 81.684 l 229.336 82.297 229.824 82.797 230.438 82.805 c
 h
230.438 82.805 m f
305.305 202.652 m 303.668 202.633 302.324 203.945 302.305 205.578 c 302.289
 207.215 303.598 208.559 305.234 208.574 c 306.871 208.594 308.211 207.285
 308.23 205.648 c 308.23 205.637 308.23 205.625 308.23 205.613 c 308.238
 203.988 306.93 202.664 305.305 202.652 c h
305.305 202.652 m f
331.281 315.664 m 329.664 315.645 328.332 316.945 328.312 318.566 c 328.293
 320.188 329.594 321.516 331.215 321.535 c 332.836 321.555 334.164 320.258
 334.184 318.633 c 334.184 318.625 334.184 318.609 334.184 318.598 c 334.191
 316.988 332.895 315.676 331.281 315.664 c h
331.281 315.664 m f
335.578 80.566 m 334.961 80.551 334.445 81.039 334.434 81.66 c 334.418 
82.277 334.906 82.789 335.527 82.805 c 336.145 82.82 336.656 82.328 336.672
 81.711 c 336.672 81.703 336.672 81.695 336.672 81.684 c 336.68 81.074 336.191
 80.574 335.578 80.566 c h
335.578 80.566 m f
263.172 351.18 m 263.172 131.324 l 263.184 128.496 264.512 125.84 266.762
 124.125 c 274.789 118.055 284.348 108.277 284.348 96.125 c 284.348 69.867
 239.77 45.82 178.355 38.934 c 166.34 37.602 154.262 36.938 142.172 36.945
 c 103.547 36.945 67.305 43.469 40.129 55.312 c 14.625 66.43 0 81.301 0 
96.125 c 0 108.266 9.559 118.051 17.578 124.117 c 19.836 125.828 21.164 
128.492 21.176 131.324 c 21.176 351.18 l h
226.141 331.379 m 219.082 331.398 213.344 325.691 213.324 318.633 c 213.305
 311.574 219.012 305.836 226.07 305.816 c 233.129 305.801 238.867 311.508
 238.887 318.566 c 238.887 318.598 l 238.887 325.645 233.188 331.363 226.141
 331.379 c h
230.438 70.719 m 236.492 70.703 241.414 75.602 241.43 81.66 c 241.441 87.715
 236.543 92.637 230.488 92.652 c 224.434 92.664 219.512 87.766 219.496 81.711
 c 219.496 81.703 219.496 81.695 219.496 81.684 c 219.496 75.641 224.391
 70.734 230.438 70.719 c h
220.77 192.805 m 227.844 192.785 233.598 198.504 233.617 205.578 c 233.637
 212.648 227.918 218.402 220.848 218.422 c 213.773 218.441 208.02 212.727
 208 205.652 c 208 205.641 208 205.629 208 205.613 c 208 198.555 213.711
 192.824 220.77 192.805 c h
61.504 316.719 m 54.289 316.738 48.426 310.906 48.406 303.691 c 48.387 
296.477 54.219 290.613 61.434 290.594 c 68.648 290.574 74.512 296.406 74.531
 303.621 c 74.531 303.656 l 74.531 310.855 68.703 316.699 61.504 316.719
 c h
156.52 103.219 m 163.348 103.203 168.898 108.727 168.918 115.555 c 168.934
 122.387 163.41 127.938 156.582 127.953 c 149.75 127.973 144.199 122.449
 144.184 115.617 c 144.184 115.609 144.184 115.598 144.184 115.586 c 144.184
 108.773 149.699 103.246 156.516 103.227 c h
139.043 244.812 m 145.738 244.793 151.18 250.207 151.199 256.906 c 151.215
 263.602 145.801 269.043 139.105 269.062 c 132.406 269.078 126.965 263.664
 126.949 256.969 c 126.949 256.957 126.949 256.945 126.949 256.938 c 126.949
 250.254 132.359 244.836 139.039 244.816 c h
79.492 169.355 m 85.637 169.34 90.629 174.309 90.645 180.453 c 90.66 186.598
 85.691 191.594 79.547 191.609 c 73.398 191.621 68.406 186.652 68.391 180.508
 c 68.391 180.5 68.391 180.488 68.391 180.48 c 68.391 174.348 73.355 169.367
 79.492 169.355 c h
53.398 81.066 m 59.457 81.051 64.375 85.949 64.391 92.008 c 64.406 98.062
 59.508 102.984 53.453 103 c 47.395 103.016 42.473 98.117 42.461 92.059 
c 42.461 92.051 42.461 92.043 42.461 92.031 c 42.461 85.984 47.352 81.082
 53.398 81.066 c h
53.398 81.066 m f
260.273 52.246 m 282.465 64.543 294.195 79.719 294.195 96.125 c 294.195
 108.855 286.871 121.164 273.016 131.738 c 273.016 347.043 l 362.824 347.043
 l 362.824 127.184 l 362.84 124.359 364.164 121.703 366.414 119.996 c 374.441
 113.918 384 104.133 384 91.98 c 384 77.164 369.375 62.289 343.871 51.18
 c 316.695 39.34 280.453 32.82 241.824 32.82 c 231.121 32.82 220.621 33.312
 210.398 34.297 c 210.453 34.309 210.504 34.32 210.559 34.336 c 218.824 
36.258 228.023 38.887 237.844 42.523 c 246.16 45.605 253.648 48.934 260.273
 52.246 c h
305.305 218.422 m 298.23 218.438 292.48 212.719 292.461 205.648 c 292.441
 198.574 298.16 192.824 305.234 192.805 c 312.309 192.785 318.059 198.504
 318.078 205.578 c 318.078 205.613 l 318.078 212.672 312.363 218.402 305.305
 218.422 c h
331.281 331.379 m 324.223 331.398 318.484 325.691 318.469 318.633 c 318.449
 311.574 324.156 305.836 331.215 305.816 c 338.273 305.801 344.012 311.508
 344.031 318.566 c 344.031 318.598 l 344.031 325.645 338.328 331.363 331.281
 331.379 c h
335.578 92.652 m 329.523 92.664 324.602 87.766 324.586 81.711 c 324.57 
75.656 329.469 70.734 335.527 70.719 c 341.582 70.703 346.504 75.602 346.52
 81.66 c 346.52 81.684 l 346.52 87.73 341.625 92.637 335.578 92.652 c h
335.578 92.652 m f
Q Q
showpage
%%Trailer
end
%%EOF
