%!PS-Adobe-3.0 EPSF-3.0
%%Creator: cairo 1.16.0 (https://cairographics.org)
%%CreationDate: Mon Sep 23 08:21:21 2019
%%Pages: 1
%%DocumentData: Clean7Bit
%%LanguageLevel: 2
%%BoundingBox: 0 0 384 384
%%EndComments
%%BeginProlog
50 dict begin
/q { gsave } bind def
/Q { grestore } bind def
/cm { 6 array astore concat } bind def
/w { setlinewidth } bind def
/J { setlinecap } bind def
/j { setlinejoin } bind def
/M { setmiterlimit } bind def
/d { setdash } bind def
/m { moveto } bind def
/l { lineto } bind def
/c { curveto } bind def
/h { closepath } bind def
/re { exch dup neg 3 1 roll 5 3 roll moveto 0 rlineto
      0 exch rlineto 0 rlineto closepath } bind def
/S { stroke } bind def
/f { fill } bind def
/f* { eofill } bind def
/n { newpath } bind def
/W { clip } bind def
/W* { eoclip } bind def
/BT { } bind def
/ET { } bind def
/BDC { mark 3 1 roll /BDC pdfmark } bind def
/EMC { mark /EMC pdfmark } bind def
/cairo_store_point { /cairo_point_y exch def /cairo_point_x exch def } def
/Tj { show currentpoint cairo_store_point } bind def
/TJ {
  {
    dup
    type /stringtype eq
    { show } { -0.001 mul 0 cairo_font_matrix dtransform rmoveto } ifelse
  } forall
  currentpoint cairo_store_point
} bind def
/cairo_selectfont { cairo_font_matrix aload pop pop pop 0 0 6 array astore
    cairo_font exch selectfont cairo_point_x cairo_point_y moveto } bind def
/Tf { pop /cairo_font exch def /cairo_font_matrix where
      { pop cairo_selectfont } if } bind def
/Td { matrix translate cairo_font_matrix matrix concatmatrix dup
      /cairo_font_matrix exch def dup 4 get exch 5 get cairo_store_point
      /cairo_font where { pop cairo_selectfont } if } bind def
/Tm { 2 copy 8 2 roll 6 array astore /cairo_font_matrix exch def
      cairo_store_point /cairo_font where { pop cairo_selectfont } if } bind def
/g { setgray } bind def
/rg { setrgbcolor } bind def
/d1 { setcachedevice } bind def
/cairo_data_source {
  CairoDataIndex CairoData length lt
    { CairoData CairoDataIndex get /CairoDataIndex CairoDataIndex 1 add def }
    { () } ifelse
} def
/cairo_flush_ascii85_file { cairo_ascii85_file status { cairo_ascii85_file flushfile } if } def
/cairo_image { image cairo_flush_ascii85_file } def
/cairo_imagemask { imagemask cairo_flush_ascii85_file } def
%%EndProlog
%%BeginSetup
%%EndSetup
%%Page: 1 1
%%BeginPageSetup
%%PageBoundingBox: 0 0 384 384
%%EndPageSetup
q 0 0 384 384 rectclip
1 0 0 -1 0 384 cm q
0 g
33.438 290.199 m 290.184 33.453 l 295.285 28.34 295.285 20.062 290.184 
14.949 c 281.727 6.496 l 273.055 -2.156 259.016 -2.156 250.344 6.496 c 6.488
 250.348 l -2.164 259.023 -2.164 273.062 6.488 281.734 c 14.945 290.188 
l 20.055 295.285 28.324 295.289 33.438 290.199 c h
33.438 290.199 m f
362.77 94.941 m 358.039 94.934 353.496 96.812 350.152 100.164 c 100.156
 350.156 l 93.195 357.133 93.195 368.426 100.156 375.402 c 111.637 386.855
 130.223 386.855 141.707 375.402 c 375.395 141.715 l 386.867 130.238 386.871
 111.637 375.395 100.164 c 375.395 100.164 375.395 100.164 375.395 100.16
 c 372.047 96.812 367.504 94.934 362.77 94.941 c h
362.77 94.941 m f
343.238 93.254 m 343.246 93.246 l 359.316 77.18 l 372.992 63.504 372.992
 41.332 359.316 27.656 c 345.645 13.98 323.473 13.98 309.797 27.656 c 27.648
 309.805 l 13.973 323.477 13.973 345.648 27.648 359.324 c 41.324 373 63.496
 373 77.168 359.324 c h
188.828 188.93 m 181.355 196.406 181.043 203.348 180.688 211.387 c 180.293
 220.184 179.848 230.16 169.691 240.316 c 159.535 250.473 149.562 250.914
 140.766 251.309 c 132.727 251.664 125.785 251.973 118.312 259.449 c 110.844
 266.922 110.531 273.859 110.172 281.898 c 109.777 290.699 109.336 300.672
 99.18 310.824 c 89.027 320.98 79.055 321.426 70.254 321.816 c 62.215 322.176
 55.273 322.484 47.805 329.957 c 45.91 331.879 42.816 331.906 40.895 330.016
 c 38.973 328.121 38.945 325.031 40.84 323.105 c 40.895 323.051 l 51.051
 312.895 61.023 312.449 69.82 312.059 c 77.859 311.699 84.801 311.391 92.273
 303.918 c 99.742 296.441 100.055 289.508 100.414 281.465 c 100.805 272.668
 101.25 262.695 111.406 252.539 c 121.559 242.383 131.531 241.941 140.332
 241.547 c 148.367 241.191 155.312 240.879 162.781 233.406 c 170.254 225.934
 170.566 218.988 170.926 210.949 c 171.32 202.152 171.766 192.176 181.922
 182.02 c 192.078 171.863 202.055 171.414 210.855 171.016 c 218.898 170.656
 225.844 170.344 233.32 162.867 c 240.797 155.391 241.105 148.449 241.461
 140.41 c 241.855 131.609 242.301 121.637 252.457 111.48 c 262.617 101.32
 272.602 100.867 281.402 100.469 c 289.445 100.109 296.391 99.793 303.875
 92.312 c 311.355 84.832 311.668 77.887 312.031 69.84 c 312.426 61.039 312.879
 51.062 323.039 40.902 c 324.973 39.02 328.066 39.062 329.949 40.996 c 331.793
 42.891 331.793 45.914 329.949 47.809 c 322.465 55.293 322.152 62.238 321.789
 70.281 c 321.395 79.082 320.945 89.059 310.781 99.219 c 300.617 109.383
 290.645 109.832 281.844 110.227 c 273.797 110.59 266.852 110.902 259.371
 118.387 c 251.891 125.867 251.586 132.805 251.23 140.844 c 250.836 149.645
 250.391 159.617 240.234 169.773 c 230.074 179.93 220.098 180.383 211.297
 180.777 c 203.254 181.141 196.309 181.453 188.828 188.93 c h
188.828 188.93 m f
Q Q
showpage
%%Trailer
end
%%EOF
