%!PS-Adobe-3.0 EPSF-3.0
%%Creator: cairo 1.16.0 (https://cairographics.org)
%%CreationDate: Mon Sep 23 08:21:21 2019
%%Pages: 1
%%DocumentData: Clean7Bit
%%LanguageLevel: 2
%%BoundingBox: 0 34 384 350
%%EndComments
%%BeginProlog
50 dict begin
/q { gsave } bind def
/Q { grestore } bind def
/cm { 6 array astore concat } bind def
/w { setlinewidth } bind def
/J { setlinecap } bind def
/j { setlinejoin } bind def
/M { setmiterlimit } bind def
/d { setdash } bind def
/m { moveto } bind def
/l { lineto } bind def
/c { curveto } bind def
/h { closepath } bind def
/re { exch dup neg 3 1 roll 5 3 roll moveto 0 rlineto
      0 exch rlineto 0 rlineto closepath } bind def
/S { stroke } bind def
/f { fill } bind def
/f* { eofill } bind def
/n { newpath } bind def
/W { clip } bind def
/W* { eoclip } bind def
/BT { } bind def
/ET { } bind def
/BDC { mark 3 1 roll /BDC pdfmark } bind def
/EMC { mark /EMC pdfmark } bind def
/cairo_store_point { /cairo_point_y exch def /cairo_point_x exch def } def
/Tj { show currentpoint cairo_store_point } bind def
/TJ {
  {
    dup
    type /stringtype eq
    { show } { -0.001 mul 0 cairo_font_matrix dtransform rmoveto } ifelse
  } forall
  currentpoint cairo_store_point
} bind def
/cairo_selectfont { cairo_font_matrix aload pop pop pop 0 0 6 array astore
    cairo_font exch selectfont cairo_point_x cairo_point_y moveto } bind def
/Tf { pop /cairo_font exch def /cairo_font_matrix where
      { pop cairo_selectfont } if } bind def
/Td { matrix translate cairo_font_matrix matrix concatmatrix dup
      /cairo_font_matrix exch def dup 4 get exch 5 get cairo_store_point
      /cairo_font where { pop cairo_selectfont } if } bind def
/Tm { 2 copy 8 2 roll 6 array astore /cairo_font_matrix exch def
      cairo_store_point /cairo_font where { pop cairo_selectfont } if } bind def
/g { setgray } bind def
/rg { setrgbcolor } bind def
/d1 { setcachedevice } bind def
/cairo_data_source {
  CairoDataIndex CairoData length lt
    { CairoData CairoDataIndex get /CairoDataIndex CairoDataIndex 1 add def }
    { () } ifelse
} def
/cairo_flush_ascii85_file { cairo_ascii85_file status { cairo_ascii85_file flushfile } if } def
/cairo_image { image cairo_flush_ascii85_file } def
/cairo_imagemask { imagemask cairo_flush_ascii85_file } def
%%EndProlog
%%BeginSetup
%%EndSetup
%%Page: 1 1
%%BeginPageSetup
%%PageBoundingBox: 0 34 384 350
%%EndPageSetup
q 0 34 384 316 rectclip
1 0 0 -1 0 384 cm q
0 g
243.492 179.773 m 243.031 179.754 242.637 180.109 242.613 180.57 c 242.594
 181.035 242.949 181.426 243.414 181.449 c 243.875 181.473 244.27 181.113
 244.289 180.652 c 244.293 180.641 244.293 180.625 244.293 180.613 c 244.301
 180.16 243.945 179.785 243.492 179.773 c h
243.492 179.773 m f
214.258 116.566 m 213.797 116.543 213.402 116.898 213.379 117.363 c 213.355
 117.824 213.715 118.219 214.176 118.242 c 214.641 118.266 215.031 117.906
 215.055 117.445 c 215.055 117.43 215.055 117.418 215.055 117.402 c 215.066
 116.953 214.711 116.578 214.258 116.566 c h
214.258 116.566 m f
209.336 55.77 m 209.316 55.328 208.941 54.988 208.5 55.008 c 208.059 55.027
 207.719 55.402 207.738 55.844 c 207.758 56.273 208.109 56.605 208.535 56.605
 c 208.988 56.594 209.344 56.223 209.336 55.77 c h
209.336 55.77 m f
302.742 105.043 m 302.277 105.02 301.883 105.379 301.859 105.84 c 301.84
 106.305 302.195 106.699 302.66 106.723 c 303.121 106.742 303.516 106.387
 303.539 105.922 c 303.539 105.91 303.539 105.895 303.539 105.883 c 303.547
 105.43 303.191 105.055 302.742 105.043 c h
302.742 105.043 m f
332.199 174.012 m 331.738 173.988 331.348 174.348 331.324 174.809 c 331.301
 175.273 331.66 175.664 332.121 175.688 c 332.586 175.707 332.977 175.352
 333 174.887 c 333 174.875 333 174.863 333 174.848 c 333.012 174.398 332.652
 174.023 332.199 174.012 c h
332.199 174.012 m f
84.41 196.852 m 83.949 196.828 83.555 197.188 83.531 197.648 c 83.512 198.109
 83.867 198.504 84.332 198.527 c 84.793 198.547 85.188 198.191 85.207 197.73
 c 85.211 197.715 85.211 197.703 85.211 197.688 c 85.219 197.238 84.863 
196.863 84.41 196.852 c h
84.41 196.852 m f
125.602 93.523 m 125.137 93.5 124.746 93.859 124.723 94.32 c 124.703 94.781
 125.059 95.176 125.523 95.199 c 125.984 95.219 126.379 94.863 126.398 94.398
 c 126.398 94.387 126.398 94.371 126.398 94.359 c 126.41 93.906 126.051 
93.535 125.602 93.523 c h
125.602 93.523 m f
164.621 174.012 m 164.16 173.988 163.766 174.344 163.742 174.809 c 163.723
 175.27 164.078 175.664 164.539 175.688 c 165.004 175.711 165.398 175.352
 165.418 174.891 c 165.422 174.875 165.422 174.863 165.422 174.848 c 165.43
 174.398 165.074 174.023 164.621 174.012 c h
164.621 174.012 m f
54.617 139.434 m 54.152 139.414 53.762 139.77 53.738 140.234 c 53.719 140.695
 54.074 141.09 54.539 141.109 c 55 141.133 55.395 140.773 55.414 140.312
 c 55.414 140.297 55.414 140.285 55.414 140.273 c 55.426 139.82 55.066 139.445
 54.617 139.434 c h
54.617 139.434 m f
207.293 256.164 m 79.043 256.164 l 131.918 315.586 l h
207.293 256.164 m f
324.746 256.164 28.57 25.188 re f
370.906 220.953 m 13.133 220.953 l 13.098 246.32 l 370.906 246.32 l h
370.906 220.953 m f
39.957 256.164 m 39.844 281.352 l 88.273 281.352 l 65.863 256.164 l h
39.957 256.164 m f
323.336 86.988 m 249.566 17.5 134.434 17.5 60.664 86.988 c 25.969 119.539
 4.469 163.723 0.262 211.109 c 383.738 211.109 l 379.531 163.719 358.031
 119.539 323.336 86.988 c h
54.617 150.957 m 48.719 150.977 43.918 146.211 43.895 140.312 c 43.875 
134.41 48.641 129.609 54.539 129.59 c 60.441 129.566 65.242 134.332 65.262
 140.234 c 65.262 140.273 l 65.27 146.16 60.504 150.941 54.617 150.957 c
 h
84.41 208.371 m 78.512 208.395 73.711 203.629 73.688 197.727 c 73.668 191.828
 78.434 187.027 84.332 187.004 c 90.234 186.984 95.035 191.75 95.055 197.648
 c 95.055 197.688 l 95.059 203.574 90.297 208.355 84.41 208.371 c h
125.602 105.043 m 119.703 105.066 114.902 100.301 114.879 94.398 c 114.855
 88.5 119.621 83.699 125.523 83.676 c 131.422 83.652 136.223 88.422 136.246
 94.32 c 136.246 94.359 l 136.25 100.246 131.488 105.027 125.602 105.043
 c h
164.625 185.535 m 158.723 185.559 153.922 180.793 153.898 174.895 c 153.875
 168.992 158.641 164.191 164.543 164.168 c 170.441 164.145 175.242 168.91
 175.266 174.812 c 175.266 174.852 l 175.27 180.738 170.508 185.516 164.621
 185.531 c h
197.891 55.77 m 197.914 49.891 202.695 45.141 208.574 45.164 c 214.453 
45.184 219.203 49.969 219.184 55.848 c 219.16 61.711 214.402 66.453 208.535
 66.453 c 202.648 66.438 197.887 61.656 197.891 55.77 c h
214.258 128.086 m 208.359 128.109 203.559 123.344 203.535 117.445 c 203.512
 111.543 208.277 106.742 214.18 106.719 c 220.078 106.699 224.879 111.465
 224.902 117.363 c 224.902 117.402 l 224.906 123.289 220.145 128.07 214.258
 128.086 c h
243.492 191.293 m 237.594 191.316 232.793 186.551 232.77 180.648 c 232.746
 174.75 237.516 169.949 243.414 169.926 c 249.316 169.902 254.117 174.672
 254.137 180.57 c 254.137 180.609 l 254.141 186.496 249.379 191.277 243.492
 191.293 c h
302.742 116.566 m 296.84 116.59 292.039 111.824 292.016 105.922 c 291.992
 100.02 296.758 95.219 302.66 95.195 c 308.562 95.176 313.363 99.941 313.387
 105.84 c 313.387 105.883 l 313.391 111.77 308.629 116.551 302.742 116.566
 c h
332.199 185.531 m 326.301 185.555 321.5 180.789 321.48 174.887 c 321.457
 168.988 326.223 164.188 332.125 164.164 c 338.023 164.145 342.824 168.91
 342.848 174.809 c 342.848 174.852 l 342.848 180.738 338.086 185.516 332.199
 185.531 c h
332.199 185.531 m f
324.746 291.199 m 324.746 324.066 l 324.816 335.723 315.426 345.23 303.77
 345.305 c 292.113 345.375 282.602 335.984 282.531 324.328 c 282.531 324.242
 282.531 324.152 282.531 324.066 c 282.531 281.582 l 282.609 274.988 277.324
 269.582 270.73 269.504 c 264.137 269.426 258.73 274.707 258.652 281.301
 c 258.652 281.395 258.652 281.488 258.652 281.582 c 258.652 294.277 l 258.652
 305.938 249.203 315.387 237.547 315.387 c 225.887 315.387 216.438 305.938
 216.438 294.277 c 216.438 261.496 l 134.371 326.195 l 132.324 327.809 129.375
 327.547 127.645 325.602 c 97.035 291.199 l 0 291.199 l 0 349.129 l 384 
349.129 l 384 291.199 l h
324.746 291.199 m f
303.637 335.324 m 309.855 335.316 314.891 330.277 314.898 324.062 c 314.898
 256.164 l 226.285 256.164 l 226.285 294.277 l 226.285 300.496 231.324 305.539
 237.547 305.539 c 243.766 305.539 248.805 300.496 248.805 294.277 c 248.805
 281.582 l 248.703 269.551 258.371 259.711 270.402 259.609 c 282.434 259.504
 292.273 269.172 292.375 281.203 c 292.375 281.328 292.375 281.457 292.375
 281.582 c 292.375 324.062 l 292.383 330.277 297.422 335.316 303.637 335.324
 c h
303.637 335.324 m f
Q Q
showpage
%%Trailer
end
%%EOF
