%!PS-Adobe-3.0 EPSF-3.0
%%Creator: cairo 1.16.0 (https://cairographics.org)
%%CreationDate: Mon Sep 23 08:21:22 2019
%%Pages: 1
%%DocumentData: Clean7Bit
%%LanguageLevel: 2
%%BoundingBox: 0 8 384 376
%%EndComments
%%BeginProlog
50 dict begin
/q { gsave } bind def
/Q { grestore } bind def
/cm { 6 array astore concat } bind def
/w { setlinewidth } bind def
/J { setlinecap } bind def
/j { setlinejoin } bind def
/M { setmiterlimit } bind def
/d { setdash } bind def
/m { moveto } bind def
/l { lineto } bind def
/c { curveto } bind def
/h { closepath } bind def
/re { exch dup neg 3 1 roll 5 3 roll moveto 0 rlineto
      0 exch rlineto 0 rlineto closepath } bind def
/S { stroke } bind def
/f { fill } bind def
/f* { eofill } bind def
/n { newpath } bind def
/W { clip } bind def
/W* { eoclip } bind def
/BT { } bind def
/ET { } bind def
/BDC { mark 3 1 roll /BDC pdfmark } bind def
/EMC { mark /EMC pdfmark } bind def
/cairo_store_point { /cairo_point_y exch def /cairo_point_x exch def } def
/Tj { show currentpoint cairo_store_point } bind def
/TJ {
  {
    dup
    type /stringtype eq
    { show } { -0.001 mul 0 cairo_font_matrix dtransform rmoveto } ifelse
  } forall
  currentpoint cairo_store_point
} bind def
/cairo_selectfont { cairo_font_matrix aload pop pop pop 0 0 6 array astore
    cairo_font exch selectfont cairo_point_x cairo_point_y moveto } bind def
/Tf { pop /cairo_font exch def /cairo_font_matrix where
      { pop cairo_selectfont } if } bind def
/Td { matrix translate cairo_font_matrix matrix concatmatrix dup
      /cairo_font_matrix exch def dup 4 get exch 5 get cairo_store_point
      /cairo_font where { pop cairo_selectfont } if } bind def
/Tm { 2 copy 8 2 roll 6 array astore /cairo_font_matrix exch def
      cairo_store_point /cairo_font where { pop cairo_selectfont } if } bind def
/g { setgray } bind def
/rg { setrgbcolor } bind def
/d1 { setcachedevice } bind def
/cairo_data_source {
  CairoDataIndex CairoData length lt
    { CairoData CairoDataIndex get /CairoDataIndex CairoDataIndex 1 add def }
    { () } ifelse
} def
/cairo_flush_ascii85_file { cairo_ascii85_file status { cairo_ascii85_file flushfile } if } def
/cairo_image { image cairo_flush_ascii85_file } def
/cairo_imagemask { imagemask cairo_flush_ascii85_file } def
%%EndProlog
%%BeginSetup
%%EndSetup
%%Page: 1 1
%%BeginPageSetup
%%PageBoundingBox: 0 8 384 376
%%EndPageSetup
q 0 8 384 368 rectclip
1 0 0 -1 0 384 cm q
0 g
121.738 254.652 m 9.367 254.652 l 9.367 147.07 l 9.367 144.484 7.27 142.387
 4.684 142.387 c 2.098 142.387 0 144.484 0 147.07 c 0 366.367 l 0 368.957
 2.098 371.051 4.684 371.051 c 7.27 371.051 9.367 368.957 9.367 366.367 
c 9.367 264.02 l 119.332 264.02 l 119.332 366.367 l 119.332 368.957 121.43
 371.051 124.016 371.051 c 126.602 371.051 128.699 368.957 128.699 366.367
 c 128.699 261.609 l 128.691 257.77 125.578 254.656 121.738 254.652 c h
121.738 254.652 m f
379.316 142.387 m 376.73 142.387 374.633 144.484 374.633 147.07 c 374.633
 254.652 l 262.262 254.652 l 258.422 254.656 255.309 257.77 255.301 261.609
 c 255.301 366.367 l 255.301 368.957 257.398 371.051 259.984 371.051 c 262.57
 371.051 264.668 368.957 264.668 366.367 c 264.668 264.02 l 374.633 264.02
 l 374.633 366.367 l 374.633 368.957 376.73 371.051 379.316 371.051 c 381.902
 371.051 384 368.957 384 366.367 c 384 147.07 l 384 144.484 381.902 142.387
 379.316 142.387 c h
379.316 142.387 m f
214.117 366.199 m 200.535 366.199 l 200.535 217.637 l 288.922 217.637 l
 291.508 217.637 293.602 215.543 293.602 212.953 c 293.602 210.367 291.508
 208.273 288.922 208.273 c 200.535 208.273 l 200.535 202.809 l 200.535 202.73
 200.527 202.648 200.523 202.566 c 201.234 120.07 l 191.871 120.016 l 191.105
 208.273 l 104.82 208.273 l 102.234 208.273 100.137 210.371 100.137 212.957
 c 100.137 215.543 102.234 217.641 104.82 217.641 c 191.168 217.641 l 191.168
 366.199 l 177.586 366.199 l 175 366.199 172.906 368.297 172.906 370.883
 c 172.906 373.469 175 375.566 177.586 375.566 c 214.121 375.566 l 216.707
 375.566 218.801 373.469 218.801 370.883 c 218.801 368.297 216.707 366.199
 214.121 366.199 c h
214.117 366.199 m f
201.469 99.031 m 201.438 99.465 201.426 99.898 201.438 100.336 c 201.77
 110.199 213.27 117.887 227.074 117.438 c 235.09 117.184 242.605 114.121
 247.172 109.242 c 249.227 107.047 251.645 103.453 251.488 98.777 c 251.469
 98.34 251.43 97.91 251.367 97.48 c 251.312 97.07 251.312 96.652 251.367
 96.242 c 250.219 72.148 244.375 49.816 234.789 33.129 c 226.164 18.121 
215.574 9.504 204.688 8.457 c 204.477 8.449 204.266 8.441 204.051 8.434 
c 202.246 14.977 200.617 37.504 200.898 71.473 c 201.125 72.031 201.238 
72.633 201.234 73.234 c 201.156 87.285 l 201.242 90.941 201.348 94.691 201.477
 98.551 c 201.484 98.711 201.48 98.871 201.469 99.031 c h
201.469 99.031 m f
171.953 10.711 m 145.465 15.594 121.855 27.777 105.195 45.559 c 90.086 
61.688 82.262 80.676 82.516 100.562 c 83.211 110.172 94.613 117.59 108.117
 117.172 c 120.906 116.77 131.609 109.289 132.477 100.145 c 132.5 99.961
 132.535 99.773 132.582 99.594 c 131.883 73.656 136.375 53.164 146.336 37.008
 c 152.531 26.957 160.883 18.363 171.953 10.711 c h
171.953 10.711 m f
310.828 94.934 m 309.504 55.391 275.949 22.723 230.602 12.027 c 235.41 
16.941 239.547 22.469 242.91 28.465 c 253.195 46.363 259.469 70.102 260.711
 95.574 c 260.859 96.09 260.914 96.625 260.879 97.156 c 260.848 97.59 260.836
 98.027 260.848 98.461 c 261.18 108.328 272.684 116.004 286.484 115.562 
c 294.496 115.312 302.016 112.25 306.582 107.367 c 308.637 105.176 311.055
 101.578 310.895 96.902 c 310.883 96.516 310.891 96.129 310.926 95.742 c
 310.871 95.477 310.84 95.207 310.828 94.934 c h
310.828 94.934 m f
194.48 8.449 m 175.375 17.844 162.582 28.5 154.309 41.922 c 145.199 56.695
 141.164 75.824 141.969 100.391 c 141.969 100.41 141.973 100.434 141.973
 100.453 c 141.973 100.648 l 142.355 110.48 153.832 118.121 167.605 117.68
 c 175.621 117.43 183.137 114.367 187.707 109.484 c 189.645 107.484 191.023
 105.008 191.703 102.305 c 191.789 87.344 l 191.324 67.555 191.418 48.98
 192.074 34.133 c 192.66 20.898 193.551 13.137 194.48 8.449 c h
194.48 8.449 m f
Q Q
showpage
%%Trailer
end
%%EOF
