%!PS-Adobe-3.0 EPSF-3.0
%%Creator: cairo 1.16.0 (https://cairographics.org)
%%CreationDate: Mon Sep 23 08:21:22 2019
%%Pages: 1
%%DocumentData: Clean7Bit
%%LanguageLevel: 2
%%BoundingBox: 7 0 377 384
%%EndComments
%%BeginProlog
50 dict begin
/q { gsave } bind def
/Q { grestore } bind def
/cm { 6 array astore concat } bind def
/w { setlinewidth } bind def
/J { setlinecap } bind def
/j { setlinejoin } bind def
/M { setmiterlimit } bind def
/d { setdash } bind def
/m { moveto } bind def
/l { lineto } bind def
/c { curveto } bind def
/h { closepath } bind def
/re { exch dup neg 3 1 roll 5 3 roll moveto 0 rlineto
      0 exch rlineto 0 rlineto closepath } bind def
/S { stroke } bind def
/f { fill } bind def
/f* { eofill } bind def
/n { newpath } bind def
/W { clip } bind def
/W* { eoclip } bind def
/BT { } bind def
/ET { } bind def
/BDC { mark 3 1 roll /BDC pdfmark } bind def
/EMC { mark /EMC pdfmark } bind def
/cairo_store_point { /cairo_point_y exch def /cairo_point_x exch def } def
/Tj { show currentpoint cairo_store_point } bind def
/TJ {
  {
    dup
    type /stringtype eq
    { show } { -0.001 mul 0 cairo_font_matrix dtransform rmoveto } ifelse
  } forall
  currentpoint cairo_store_point
} bind def
/cairo_selectfont { cairo_font_matrix aload pop pop pop 0 0 6 array astore
    cairo_font exch selectfont cairo_point_x cairo_point_y moveto } bind def
/Tf { pop /cairo_font exch def /cairo_font_matrix where
      { pop cairo_selectfont } if } bind def
/Td { matrix translate cairo_font_matrix matrix concatmatrix dup
      /cairo_font_matrix exch def dup 4 get exch 5 get cairo_store_point
      /cairo_font where { pop cairo_selectfont } if } bind def
/Tm { 2 copy 8 2 roll 6 array astore /cairo_font_matrix exch def
      cairo_store_point /cairo_font where { pop cairo_selectfont } if } bind def
/g { setgray } bind def
/rg { setrgbcolor } bind def
/d1 { setcachedevice } bind def
/cairo_data_source {
  CairoDataIndex CairoData length lt
    { CairoData CairoDataIndex get /CairoDataIndex CairoDataIndex 1 add def }
    { () } ifelse
} def
/cairo_flush_ascii85_file { cairo_ascii85_file status { cairo_ascii85_file flushfile } if } def
/cairo_image { image cairo_flush_ascii85_file } def
/cairo_imagemask { imagemask cairo_flush_ascii85_file } def
%%EndProlog
%%BeginSetup
%%EndSetup
%%Page: 1 1
%%BeginPageSetup
%%PageBoundingBox: 7 0 377 384
%%EndPageSetup
q 7 0 370 384 rectclip
1 0 0 -1 0 384 cm q
0 g
268.359 234.328 m 257.129 240.438 l 262.547 241.559 267.66 243.836 272.117
 247.113 c 295.219 234.668 l 287.059 229.617 276.785 229.465 268.48 234.262
 c h
268.359 234.328 m f
56.875 368.789 m 60.195 368.789 62.891 366.102 62.891 362.781 c 62.891 
359.461 60.203 356.77 56.883 356.766 c 53.562 356.766 50.871 359.453 50.867
 362.773 c 50.867 362.777 l 50.871 366.094 53.559 368.781 56.875 368.789
 c h
56.875 368.789 m f
285.863 265.711 m 288.664 264.234 l 333.68 239.945 l 328.395 234.633 320.285
 232.57 314.27 235.586 c 279.574 254.277 l 282.305 257.703 284.43 261.57
 285.863 265.711 c h
285.863 265.711 m f
7.504 244.414 m 24.531 384 l 95.531 384 l 52.969 244.414 l h
72.734 362.777 m 72.734 371.535 65.637 378.633 56.879 378.633 c 48.121 
378.633 41.023 371.535 41.023 362.777 c 41.023 354.02 48.121 346.922 56.879
 346.922 c 65.633 346.934 72.723 354.023 72.734 362.777 c h
72.734 362.777 m f
349.398 242.656 m 293.297 272.922 l 287.891 275.773 l 287.945 276.617 287.984
 277.465 287.984 278.316 c 287.984 281.039 285.777 283.242 283.059 283.242
 c 282.988 283.242 282.91 283.242 282.836 283.234 c 244.109 281.484 l 232.754
 280.973 221.379 281.496 210.121 283.055 c 207.426 283.426 204.941 281.547
 204.57 278.852 c 204.195 276.16 206.078 273.672 208.77 273.301 c 220.625
 271.66 232.602 271.109 244.555 271.648 c 277.672 273.145 l 275.156 259.449
 263.227 249.5 249.305 249.484 c 203.895 249.484 l 195.016 249.473 186.254
 247.465 178.258 243.609 c 173.582 241.344 l 149.836 229.789 121.625 232.504
 100.52 248.375 c 89.367 258.301 l 83.977 263.102 77.598 266.656 70.68 268.715
 c 93.098 342.246 l 124.598 322.336 l 124.672 322.285 124.746 322.242 124.824
 322.199 c 131.516 318.441 139.387 317.379 146.836 319.219 c 214.926 331.754
 l 231.234 334.672 248.051 332.336 262.949 325.078 c 376.492 247.117 l 369.539
 239.621 358.391 237.785 349.398 242.656 c h
349.398 242.656 m f
286.355 89.672 m 286.355 127.098 l 286.367 137.551 284.246 147.898 280.121
 157.508 c 294.535 151.605 l 311.043 144.848 318.949 125.988 312.191 109.48
 c 307.777 98.703 297.91 91.137 286.355 89.672 c h
286.355 89.672 m f
237.109 107.316 m 141.59 107.316 l 141.59 127.098 l 141.59 164.355 171.793
 194.559 209.051 194.559 c 246.305 194.559 276.508 164.355 276.508 127.098
 c 276.508 107.332 l 256.234 107.316 l 253.516 107.316 251.309 105.113 251.309
 102.395 c 251.309 99.676 253.516 97.473 256.234 97.473 c 276.5 97.484 l
 276.5 80.828 l 141.59 80.828 l 141.59 97.473 l 237.109 97.473 l 239.828
 97.473 242.031 99.676 242.031 102.398 c 242.031 105.117 239.828 107.32 
237.109 107.32 c h
237.109 107.316 m f
170.441 39.23 m 255.852 39.23 l 260.875 36.637 262.844 30.465 260.25 25.441
 c 258.496 22.039 254.988 19.902 251.16 19.902 c 204.602 19.902 l 203.305
 19.902 191.434 19.77 185.141 11.68 c 182.586 8.344 181.316 4.195 181.57
 0 c 170.441 0 l 160.16 0 151.793 8.801 151.793 19.613 c 151.793 30.43 160.16
 39.23 170.441 39.23 c h
170.441 39.23 m f
143.703 58.738 m 143.703 60.801 l 143.711 66.133 148.035 70.457 153.367
 70.465 c 264.73 70.465 l 270.062 70.457 274.387 66.133 274.395 60.801 c
 274.395 58.738 l 274.387 53.406 270.062 49.082 264.73 49.078 c 256.98 49.078
 l 256.965 49.078 256.949 49.078 256.934 49.078 c 256.914 49.078 256.91 
49.078 256.898 49.078 c 153.367 49.078 l 148.035 49.082 143.711 53.406 143.703
 58.738 c h
143.703 58.738 m f
Q Q
showpage
%%Trailer
end
%%EOF
