%!PS-Adobe-3.0 EPSF-3.0
%%Creator: cairo 1.16.0 (https://cairographics.org)
%%CreationDate: Mon Sep 23 08:21:23 2019
%%Pages: 1
%%DocumentData: Clean7Bit
%%LanguageLevel: 2
%%BoundingBox: 62 0 322 384
%%EndComments
%%BeginProlog
50 dict begin
/q { gsave } bind def
/Q { grestore } bind def
/cm { 6 array astore concat } bind def
/w { setlinewidth } bind def
/J { setlinecap } bind def
/j { setlinejoin } bind def
/M { setmiterlimit } bind def
/d { setdash } bind def
/m { moveto } bind def
/l { lineto } bind def
/c { curveto } bind def
/h { closepath } bind def
/re { exch dup neg 3 1 roll 5 3 roll moveto 0 rlineto
      0 exch rlineto 0 rlineto closepath } bind def
/S { stroke } bind def
/f { fill } bind def
/f* { eofill } bind def
/n { newpath } bind def
/W { clip } bind def
/W* { eoclip } bind def
/BT { } bind def
/ET { } bind def
/BDC { mark 3 1 roll /BDC pdfmark } bind def
/EMC { mark /EMC pdfmark } bind def
/cairo_store_point { /cairo_point_y exch def /cairo_point_x exch def } def
/Tj { show currentpoint cairo_store_point } bind def
/TJ {
  {
    dup
    type /stringtype eq
    { show } { -0.001 mul 0 cairo_font_matrix dtransform rmoveto } ifelse
  } forall
  currentpoint cairo_store_point
} bind def
/cairo_selectfont { cairo_font_matrix aload pop pop pop 0 0 6 array astore
    cairo_font exch selectfont cairo_point_x cairo_point_y moveto } bind def
/Tf { pop /cairo_font exch def /cairo_font_matrix where
      { pop cairo_selectfont } if } bind def
/Td { matrix translate cairo_font_matrix matrix concatmatrix dup
      /cairo_font_matrix exch def dup 4 get exch 5 get cairo_store_point
      /cairo_font where { pop cairo_selectfont } if } bind def
/Tm { 2 copy 8 2 roll 6 array astore /cairo_font_matrix exch def
      cairo_store_point /cairo_font where { pop cairo_selectfont } if } bind def
/g { setgray } bind def
/rg { setrgbcolor } bind def
/d1 { setcachedevice } bind def
/cairo_data_source {
  CairoDataIndex CairoData length lt
    { CairoData CairoDataIndex get /CairoDataIndex CairoDataIndex 1 add def }
    { () } ifelse
} def
/cairo_flush_ascii85_file { cairo_ascii85_file status { cairo_ascii85_file flushfile } if } def
/cairo_image { image cairo_flush_ascii85_file } def
/cairo_imagemask { imagemask cairo_flush_ascii85_file } def
%%EndProlog
%%BeginSetup
%%EndSetup
%%Page: 1 1
%%BeginPageSetup
%%PageBoundingBox: 62 0 322 384
%%EndPageSetup
q 62 0 260 384 rectclip
1 0 0 -1 0 384 cm q
0 g
140.773 104.699 m 140.305 108.289 140.051 111.906 140.012 115.527 c 140
 116.508 140.008 117.484 140.027 118.457 c 227.098 118.457 l 227.109 117.828
 227.125 117.203 227.125 116.57 c 227.125 112.602 226.871 108.637 226.359
 104.699 c h
140.773 104.699 m f
172.996 178.387 m 173.168 178.441 173.348 178.465 173.527 178.461 c 193.504
 178.461 l 193.688 178.465 193.867 178.441 194.043 178.387 c 210.738 172.273
 223.113 152.719 226.309 128.824 c 140.801 128.824 l 143.953 152.797 156.25
 172.305 172.996 178.387 c h
172.996 178.387 m f
245.652 121.254 m 243.242 119.449 240.441 118.246 237.473 117.742 c 237.41
 131.5 234.352 145.078 228.504 157.535 c 232.422 156 236.145 154.73 239.809
 153.68 c 248.766 151.121 254.328 144.371 254.328 136.059 c 254.328 131.102
 250.762 125.012 245.652 121.254 c h
245.652 121.254 m f
304.316 65.676 m 281.164 24.555 239.168 0 191.977 0 c 145.621 0 103.996
 23.902 80.633 63.938 c 57.27 103.973 56.93 151.965 79.73 192.328 c 188.012
 384 l 302.195 195.785 l 326.672 155.438 327.465 106.797 304.316 65.676 
c h
191.984 230.75 m 138.09 230.75 94.402 187.059 94.402 133.168 c 94.402 79.273
 138.09 35.586 191.984 35.586 c 245.875 35.586 289.562 79.273 289.562 133.168
 c 289.504 187.035 245.848 230.688 191.984 230.75 c h
191.984 230.75 m f
191.984 45.953 m 143.816 45.953 104.77 85 104.77 133.168 c 104.77 181.336
 143.816 220.383 191.984 220.383 c 240.148 220.383 279.195 181.336 279.195
 133.168 c 279.145 85.023 240.129 46.008 191.984 45.953 c h
264.695 136.062 m 264.695 148.996 256.047 159.824 242.66 163.648 c 235.488
 165.773 228.504 168.48 221.77 171.738 c 218.168 173.434 l 212.301 180.188
 205.34 185.289 197.605 188.117 c 196.293 188.594 194.906 188.832 193.508
 188.824 c 173.527 188.824 l 172.141 188.832 170.758 188.594 169.453 188.125
 c 145.633 179.473 129.262 149.57 129.641 115.406 c 129.699 110.219 130.152
 105.043 130.996 99.926 c 131.426 96.777 134.074 94.41 137.246 94.332 c 
229.883 94.332 l 233.055 94.41 235.703 96.777 236.133 99.922 c 236.531 102.336
 236.832 104.785 237.055 107.25 c 242.402 107.711 247.508 109.672 251.797
 112.898 c 259.633 118.668 264.695 127.758 264.695 136.062 c h
264.695 136.062 m f
Q Q
showpage
%%Trailer
end
%%EOF
