%!PS-Adobe-3.0 EPSF-3.0
%%Creator: cairo 1.16.0 (https://cairographics.org)
%%CreationDate: Mon Sep 23 08:21:23 2019
%%Pages: 1
%%DocumentData: Clean7Bit
%%LanguageLevel: 2
%%BoundingBox: 40 0 344 384
%%EndComments
%%BeginProlog
50 dict begin
/q { gsave } bind def
/Q { grestore } bind def
/cm { 6 array astore concat } bind def
/w { setlinewidth } bind def
/J { setlinecap } bind def
/j { setlinejoin } bind def
/M { setmiterlimit } bind def
/d { setdash } bind def
/m { moveto } bind def
/l { lineto } bind def
/c { curveto } bind def
/h { closepath } bind def
/re { exch dup neg 3 1 roll 5 3 roll moveto 0 rlineto
      0 exch rlineto 0 rlineto closepath } bind def
/S { stroke } bind def
/f { fill } bind def
/f* { eofill } bind def
/n { newpath } bind def
/W { clip } bind def
/W* { eoclip } bind def
/BT { } bind def
/ET { } bind def
/BDC { mark 3 1 roll /BDC pdfmark } bind def
/EMC { mark /EMC pdfmark } bind def
/cairo_store_point { /cairo_point_y exch def /cairo_point_x exch def } def
/Tj { show currentpoint cairo_store_point } bind def
/TJ {
  {
    dup
    type /stringtype eq
    { show } { -0.001 mul 0 cairo_font_matrix dtransform rmoveto } ifelse
  } forall
  currentpoint cairo_store_point
} bind def
/cairo_selectfont { cairo_font_matrix aload pop pop pop 0 0 6 array astore
    cairo_font exch selectfont cairo_point_x cairo_point_y moveto } bind def
/Tf { pop /cairo_font exch def /cairo_font_matrix where
      { pop cairo_selectfont } if } bind def
/Td { matrix translate cairo_font_matrix matrix concatmatrix dup
      /cairo_font_matrix exch def dup 4 get exch 5 get cairo_store_point
      /cairo_font where { pop cairo_selectfont } if } bind def
/Tm { 2 copy 8 2 roll 6 array astore /cairo_font_matrix exch def
      cairo_store_point /cairo_font where { pop cairo_selectfont } if } bind def
/g { setgray } bind def
/rg { setrgbcolor } bind def
/d1 { setcachedevice } bind def
/cairo_data_source {
  CairoDataIndex CairoData length lt
    { CairoData CairoDataIndex get /CairoDataIndex CairoDataIndex 1 add def }
    { () } ifelse
} def
/cairo_flush_ascii85_file { cairo_ascii85_file status { cairo_ascii85_file flushfile } if } def
/cairo_image { image cairo_flush_ascii85_file } def
/cairo_imagemask { imagemask cairo_flush_ascii85_file } def
%%EndProlog
%%BeginSetup
%%EndSetup
%%Page: 1 1
%%BeginPageSetup
%%PageBoundingBox: 40 0 344 384
%%EndPageSetup
q 40 0 304 384 rectclip
1 0 0 -1 0 384 cm q
0 g
127.383 122.797 m 100.355 122.797 78.062 141.805 75.465 166.055 c 179.301
 166.055 l 176.703 141.805 154.414 122.797 127.383 122.797 c h
110.605 145.098 m 105.312 147.148 100.898 150.977 98.113 155.922 c 96.805
 158.309 93.809 159.18 91.426 157.871 c 89.039 156.562 88.168 153.57 89.477
 151.184 c 93.363 144.23 99.543 138.844 106.961 135.945 c 109.488 134.938
 112.355 136.172 113.359 138.699 c 114.367 141.227 113.137 144.09 110.609
 145.098 c h
110.605 145.098 m f
224.281 200.645 m 224.281 208.66 230.457 215.176 238.047 215.176 c 277.164
 215.176 l 280.586 213.281 281.82 208.969 279.922 205.547 c 278.676 203.293
 276.297 201.895 273.719 201.898 c 265.137 201.898 l 264.07 201.898 254.188
 201.781 248.898 194.984 c 246.949 192.434 245.883 189.324 245.859 186.117
 c 238.047 186.117 l 237.199 186.121 236.355 186.203 235.527 186.371 c 235.215
 186.48 234.891 186.562 234.562 186.605 c 228.379 188.461 224.18 194.191
 224.281 200.645 c h
224.281 200.645 m f
189.758 0.148 m 75.414 35.496 l 194.492 35.496 l 194.492 3.691 l 194.488
 1.648 192.832 -0.004 190.793 0 c 190.445 0 190.094 0.051 189.758 0.148 
c h
189.758 0.148 m f
200.867 232.488 m 200.875 236.605 204.211 239.941 208.324 239.945 c 295
 239.945 l 299.117 239.988 302.488 236.688 302.531 232.566 c 302.578 228.449
 299.273 225.078 295.156 225.035 c 295.102 225.031 295.051 225.031 295 225.035
 c 208.324 225.035 l 204.211 225.039 200.875 228.375 200.867 232.488 c h
200.867 232.488 m f
128.207 105.059 m 128.207 105.512 127.84 105.879 127.383 105.879 c 126.93
 105.879 126.562 105.512 126.562 105.059 c 126.562 104.605 126.93 104.238
 127.383 104.238 c 127.84 104.238 128.207 104.605 128.207 105.059 c h
128.207 105.059 m f
320.207 294.73 m 320.207 326.41 l 320.211 335.031 318.559 343.57 315.34
 351.562 c 326.387 347.043 l 340.359 341.324 347.047 325.363 341.332 311.391
 c 337.699 302.52 329.684 296.195 320.207 294.73 c h
320.207 294.73 m f
184.887 268.832 m 178.477 261.777 179.004 250.863 186.059 244.453 c 188.055
 242.645 190.449 241.324 193.047 240.602 c 188.559 232.172 191.75 221.699
 200.18 217.211 c 202.688 215.875 205.484 215.18 208.324 215.18 c 219.094
 215.18 l 216.047 210.949 214.418 205.863 214.43 200.648 c 214.363 190.926
 220.07 182.094 228.961 178.152 c 228.961 47.828 l 228.957 46.457 227.848
 45.348 226.477 45.348 c 43.539 45.348 l 41.461 45.988 l 41.453 45.988 l
 40.93 46.457 40.625 47.125 40.625 47.828 c 40.625 358.031 l 40.625 359.398
 41.738 360.508 43.105 360.512 c 194.145 360.512 l 188.074 350.172 184.875
 338.398 184.887 326.406 c h
54.352 170.98 m 54.352 168.258 56.555 166.055 59.277 166.055 c 65.586 166.055
 l 68.07 137.633 92.668 114.969 123.266 113.086 c 118.828 110.812 117.074
 105.371 119.348 100.93 c 121.621 96.492 127.062 94.738 131.504 97.012 c
 135.941 99.289 137.695 104.73 135.422 109.168 c 134.559 110.852 133.188
 112.223 131.504 113.086 c 162.105 114.969 186.699 137.633 189.188 166.055
 c 195.492 166.055 l 198.215 166.055 200.418 168.258 200.418 170.98 c 200.418
 173.699 198.215 175.906 195.492 175.906 c 59.277 175.906 l 56.559 175.906
 54.352 173.699 54.352 170.98 c h
58.18 191.695 m 58.18 188.977 60.383 186.77 63.105 186.77 c 191.668 186.77
 l 194.387 186.77 196.594 188.977 196.594 191.695 c 196.594 194.418 194.387
 196.621 191.668 196.621 c 63.105 196.621 l 60.387 196.621 58.18 194.418
 58.18 191.695 c h
100.336 327.117 m 84.855 327.117 l 82.133 327.117 79.93 324.914 79.93 322.191
 c 79.93 319.473 82.133 317.266 84.855 317.266 c 100.34 317.266 l 103.059
 317.266 105.266 319.473 105.266 322.191 c 105.266 324.914 103.059 327.117
 100.34 327.117 c h
173.742 327.117 m 117.449 327.117 l 114.727 327.117 112.523 324.914 112.523
 322.191 c 112.523 319.473 114.727 317.266 117.449 317.266 c 173.746 317.266
 l 176.469 317.266 178.672 319.473 178.672 322.191 c 178.672 324.914 176.469
 327.117 173.746 327.117 c h
173.742 304.898 m 84.855 304.898 l 82.133 304.898 79.93 302.691 79.93 299.973
 c 79.93 297.25 82.133 295.047 84.855 295.047 c 173.742 295.047 l 176.461
 295.047 178.668 297.25 178.668 299.973 c 178.668 302.691 176.461 304.898
 173.742 304.898 c h
79.93 277.75 m 79.93 275.027 82.133 272.824 84.855 272.824 c 100.34 272.824
 l 103.059 272.824 105.266 275.027 105.266 277.75 c 105.266 280.469 103.059
 282.676 100.34 282.676 c 84.855 282.676 l 82.137 282.676 79.93 280.469 
79.93 277.75 c h
173.746 282.676 m 117.449 282.676 l 114.727 282.676 112.523 280.469 112.523
 277.75 c 112.523 275.027 114.727 272.824 117.449 272.824 c 173.746 272.824
 l 176.469 272.824 178.672 275.027 178.672 277.75 c 178.672 280.469 176.469
 282.676 173.746 282.676 c h
173.746 260.453 m 84.855 260.453 l 82.133 260.453 79.93 258.246 79.93 255.527
 c 79.93 252.805 82.133 250.602 84.855 250.602 c 173.742 250.602 l 176.461
 250.602 178.668 252.805 178.668 255.527 c 178.668 258.246 176.461 260.453
 173.742 260.453 c h
173.746 260.453 m f
307.379 249.797 m 197.711 249.797 l 193.594 249.754 190.223 253.055 190.18
 257.176 c 190.133 261.293 193.438 264.664 197.555 264.707 c 197.609 264.711
 197.66 264.711 197.711 264.707 c 307.379 264.707 l 311.5 264.664 314.801
 261.293 314.758 257.176 c 314.715 253.117 311.438 249.84 307.379 249.797
 c h
307.379 249.797 m f
197.711 274.562 m 196.715 274.555 195.719 274.465 194.738 274.285 c 194.738
 286.422 l 210.609 286.422 l 213.332 286.422 215.535 288.629 215.535 291.348
 c 215.535 294.07 213.332 296.273 210.609 296.273 c 194.738 296.273 l 194.738
 326.41 l 194.859 358.336 220.84 384.121 252.766 384 c 284.52 383.879 310.234
 358.164 310.355 326.41 c 310.355 296.293 l 233.668 296.277 l 230.945 296.277
 228.742 294.07 228.742 291.352 c 228.742 288.629 230.945 286.426 233.668
 286.426 c 310.355 286.441 l 310.355 274.289 l 309.371 274.465 308.379 274.559
 307.379 274.562 c h
197.711 274.562 m f
Q Q
showpage
%%Trailer
end
%%EOF
