%!PS-Adobe-3.0 EPSF-3.0
%%Creator: cairo 1.16.0 (https://cairographics.org)
%%CreationDate: Mon Sep 23 08:21:23 2019
%%Pages: 1
%%DocumentData: Clean7Bit
%%LanguageLevel: 2
%%BoundingBox: 70 0 314 384
%%EndComments
%%BeginProlog
50 dict begin
/q { gsave } bind def
/Q { grestore } bind def
/cm { 6 array astore concat } bind def
/w { setlinewidth } bind def
/J { setlinecap } bind def
/j { setlinejoin } bind def
/M { setmiterlimit } bind def
/d { setdash } bind def
/m { moveto } bind def
/l { lineto } bind def
/c { curveto } bind def
/h { closepath } bind def
/re { exch dup neg 3 1 roll 5 3 roll moveto 0 rlineto
      0 exch rlineto 0 rlineto closepath } bind def
/S { stroke } bind def
/f { fill } bind def
/f* { eofill } bind def
/n { newpath } bind def
/W { clip } bind def
/W* { eoclip } bind def
/BT { } bind def
/ET { } bind def
/BDC { mark 3 1 roll /BDC pdfmark } bind def
/EMC { mark /EMC pdfmark } bind def
/cairo_store_point { /cairo_point_y exch def /cairo_point_x exch def } def
/Tj { show currentpoint cairo_store_point } bind def
/TJ {
  {
    dup
    type /stringtype eq
    { show } { -0.001 mul 0 cairo_font_matrix dtransform rmoveto } ifelse
  } forall
  currentpoint cairo_store_point
} bind def
/cairo_selectfont { cairo_font_matrix aload pop pop pop 0 0 6 array astore
    cairo_font exch selectfont cairo_point_x cairo_point_y moveto } bind def
/Tf { pop /cairo_font exch def /cairo_font_matrix where
      { pop cairo_selectfont } if } bind def
/Td { matrix translate cairo_font_matrix matrix concatmatrix dup
      /cairo_font_matrix exch def dup 4 get exch 5 get cairo_store_point
      /cairo_font where { pop cairo_selectfont } if } bind def
/Tm { 2 copy 8 2 roll 6 array astore /cairo_font_matrix exch def
      cairo_store_point /cairo_font where { pop cairo_selectfont } if } bind def
/g { setgray } bind def
/rg { setrgbcolor } bind def
/d1 { setcachedevice } bind def
/cairo_data_source {
  CairoDataIndex CairoData length lt
    { CairoData CairoDataIndex get /CairoDataIndex CairoDataIndex 1 add def }
    { () } ifelse
} def
/cairo_flush_ascii85_file { cairo_ascii85_file status { cairo_ascii85_file flushfile } if } def
/cairo_image { image cairo_flush_ascii85_file } def
/cairo_imagemask { imagemask cairo_flush_ascii85_file } def
%%EndProlog
%%BeginSetup
%%EndSetup
%%Page: 1 1
%%BeginPageSetup
%%PageBoundingBox: 70 0 314 384
%%EndPageSetup
q 70 0 244 384 rectclip
1 0 0 -1 0 384 cm q
0 g
207.094 143.27 m 207.277 143.328 207.469 143.359 207.656 143.352 c 226.406
 143.352 l 226.598 143.355 226.789 143.328 226.969 143.27 c 242.754 137.492
 254.434 118.984 257.398 96.398 c 176.734 96.398 l 179.66 119.062 191.266
 137.523 207.094 143.27 c h
207.094 143.27 m f
258.141 85.082 m 258.145 81.297 257.898 77.512 257.406 73.758 c 176.75 
73.758 l 176.301 77.188 176.055 80.637 176.016 84.098 c 176.004 85.082 176.016
 86.059 176.035 87.031 c 258.113 87.031 l 258.129 86.387 258.141 85.738 
258.141 85.082 c h
258.141 85.082 m f
74.719 0 m 72.129 0 70.035 2.098 70.035 4.684 c 70.035 379.316 l 70.035
 381.902 72.129 384 74.719 384 c 77.305 384 79.398 381.902 79.398 379.316
 c 79.398 165.711 l 135.145 165.711 l 113.191 132.742 111.758 90.199 131.445
 55.832 c 79.398 55.832 l 79.398 4.684 l 79.398 2.098 77.305 0 74.719 0 
c h
74.719 0 m f
220.477 202.273 m 272.027 202.273 313.965 159.891 313.965 107.789 c 313.965
 55.688 272.027 13.305 220.477 13.305 c 168.926 13.305 126.984 55.691 126.984
 107.785 c 126.984 159.879 168.926 202.273 220.477 202.273 c h
167.918 69.492 m 168.309 66.629 170.715 64.469 173.605 64.395 c 260.547
 64.395 l 263.438 64.469 265.844 66.629 266.234 69.492 c 266.617 71.801 
266.902 74.148 267.113 76.516 c 272.152 76.918 276.973 78.75 281.008 81.789
 c 288.316 87.168 293.039 95.641 293.039 103.379 c 293.039 115.434 284.973
 125.527 272.488 129.098 c 265.75 131.094 259.184 133.637 252.859 136.699
 c 249.445 138.301 l 243.953 144.633 237.434 149.414 230.191 152.066 c 228.977
 152.504 227.695 152.727 226.406 152.719 c 207.656 152.719 l 206.375 152.727
 205.102 152.508 203.895 152.074 c 181.609 143.98 166.293 115.984 166.652
 83.996 c 166.703 79.137 167.125 74.289 167.918 69.492 c h
167.918 69.492 m f
283.676 103.375 m 283.676 98.668 280.297 92.891 275.457 89.328 c 273.121
 87.57 270.387 86.41 267.496 85.957 c 267.473 99.074 264.531 112.027 258.887
 123.871 c 262.723 122.355 266.348 121.109 269.918 120.09 c 278.398 117.664
 283.676 111.258 283.676 103.375 c h
283.676 103.375 m f
Q Q
showpage
%%Trailer
end
%%EOF
