%!PS-Adobe-3.0 EPSF-3.0
%%Creator: cairo 1.16.0 (https://cairographics.org)
%%CreationDate: Mon Sep 23 08:21:24 2019
%%Pages: 1
%%DocumentData: Clean7Bit
%%LanguageLevel: 2
%%BoundingBox: 0 23 384 361
%%EndComments
%%BeginProlog
50 dict begin
/q { gsave } bind def
/Q { grestore } bind def
/cm { 6 array astore concat } bind def
/w { setlinewidth } bind def
/J { setlinecap } bind def
/j { setlinejoin } bind def
/M { setmiterlimit } bind def
/d { setdash } bind def
/m { moveto } bind def
/l { lineto } bind def
/c { curveto } bind def
/h { closepath } bind def
/re { exch dup neg 3 1 roll 5 3 roll moveto 0 rlineto
      0 exch rlineto 0 rlineto closepath } bind def
/S { stroke } bind def
/f { fill } bind def
/f* { eofill } bind def
/n { newpath } bind def
/W { clip } bind def
/W* { eoclip } bind def
/BT { } bind def
/ET { } bind def
/BDC { mark 3 1 roll /BDC pdfmark } bind def
/EMC { mark /EMC pdfmark } bind def
/cairo_store_point { /cairo_point_y exch def /cairo_point_x exch def } def
/Tj { show currentpoint cairo_store_point } bind def
/TJ {
  {
    dup
    type /stringtype eq
    { show } { -0.001 mul 0 cairo_font_matrix dtransform rmoveto } ifelse
  } forall
  currentpoint cairo_store_point
} bind def
/cairo_selectfont { cairo_font_matrix aload pop pop pop 0 0 6 array astore
    cairo_font exch selectfont cairo_point_x cairo_point_y moveto } bind def
/Tf { pop /cairo_font exch def /cairo_font_matrix where
      { pop cairo_selectfont } if } bind def
/Td { matrix translate cairo_font_matrix matrix concatmatrix dup
      /cairo_font_matrix exch def dup 4 get exch 5 get cairo_store_point
      /cairo_font where { pop cairo_selectfont } if } bind def
/Tm { 2 copy 8 2 roll 6 array astore /cairo_font_matrix exch def
      cairo_store_point /cairo_font where { pop cairo_selectfont } if } bind def
/g { setgray } bind def
/rg { setrgbcolor } bind def
/d1 { setcachedevice } bind def
/cairo_data_source {
  CairoDataIndex CairoData length lt
    { CairoData CairoDataIndex get /CairoDataIndex CairoDataIndex 1 add def }
    { () } ifelse
} def
/cairo_flush_ascii85_file { cairo_ascii85_file status { cairo_ascii85_file flushfile } if } def
/cairo_image { image cairo_flush_ascii85_file } def
/cairo_imagemask { imagemask cairo_flush_ascii85_file } def
%%EndProlog
%%BeginSetup
%%EndSetup
%%Page: 1 1
%%BeginPageSetup
%%PageBoundingBox: 0 23 384 361
%%EndPageSetup
q 0 23 384 338 rectclip
1 0 0 -1 0 384 cm q
0 g
73.91 23.281 m 65.242 138.578 l 66.402 152.695 78.992 164.566 92.895 164.566
 c 108.809 164.566 122.766 152.441 122.766 138.621 c 122.766 138.598 122.766
 138.574 122.766 138.551 c 122.766 138.527 122.766 138.504 122.766 138.477
 c 126.141 23.281 l h
73.91 23.281 m f
160.324 164.566 m 175.621 164.566 188.062 152.938 188.074 138.641 c 185.977
 23.281 l 135.949 23.281 l 132.574 138.66 l 132.594 152.945 145.035 164.566
 160.324 164.566 c h
160.324 164.566 m f
27.75 164.566 m 41.75 164.566 54.426 152.527 55.43 138.277 c 55.43 138.254
 l 64.078 23.281 l 36.445 23.281 l 0.551 134.609 l 0.348 135.309 0.172 136.027
 0.027 136.738 c 0 136.875 l 0.266 151.68 13.117 164.566 27.75 164.566 c
 h
27.75 164.566 m f
263.164 138.125 m 263.164 138.141 l 263.172 138.23 263.172 138.316 263.176
 138.406 c 263.176 138.477 263.188 138.551 263.188 138.621 c 263.188 152.926
 275.637 164.566 290.938 164.566 c 306.129 164.566 318.504 153.098 318.684
 138.938 c 301.09 23.281 l 251.855 23.281 l 263.164 138.117 l h
263.164 138.125 m f
195.781 23.281 m 197.883 138.531 l 197.883 138.578 l 197.883 138.578 197.883
 138.605 197.883 138.621 c 197.883 152.926 210.332 164.566 225.633 164.566
 c 240.867 164.566 253.273 153.027 253.383 138.812 c 242 23.281 l h
195.781 23.281 m f
238.887 214.535 79.426 146.184 re f
328.445 137.887 m 328.449 137.922 328.453 137.957 328.453 137.992 c 328.465
 138.078 328.477 138.164 328.48 138.254 c 328.488 138.344 328.492 138.426
 328.496 138.512 c 328.496 138.551 328.5 138.586 328.5 138.621 c 328.5 152.926
 340.949 164.566 356.254 164.566 c 372.062 164.566 383.984 154.254 383.984
 140.574 c 384 139.172 l 356.512 23.281 l 311.008 23.281 l h
328.445 137.887 m f
356.27 360.719 m 356.348 174.367 l 356.316 174.367 356.285 174.367 356.25
 174.367 c 342.945 174.477 330.555 167.609 323.598 156.266 c 312.328 174.301
 288.578 179.785 270.543 168.52 c 265.578 165.418 261.387 161.23 258.289
 156.266 c 247.02 174.301 223.266 179.785 205.23 168.52 c 200.27 165.418
 196.078 161.227 192.977 156.266 c 181.715 174.297 157.969 179.785 139.938
 168.523 c 134.848 165.344 130.57 161.02 127.453 155.898 c 120.57 166.816
 107.5 174.367 92.891 174.367 c 79.281 174.367 66.91 166.457 60.316 154.934
 c 53.773 166.391 41.5 174.27 27.988 174.363 c 27.73 360.719 l 229.082 360.719
 l 229.082 209.633 l 229.082 206.926 231.277 204.73 233.984 204.73 c 323.215
 204.73 l 325.922 204.73 328.117 206.926 328.117 209.633 c 328.117 360.719
 l h
213.5 310.129 m 213.5 312.836 211.305 315.031 208.598 315.031 c 51.715 
315.031 l 49.008 315.031 46.812 312.836 46.812 310.129 c 46.812 212.273 
l 46.812 209.562 49.008 207.371 51.715 207.371 c 208.598 207.371 l 211.305
 207.371 213.5 209.562 213.5 212.273 c h
213.5 310.129 m f
56.617 217.172 147.082 88.055 re f
Q Q
showpage
%%Trailer
end
%%EOF
