%!PS-Adobe-3.0 EPSF-3.0
%%Creator: cairo 1.16.0 (https://cairographics.org)
%%CreationDate: Mon Sep 23 08:21:24 2019
%%Pages: 1
%%DocumentData: Clean7Bit
%%LanguageLevel: 2
%%BoundingBox: 8 0 376 384
%%EndComments
%%BeginProlog
50 dict begin
/q { gsave } bind def
/Q { grestore } bind def
/cm { 6 array astore concat } bind def
/w { setlinewidth } bind def
/J { setlinecap } bind def
/j { setlinejoin } bind def
/M { setmiterlimit } bind def
/d { setdash } bind def
/m { moveto } bind def
/l { lineto } bind def
/c { curveto } bind def
/h { closepath } bind def
/re { exch dup neg 3 1 roll 5 3 roll moveto 0 rlineto
      0 exch rlineto 0 rlineto closepath } bind def
/S { stroke } bind def
/f { fill } bind def
/f* { eofill } bind def
/n { newpath } bind def
/W { clip } bind def
/W* { eoclip } bind def
/BT { } bind def
/ET { } bind def
/BDC { mark 3 1 roll /BDC pdfmark } bind def
/EMC { mark /EMC pdfmark } bind def
/cairo_store_point { /cairo_point_y exch def /cairo_point_x exch def } def
/Tj { show currentpoint cairo_store_point } bind def
/TJ {
  {
    dup
    type /stringtype eq
    { show } { -0.001 mul 0 cairo_font_matrix dtransform rmoveto } ifelse
  } forall
  currentpoint cairo_store_point
} bind def
/cairo_selectfont { cairo_font_matrix aload pop pop pop 0 0 6 array astore
    cairo_font exch selectfont cairo_point_x cairo_point_y moveto } bind def
/Tf { pop /cairo_font exch def /cairo_font_matrix where
      { pop cairo_selectfont } if } bind def
/Td { matrix translate cairo_font_matrix matrix concatmatrix dup
      /cairo_font_matrix exch def dup 4 get exch 5 get cairo_store_point
      /cairo_font where { pop cairo_selectfont } if } bind def
/Tm { 2 copy 8 2 roll 6 array astore /cairo_font_matrix exch def
      cairo_store_point /cairo_font where { pop cairo_selectfont } if } bind def
/g { setgray } bind def
/rg { setrgbcolor } bind def
/d1 { setcachedevice } bind def
/cairo_data_source {
  CairoDataIndex CairoData length lt
    { CairoData CairoDataIndex get /CairoDataIndex CairoDataIndex 1 add def }
    { () } ifelse
} def
/cairo_flush_ascii85_file { cairo_ascii85_file status { cairo_ascii85_file flushfile } if } def
/cairo_image { image cairo_flush_ascii85_file } def
/cairo_imagemask { imagemask cairo_flush_ascii85_file } def
%%EndProlog
%%BeginSetup
%%EndSetup
%%Page: 1 1
%%BeginPageSetup
%%PageBoundingBox: 8 0 376 384
%%EndPageSetup
q 8 0 368 384 rectclip
1 0 0 -1 0 384 cm q
0 g
224.789 48.395 m 215.242 55.891 211.672 68.723 215.984 80.074 c 219.332
 89.91 227.883 97.07 238.156 98.641 c 239.871 98.906 l 245 99.766 250.254
 99.57 255.309 98.34 c 267.414 95.277 275.875 86.77 277.941 75.578 c 279.16
 68.953 277.992 62.109 274.637 56.27 c 274.387 55.809 274.148 55.406 273.895
 55 c 269.656 47.852 262.668 42.754 254.566 40.91 c 254.523 40.898 254.484
 40.895 254.438 40.883 c 254.422 39.777 254.035 38.711 253.332 37.855 c 
250.41 34.371 249.105 29.812 249.738 25.309 c 250.598 18.258 255.191 11.949
 259.367 8.82 c 261.535 7.199 261.973 4.129 260.352 1.961 c 258.73 -0.203
 255.66 -0.645 253.492 0.977 c 246.168 6.652 241.336 14.953 240.016 24.125
 c 239.266 29.762 240.398 35.488 243.23 40.414 c 237.898 41.121 232.789 
43 228.27 45.918 c 227.066 46.684 225.906 47.508 224.789 48.395 c h
224.789 48.395 m f
284.859 86.07 m 280.043 96.75 270.391 104.633 257.715 107.84 c 254.012 
108.77 250.211 109.234 246.395 109.227 c 243.707 109.223 241.02 109.008 
238.363 108.59 c 236.648 108.324 l 222.809 106.227 211.281 96.602 206.754
 83.355 c 203.191 73.504 203.809 62.629 208.461 53.242 c 190.152 45.375 
l 18.582 259.188 l 371.488 123.301 l h
183.664 79.203 m 186.184 78.211 189.027 79.445 190.02 81.965 c 192.746 
88.887 l 193.754 91.398 192.535 94.25 190.023 95.258 c 187.512 96.262 184.66
 95.043 183.652 92.531 c 183.648 92.516 183.641 92.496 183.633 92.477 c 
180.902 85.555 l 179.914 83.039 181.148 80.195 183.664 79.203 c h
90.656 210.719 m 88.215 211.211 l 85.566 211.75 82.98 210.035 82.441 207.383
 c 81.906 204.73 83.621 202.148 86.27 201.609 c 88.707 201.113 l 91.359 
200.578 93.945 202.289 94.484 204.941 c 95.02 207.594 93.309 210.18 90.656
 210.719 c h
125.77 175.656 m 115.527 175.656 l 112.824 175.656 110.629 173.465 110.629
 170.758 c 110.629 168.055 112.824 165.859 115.527 165.859 c 125.77 165.859
 l 128.477 165.859 130.668 168.055 130.668 170.758 c 130.668 173.465 128.477
 175.656 125.77 175.656 c h
161.391 135.688 m 161.391 138.395 159.199 140.586 156.492 140.586 c 153.785
 140.586 151.594 138.395 151.594 135.688 c 151.594 130.25 l 151.594 127.543
 153.785 125.348 156.492 125.348 c 159.199 125.348 161.391 127.543 161.391
 130.25 c h
196.637 165.953 m 195.77 168.512 192.988 169.883 190.43 169.016 c 190.426
 169.016 190.422 169.016 190.422 169.012 c 177.348 164.562 l 174.797 163.66
 173.457 160.863 174.359 158.312 c 175.246 155.801 177.977 154.461 180.504
 155.289 c 193.578 159.738 l 196.137 160.609 197.508 163.395 196.637 165.953
 c h
225.742 143.062 m 225.25 143.062 l 222.543 143.062 220.352 140.871 220.352
 138.164 c 220.352 135.457 222.543 133.266 225.25 133.266 c 225.742 133.266
 l 228.445 133.266 230.641 135.457 230.641 138.164 c 230.641 140.871 228.445
 143.062 225.742 143.062 c h
286.211 126.742 m 280.766 126.742 l 278.059 126.742 275.867 124.551 275.867
 121.844 c 275.867 119.137 278.059 116.945 280.766 116.945 c 286.211 116.945
 l 288.918 116.945 291.109 119.137 291.109 121.844 c 291.109 124.551 288.918
 126.742 286.211 126.742 c h
286.211 126.742 m f
8.297 334.812 m 107.25 296.129 l 375.703 191.211 l 375.703 132.176 l 8.297
 273.648 l h
8.297 334.812 m f
8.297 384 m 375.703 245.227 l 375.703 201.727 l 8.297 345.332 l h
8.297 384 m f
Q Q
showpage
%%Trailer
end
%%EOF
