%!PS-Adobe-3.0 EPSF-3.0
%%Creator: cairo 1.16.0 (https://cairographics.org)
%%CreationDate: Mon Sep 23 08:21:24 2019
%%Pages: 1
%%DocumentData: Clean7Bit
%%LanguageLevel: 2
%%BoundingBox: 0 11 384 373
%%EndComments
%%BeginProlog
50 dict begin
/q { gsave } bind def
/Q { grestore } bind def
/cm { 6 array astore concat } bind def
/w { setlinewidth } bind def
/J { setlinecap } bind def
/j { setlinejoin } bind def
/M { setmiterlimit } bind def
/d { setdash } bind def
/m { moveto } bind def
/l { lineto } bind def
/c { curveto } bind def
/h { closepath } bind def
/re { exch dup neg 3 1 roll 5 3 roll moveto 0 rlineto
      0 exch rlineto 0 rlineto closepath } bind def
/S { stroke } bind def
/f { fill } bind def
/f* { eofill } bind def
/n { newpath } bind def
/W { clip } bind def
/W* { eoclip } bind def
/BT { } bind def
/ET { } bind def
/BDC { mark 3 1 roll /BDC pdfmark } bind def
/EMC { mark /EMC pdfmark } bind def
/cairo_store_point { /cairo_point_y exch def /cairo_point_x exch def } def
/Tj { show currentpoint cairo_store_point } bind def
/TJ {
  {
    dup
    type /stringtype eq
    { show } { -0.001 mul 0 cairo_font_matrix dtransform rmoveto } ifelse
  } forall
  currentpoint cairo_store_point
} bind def
/cairo_selectfont { cairo_font_matrix aload pop pop pop 0 0 6 array astore
    cairo_font exch selectfont cairo_point_x cairo_point_y moveto } bind def
/Tf { pop /cairo_font exch def /cairo_font_matrix where
      { pop cairo_selectfont } if } bind def
/Td { matrix translate cairo_font_matrix matrix concatmatrix dup
      /cairo_font_matrix exch def dup 4 get exch 5 get cairo_store_point
      /cairo_font where { pop cairo_selectfont } if } bind def
/Tm { 2 copy 8 2 roll 6 array astore /cairo_font_matrix exch def
      cairo_store_point /cairo_font where { pop cairo_selectfont } if } bind def
/g { setgray } bind def
/rg { setrgbcolor } bind def
/d1 { setcachedevice } bind def
/cairo_data_source {
  CairoDataIndex CairoData length lt
    { CairoData CairoDataIndex get /CairoDataIndex CairoDataIndex 1 add def }
    { () } ifelse
} def
/cairo_flush_ascii85_file { cairo_ascii85_file status { cairo_ascii85_file flushfile } if } def
/cairo_image { image cairo_flush_ascii85_file } def
/cairo_imagemask { imagemask cairo_flush_ascii85_file } def
%%EndProlog
%%BeginSetup
%%EndSetup
%%Page: 1 1
%%BeginPageSetup
%%PageBoundingBox: 0 11 384 373
%%EndPageSetup
q 0 11 384 362 rectclip
1 0 0 -1 0 384 cm q
0 g
37.559 51.801 m 16.711 65.523 4.883 92.859 7.328 120.133 c 112.449 50.945
 l 101.992 45.445 90.48 42.238 78.684 41.539 c 63.324 40.652 49.102 44.203
 37.559 51.801 c h
37.559 51.801 m f
147.367 100.816 m 40.047 171.445 l 61.492 182.574 92.246 185.527 115.492
 170.227 c 140.742 153.609 152.535 127.496 147.367 100.816 c h
147.367 100.816 m f
149.785 63.961 m 148.719 62.34 l 142.691 53.199 130.406 50.668 121.262 
56.68 c 8.926 130.609 l -0.219 136.633 -2.754 148.926 3.266 158.07 c 4.332
 159.688 l 10.352 168.836 22.645 171.371 31.793 165.352 c 144.125 91.422
 l 153.262 85.395 155.793 73.109 149.785 63.961 c h
149.785 63.961 m f
122.215 171.676 m 120.793 169.426 117.816 168.758 115.57 170.18 c 113.32
 171.602 112.652 174.574 114.074 176.824 c 236.254 369.969 l 237.676 372.219
 240.648 372.887 242.898 371.465 c 245.145 370.043 245.816 367.07 244.395
 364.82 c h
122.215 171.676 m f
327.941 12.672 m 324.539 12.078 321.09 11.781 317.633 11.789 c 288.395 
11.789 256.469 32.203 249.465 67.797 c 243.594 97.637 263.324 121.777 264.168
 122.793 c 271.668 131.43 281.102 138.18 291.699 142.488 c 272.449 129.645
 255.586 103.305 260.188 77.086 c 263.098 60.504 271.543 46.371 283.973 
37.289 c 296.574 28.082 312.574 24.602 329.031 27.496 c 345.391 30.367 356.66
 38.254 363.484 51.59 c 370.379 65.312 370.941 81.363 365.027 95.535 c 358.691
 110.887 343.574 120.766 326.973 120.402 c 326.758 120.395 l 317.074 120.176
 308.188 114.988 303.23 106.672 c 301.355 103.543 l 293.328 90.148 297.68
 72.781 311.074 64.754 c 319.117 59.934 329.027 59.414 337.527 63.367 c 
342.52 65.688 l 344.941 66.789 346.012 69.645 344.91 72.066 c 343.812 74.488
 340.957 75.559 338.535 74.457 c 338.508 74.445 338.484 74.434 338.461 74.422
 c 333.469 72.102 l 324.129 67.762 313.043 71.816 308.703 81.152 c 306.098
 86.758 306.441 93.289 309.617 98.59 c 311.492 101.715 l 314.762 107.203
 320.621 110.625 327.008 110.77 c 327.223 110.773 l 339.828 111.047 351.301
 103.547 356.113 91.895 c 360.965 80.32 360.527 67.203 354.914 55.977 c 
349.484 45.363 340.727 39.328 327.367 36.98 c 313.516 34.547 300.121 37.422
 289.656 45.07 c 279.25 52.672 272.152 64.637 269.676 78.754 c 265.777 100.945
 281.199 124.246 297.684 134.906 c 303.648 138.762 310.336 141.379 317.336
 142.594 c 331.5 145.082 346.723 141.039 359.102 131.512 c 359.461 131.234
 359.859 131.012 360.285 130.844 c 388.711 106.543 392.055 63.801 367.754
 35.371 c 357.523 23.406 343.449 15.379 327.941 12.672 c h
327.941 12.672 m f
304.512 146.156 m 301.891 145.695 299.395 147.449 298.934 150.066 c 262.93
 355.199 l 262.469 357.82 264.223 360.312 266.84 360.773 c 267.117 360.824
 267.398 360.848 267.68 360.848 c 270.016 360.844 272.012 359.164 272.414
 356.863 c 308.422 151.734 l 308.883 149.113 307.133 146.617 304.512 146.156
 c h
304.512 146.156 m f
Q Q
showpage
%%Trailer
end
%%EOF
