%!PS-Adobe-3.0 EPSF-3.0
%%Creator: cairo 1.16.0 (https://cairographics.org)
%%CreationDate: Mon Sep 23 08:21:24 2019
%%Pages: 1
%%DocumentData: Clean7Bit
%%LanguageLevel: 2
%%BoundingBox: 14 0 370 384
%%EndComments
%%BeginProlog
50 dict begin
/q { gsave } bind def
/Q { grestore } bind def
/cm { 6 array astore concat } bind def
/w { setlinewidth } bind def
/J { setlinecap } bind def
/j { setlinejoin } bind def
/M { setmiterlimit } bind def
/d { setdash } bind def
/m { moveto } bind def
/l { lineto } bind def
/c { curveto } bind def
/h { closepath } bind def
/re { exch dup neg 3 1 roll 5 3 roll moveto 0 rlineto
      0 exch rlineto 0 rlineto closepath } bind def
/S { stroke } bind def
/f { fill } bind def
/f* { eofill } bind def
/n { newpath } bind def
/W { clip } bind def
/W* { eoclip } bind def
/BT { } bind def
/ET { } bind def
/BDC { mark 3 1 roll /BDC pdfmark } bind def
/EMC { mark /EMC pdfmark } bind def
/cairo_store_point { /cairo_point_y exch def /cairo_point_x exch def } def
/Tj { show currentpoint cairo_store_point } bind def
/TJ {
  {
    dup
    type /stringtype eq
    { show } { -0.001 mul 0 cairo_font_matrix dtransform rmoveto } ifelse
  } forall
  currentpoint cairo_store_point
} bind def
/cairo_selectfont { cairo_font_matrix aload pop pop pop 0 0 6 array astore
    cairo_font exch selectfont cairo_point_x cairo_point_y moveto } bind def
/Tf { pop /cairo_font exch def /cairo_font_matrix where
      { pop cairo_selectfont } if } bind def
/Td { matrix translate cairo_font_matrix matrix concatmatrix dup
      /cairo_font_matrix exch def dup 4 get exch 5 get cairo_store_point
      /cairo_font where { pop cairo_selectfont } if } bind def
/Tm { 2 copy 8 2 roll 6 array astore /cairo_font_matrix exch def
      cairo_store_point /cairo_font where { pop cairo_selectfont } if } bind def
/g { setgray } bind def
/rg { setrgbcolor } bind def
/d1 { setcachedevice } bind def
/cairo_data_source {
  CairoDataIndex CairoData length lt
    { CairoData CairoDataIndex get /CairoDataIndex CairoDataIndex 1 add def }
    { () } ifelse
} def
/cairo_flush_ascii85_file { cairo_ascii85_file status { cairo_ascii85_file flushfile } if } def
/cairo_image { image cairo_flush_ascii85_file } def
/cairo_imagemask { imagemask cairo_flush_ascii85_file } def
%%EndProlog
%%BeginSetup
%%EndSetup
%%Page: 1 1
%%BeginPageSetup
%%PageBoundingBox: 14 0 370 384
%%EndPageSetup
q 14 0 356 384 rectclip
1 0 0 -1 0 384 cm q
0 g
53.207 124.625 m 32.07 15.945 l 14.91 20.355 l 40.387 124.625 l h
53.207 124.625 m f
79.637 124.625 m 82.188 124.625 l 85.594 124.645 88.414 127.273 88.668 
130.672 c 89.414 140.965 93.016 150.844 99.074 159.195 c 100.348 0.359 l
 79.637 0.359 l h
79.637 124.625 m f
144.082 182.246 m 145.641 182.246 147.203 182.168 148.754 182.039 c 158.648
 1.141 l 137.941 0 l 127.926 179.863 l 133.164 181.457 138.609 182.258 144.082
 182.246 c h
144.082 182.246 m f
158.719 180.289 m 167.359 177.93 175.297 173.5 181.844 167.391 c 181.863
 167.371 l 195.246 13.426 l 167.844 13.426 l h
158.719 180.289 m f
251.414 2.898 m 230.773 0.176 l 211.723 124.625 l 235.688 124.625 l h
251.414 2.898 m f
117.465 247.984 m 101.945 263.277 101.758 288.254 117.051 303.773 c 129.488
 316.398 148.816 319.18 164.309 310.574 c 164.309 241.512 l 149 232.977 
129.887 235.617 117.465 247.984 c h
117.465 247.984 m f
174.16 237.812 m 295.91 237.812 l 298.629 237.812 300.836 240.016 300.836
 242.738 c 300.836 245.457 298.629 247.664 295.91 247.664 c 174.16 247.664
 l 174.16 256.492 l 295.91 256.492 l 298.629 256.492 300.836 258.695 300.836
 261.418 c 300.836 264.137 298.629 266.344 295.91 266.344 c 174.16 266.344
 l 174.16 366.113 l 174.172 375.988 182.176 383.988 192.047 384 c 305.32
 384 l 315.195 383.988 323.195 375.988 323.207 366.113 c 323.207 266.359
 l 309.414 266.344 l 306.695 266.336 304.496 264.125 304.5 261.402 c 304.508
 258.691 306.707 256.496 309.422 256.492 c 309.426 256.492 l 323.203 256.508
 l 323.203 247.676 l 309.414 247.664 l 306.691 247.66 304.488 245.453 304.488
 242.734 c 304.492 240.012 306.699 237.809 309.418 237.809 c 309.422 237.809
 l 323.203 237.824 l 323.203 223.859 l 174.16 223.859 l h
174.16 237.812 m f
333.059 255.551 m 333.059 336.793 l 344.293 332.195 l 364.688 323.848 374.453
 300.547 366.105 280.152 c 360.5 266.457 347.781 256.992 333.059 255.551
 c h
333.059 255.551 m f
258.754 134.477 m 209.031 134.477 l 205.598 162.629 184.461 185.391 156.637
 190.887 c 121.141 197.789 86.773 174.605 79.871 139.109 c 79.574 137.574
 79.332 136.027 79.145 134.477 c 29.605 134.477 l 50.836 240.535 l 111.996
 239.594 l 126.168 226.613 146.605 223.082 164.305 230.562 c 164.305 218.934
 l 164.305 216.211 166.512 214.008 169.23 214.008 c 245.488 214.008 l h
258.754 134.477 m f
95.957 276.035 m 95.934 266.664 98.594 257.484 103.625 249.578 c 52.801
 250.359 l 62.5 298.82 l 101.379 298.586 l 97.793 291.609 95.934 283.879
 95.957 276.035 c h
95.957 276.035 m f
108.023 308.398 m 64.469 308.66 l 74.906 360.82 l 164.309 360.82 l 164.309
 321.523 l 144.684 329.805 121.957 324.504 108.023 308.398 c h
108.023 308.398 m f
Q Q
showpage
%%Trailer
end
%%EOF
