%!PS-Adobe-3.0 EPSF-3.0
%%Creator: cairo 1.16.0 (https://cairographics.org)
%%CreationDate: Mon Sep 23 08:21:25 2019
%%Pages: 1
%%DocumentData: Clean7Bit
%%LanguageLevel: 2
%%BoundingBox: 0 0 384 384
%%EndComments
%%BeginProlog
50 dict begin
/q { gsave } bind def
/Q { grestore } bind def
/cm { 6 array astore concat } bind def
/w { setlinewidth } bind def
/J { setlinecap } bind def
/j { setlinejoin } bind def
/M { setmiterlimit } bind def
/d { setdash } bind def
/m { moveto } bind def
/l { lineto } bind def
/c { curveto } bind def
/h { closepath } bind def
/re { exch dup neg 3 1 roll 5 3 roll moveto 0 rlineto
      0 exch rlineto 0 rlineto closepath } bind def
/S { stroke } bind def
/f { fill } bind def
/f* { eofill } bind def
/n { newpath } bind def
/W { clip } bind def
/W* { eoclip } bind def
/BT { } bind def
/ET { } bind def
/BDC { mark 3 1 roll /BDC pdfmark } bind def
/EMC { mark /EMC pdfmark } bind def
/cairo_store_point { /cairo_point_y exch def /cairo_point_x exch def } def
/Tj { show currentpoint cairo_store_point } bind def
/TJ {
  {
    dup
    type /stringtype eq
    { show } { -0.001 mul 0 cairo_font_matrix dtransform rmoveto } ifelse
  } forall
  currentpoint cairo_store_point
} bind def
/cairo_selectfont { cairo_font_matrix aload pop pop pop 0 0 6 array astore
    cairo_font exch selectfont cairo_point_x cairo_point_y moveto } bind def
/Tf { pop /cairo_font exch def /cairo_font_matrix where
      { pop cairo_selectfont } if } bind def
/Td { matrix translate cairo_font_matrix matrix concatmatrix dup
      /cairo_font_matrix exch def dup 4 get exch 5 get cairo_store_point
      /cairo_font where { pop cairo_selectfont } if } bind def
/Tm { 2 copy 8 2 roll 6 array astore /cairo_font_matrix exch def
      cairo_store_point /cairo_font where { pop cairo_selectfont } if } bind def
/g { setgray } bind def
/rg { setrgbcolor } bind def
/d1 { setcachedevice } bind def
/cairo_data_source {
  CairoDataIndex CairoData length lt
    { CairoData CairoDataIndex get /CairoDataIndex CairoDataIndex 1 add def }
    { () } ifelse
} def
/cairo_flush_ascii85_file { cairo_ascii85_file status { cairo_ascii85_file flushfile } if } def
/cairo_image { image cairo_flush_ascii85_file } def
/cairo_imagemask { imagemask cairo_flush_ascii85_file } def
%%EndProlog
%%BeginSetup
%%EndSetup
%%Page: 1 1
%%BeginPageSetup
%%PageBoundingBox: 0 0 384 384
%%EndPageSetup
q 0 0 384 384 rectclip
1 0 0 -1 0 384 cm q
0 g
107.723 313.797 m 106.25 316.426 102.922 317.359 100.297 315.883 c 97.691
 314.422 96.75 311.137 98.176 308.516 c 110.406 286.41 l 106.5 282.5 l 92.988
 298.254 l 91.027 300.543 87.586 300.805 85.297 298.848 c 83.012 296.887
 82.746 293.441 84.707 291.156 c 98.762 274.766 l 95.309 271.312 l 65.602
 292.676 l 63.176 294.461 59.758 293.945 57.973 291.52 c 56.184 289.098 
56.703 285.68 59.125 283.895 c 59.16 283.867 59.195 283.844 59.227 283.82
 c 87.488 263.496 l 87.23 263.238 l 0 291.637 l 7.688 292.211 l 10.246 292.398
 12.328 294.348 12.688 296.891 c 17.008 327.574 l 47.918 329.875 l 50.477
 330.062 52.559 332.012 52.918 334.555 c 57.246 365.246 l 88.16 367.551 
l 90.719 367.738 92.801 369.688 93.16 372.227 c 94.719 383.289 l 121.516
 297.508 l 118.445 294.434 l h
107.723 313.797 m f
188.105 91.871 m 130.285 91.922 83.453 138.836 83.504 196.656 c 83.551 
254.477 130.465 301.309 188.285 301.258 c 246.105 301.207 292.938 254.297
 292.887 196.477 c 292.863 168.727 281.824 142.125 262.195 122.508 c 242.559
 102.848 215.895 91.824 188.105 91.871 c h
159.762 141.742 m 145.125 141.758 133.262 153.621 133.246 168.262 c 133.246
 171.273 130.805 173.715 127.789 173.715 c 124.777 173.715 122.336 171.273
 122.336 168.262 c 122.359 147.602 139.102 130.855 159.762 130.832 c 162.777
 130.832 165.219 133.277 165.219 136.289 c 165.219 139.301 162.777 141.742
 159.762 141.742 c h
159.762 141.742 m f
367.746 90.062 m 364.426 59.242 l 333.609 55.926 l 331.059 55.652 329.043
 53.637 328.77 51.086 c 325.453 20.266 l 294.641 16.957 l 292.09 16.684 
290.074 14.668 289.797 12.117 c 288.57 0.711 l 254.809 95.801 l 258.688 
99.68 l 281.027 66.781 l 282.684 64.266 286.066 63.57 288.582 65.23 c 291.098
 66.887 291.793 70.27 290.137 72.785 c 290.109 72.828 290.078 72.867 290.051
 72.91 c 266.543 107.535 l 268.066 109.059 l 284.863 92.969 l 287.023 90.863
 290.477 90.91 292.578 93.066 c 294.68 95.223 294.637 98.68 292.477 100.781
 c 292.457 100.805 292.434 100.824 292.41 100.844 c 275.781 116.773 l 278.207
 119.199 l 305.41 103.09 l 307.98 101.523 311.336 102.34 312.902 104.91 
c 314.469 107.484 313.656 110.84 311.082 112.406 c 311.043 112.43 311.008
 112.453 310.969 112.477 c 286.172 127.164 l 288.91 129.902 l 384 96.133
 l 372.586 94.902 l 370.035 94.629 368.02 92.613 367.746 90.062 c h
367.746 90.062 m f
Q Q
showpage
%%Trailer
end
%%EOF
