%!PS-Adobe-3.0 EPSF-3.0
%%Creator: cairo 1.16.0 (https://cairographics.org)
%%CreationDate: Mon Sep 23 08:21:25 2019
%%Pages: 1
%%DocumentData: Clean7Bit
%%LanguageLevel: 2
%%BoundingBox: 0 0 384 384
%%EndComments
%%BeginProlog
50 dict begin
/q { gsave } bind def
/Q { grestore } bind def
/cm { 6 array astore concat } bind def
/w { setlinewidth } bind def
/J { setlinecap } bind def
/j { setlinejoin } bind def
/M { setmiterlimit } bind def
/d { setdash } bind def
/m { moveto } bind def
/l { lineto } bind def
/c { curveto } bind def
/h { closepath } bind def
/re { exch dup neg 3 1 roll 5 3 roll moveto 0 rlineto
      0 exch rlineto 0 rlineto closepath } bind def
/S { stroke } bind def
/f { fill } bind def
/f* { eofill } bind def
/n { newpath } bind def
/W { clip } bind def
/W* { eoclip } bind def
/BT { } bind def
/ET { } bind def
/BDC { mark 3 1 roll /BDC pdfmark } bind def
/EMC { mark /EMC pdfmark } bind def
/cairo_store_point { /cairo_point_y exch def /cairo_point_x exch def } def
/Tj { show currentpoint cairo_store_point } bind def
/TJ {
  {
    dup
    type /stringtype eq
    { show } { -0.001 mul 0 cairo_font_matrix dtransform rmoveto } ifelse
  } forall
  currentpoint cairo_store_point
} bind def
/cairo_selectfont { cairo_font_matrix aload pop pop pop 0 0 6 array astore
    cairo_font exch selectfont cairo_point_x cairo_point_y moveto } bind def
/Tf { pop /cairo_font exch def /cairo_font_matrix where
      { pop cairo_selectfont } if } bind def
/Td { matrix translate cairo_font_matrix matrix concatmatrix dup
      /cairo_font_matrix exch def dup 4 get exch 5 get cairo_store_point
      /cairo_font where { pop cairo_selectfont } if } bind def
/Tm { 2 copy 8 2 roll 6 array astore /cairo_font_matrix exch def
      cairo_store_point /cairo_font where { pop cairo_selectfont } if } bind def
/g { setgray } bind def
/rg { setrgbcolor } bind def
/d1 { setcachedevice } bind def
/cairo_data_source {
  CairoDataIndex CairoData length lt
    { CairoData CairoDataIndex get /CairoDataIndex CairoDataIndex 1 add def }
    { () } ifelse
} def
/cairo_flush_ascii85_file { cairo_ascii85_file status { cairo_ascii85_file flushfile } if } def
/cairo_image { image cairo_flush_ascii85_file } def
/cairo_imagemask { imagemask cairo_flush_ascii85_file } def
%%EndProlog
%%BeginSetup
%%EndSetup
%%Page: 1 1
%%BeginPageSetup
%%PageBoundingBox: 0 0 384 384
%%EndPageSetup
q 0 0 384 384 rectclip
1 0 0 -1 0 384 cm q
0 g
306.871 202.867 m 349.867 202.867 l 356.777 202.98 362.469 197.469 362.582
 190.559 c 362.691 183.648 357.18 177.953 350.27 177.84 c 350.137 177.84
 350 177.84 349.867 177.84 c 306.527 177.84 l 307.082 182.539 307.363 187.27
 307.363 192 c 307.363 195.664 307.191 199.285 306.871 202.867 c h
306.871 202.867 m f
192 0 m 85.961 0 0 85.961 0 192 c 0 242.922 20.23 291.758 56.234 327.766
 c 131.215 402.746 252.781 402.746 327.766 327.766 c 402.746 252.785 402.746
 131.219 327.766 56.234 c 291.836 20.113 242.949 -0.137 192 0 c h
372.223 190.352 m 372.207 202.695 362.203 212.699 349.859 212.715 c 305.574
 212.715 l 295.727 269.148 246.387 312.188 187.18 312.188 c 120.906 312.188
 66.992 258.27 66.992 192 c 66.992 125.73 120.906 71.812 187.18 71.812 c
 245.23 71.812 293.801 113.184 304.953 167.992 c 349.859 167.992 l 362.203
 168.008 372.207 178.008 372.223 190.352 c h
372.223 190.352 m f
187.18 81.66 m 126.336 81.66 76.836 131.16 76.836 192 c 76.836 252.844 
126.336 302.34 187.18 302.34 c 248.023 302.34 297.516 252.844 297.516 192
 c 297.516 131.16 248.02 81.66 187.18 81.66 c h
188.418 287.473 m 135.852 287.473 93.238 244.859 93.238 192.293 c 93.238
 139.727 135.852 97.113 188.418 97.113 c 240.984 97.113 283.598 139.727 
283.598 192.293 c 283.539 244.832 240.961 287.41 188.418 287.473 c h
188.418 287.473 m f
188.418 106.957 m 141.289 106.957 103.086 145.164 103.086 192.293 c 103.086
 239.422 141.289 277.625 188.418 277.625 c 235.547 277.625 273.754 239.422
 273.754 192.293 c 273.699 145.184 235.523 107.012 188.418 106.957 c h
171.852 133.859 m 155.176 138.598 141.32 150.227 133.758 165.824 c 132.57
 168.273 129.625 169.293 127.176 168.109 c 124.73 166.922 123.711 163.977
 124.895 161.527 c 133.684 143.406 149.789 129.895 169.168 124.391 c 171.773
 123.625 174.512 125.113 175.281 127.723 c 176.047 130.332 174.555 133.066
 171.949 133.836 c 171.914 133.848 171.883 133.855 171.848 133.863 c h
171.852 133.859 m f
Q Q
showpage
%%Trailer
end
%%EOF
