%!PS-Adobe-3.0 EPSF-3.0
%%Creator: cairo 1.16.0 (https://cairographics.org)
%%CreationDate: Mon Sep 23 08:21:25 2019
%%Pages: 1
%%DocumentData: Clean7Bit
%%LanguageLevel: 2
%%BoundingBox: 0 6 384 378
%%EndComments
%%BeginProlog
50 dict begin
/q { gsave } bind def
/Q { grestore } bind def
/cm { 6 array astore concat } bind def
/w { setlinewidth } bind def
/J { setlinecap } bind def
/j { setlinejoin } bind def
/M { setmiterlimit } bind def
/d { setdash } bind def
/m { moveto } bind def
/l { lineto } bind def
/c { curveto } bind def
/h { closepath } bind def
/re { exch dup neg 3 1 roll 5 3 roll moveto 0 rlineto
      0 exch rlineto 0 rlineto closepath } bind def
/S { stroke } bind def
/f { fill } bind def
/f* { eofill } bind def
/n { newpath } bind def
/W { clip } bind def
/W* { eoclip } bind def
/BT { } bind def
/ET { } bind def
/BDC { mark 3 1 roll /BDC pdfmark } bind def
/EMC { mark /EMC pdfmark } bind def
/cairo_store_point { /cairo_point_y exch def /cairo_point_x exch def } def
/Tj { show currentpoint cairo_store_point } bind def
/TJ {
  {
    dup
    type /stringtype eq
    { show } { -0.001 mul 0 cairo_font_matrix dtransform rmoveto } ifelse
  } forall
  currentpoint cairo_store_point
} bind def
/cairo_selectfont { cairo_font_matrix aload pop pop pop 0 0 6 array astore
    cairo_font exch selectfont cairo_point_x cairo_point_y moveto } bind def
/Tf { pop /cairo_font exch def /cairo_font_matrix where
      { pop cairo_selectfont } if } bind def
/Td { matrix translate cairo_font_matrix matrix concatmatrix dup
      /cairo_font_matrix exch def dup 4 get exch 5 get cairo_store_point
      /cairo_font where { pop cairo_selectfont } if } bind def
/Tm { 2 copy 8 2 roll 6 array astore /cairo_font_matrix exch def
      cairo_store_point /cairo_font where { pop cairo_selectfont } if } bind def
/g { setgray } bind def
/rg { setrgbcolor } bind def
/d1 { setcachedevice } bind def
/cairo_data_source {
  CairoDataIndex CairoData length lt
    { CairoData CairoDataIndex get /CairoDataIndex CairoDataIndex 1 add def }
    { () } ifelse
} def
/cairo_flush_ascii85_file { cairo_ascii85_file status { cairo_ascii85_file flushfile } if } def
/cairo_image { image cairo_flush_ascii85_file } def
/cairo_imagemask { imagemask cairo_flush_ascii85_file } def
%%EndProlog
%%BeginSetup
%%EndSetup
%%Page: 1 1
%%BeginPageSetup
%%PageBoundingBox: 0 6 384 378
%%EndPageSetup
q 0 6 384 372 rectclip
1 0 0 -1 0 384 cm q
0 g
243.707 229.816 m 249.676 229.816 l 251.562 229.816 253.281 230.887 254.113
 232.582 c 256.25 236.922 259.242 240.785 262.914 243.938 c 262.914 155.551
 l 243.707 155.551 l h
243.707 229.816 m f
0 96.539 m 254.777 96.539 l 254.777 76.867 l 254.758 61.105 241.988 48.336
 226.227 48.316 c 28.555 48.316 l 12.793 48.336 0.023 61.105 0.004 76.867
 c h
0 96.539 m f
232.531 106.414 m 21.434 106.414 l 23.812 153.438 l 230.148 153.438 l h
232.531 106.414 m f
189.797 6.121 m 64.168 6.121 l 49.449 6.062 37.121 17.246 35.75 31.898 
c 35.438 38.441 l 218.523 38.441 l 218.215 31.898 l 216.84 17.246 204.512
 6.062 189.797 6.121 c h
189.797 6.121 m f
286.184 253.195 m 286.184 132.344 l 272.793 132.344 l 272.793 250.09 l 
277.035 251.906 281.57 252.957 286.184 253.195 c h
286.184 253.195 m f
345.496 162.926 16.301 66.891 re f
312.355 244.863 m 312.355 160.145 l 296.055 160.145 l 296.055 252.457 l
 302.012 251.242 307.598 248.641 312.355 244.863 c h
312.355 244.863 m f
126.977 193.117 m 105.688 193.117 88.43 210.379 88.434 231.668 c 88.438
 252.957 105.699 270.215 126.988 270.211 c 148.273 270.207 165.527 252.953
 165.527 231.668 c 165.508 210.383 148.258 193.133 126.977 193.117 c h
126.977 193.117 m f
322.281 232.582 m 323.109 230.887 324.832 229.816 326.715 229.816 c 335.621
 229.816 l 335.621 135.125 l 322.23 135.125 l 322.23 232.684 l 322.246 232.645
 322.266 232.617 322.281 232.582 c h
322.281 232.582 m f
321.086 321.301 m 321.09 324.941 320.449 328.551 319.184 331.965 c 365.906
 331.809 l 370.805 306.855 l 317.711 307.34 l 319.922 311.66 321.078 316.445
 321.086 321.301 c h
321.086 321.301 m f
290.492 342.09 m 301.953 342.109 311.258 332.832 311.277 321.371 c 311.301
 309.91 302.023 300.605 290.562 300.582 c 279.102 300.562 269.793 309.84
 269.773 321.301 c 269.766 325.953 271.32 330.473 274.188 334.133 c 278.098
 339.168 284.117 342.105 290.492 342.09 c h
290.492 342.09 m f
288.211 263.125 m 270.984 263.125 255.035 254.023 246.723 239.688 c 192.426
 239.688 l 204.008 298.672 l 270.492 298.113 l 281.707 288.371 298.309 288.129
 309.809 297.535 c 372.75 296.965 l 384 239.691 l 329.672 239.691 l 321.359
 254.023 305.422 263.125 288.211 263.125 c h
288.211 263.125 m f
290.492 351.965 m 281.957 351.98 273.812 348.41 268.047 342.121 c 212.578
 342.281 l 219.57 377.879 l 356.855 377.879 l 363.961 341.688 l 313.172 
341.859 l 307.402 348.312 299.145 351.988 290.492 351.965 c h
290.492 351.965 m f
214.625 183.355 19.211 46.461 re f
259.898 321.301 m 259.891 316.715 260.91 312.188 262.887 308.055 c 205.949
 308.531 l 210.641 332.414 l 261.906 332.266 l 260.574 328.766 259.891 325.047
 259.898 321.301 c h
259.898 321.301 m f
181.582 235.703 m 181.055 233.027 182.797 230.434 185.473 229.906 c 185.789
 229.848 186.105 229.816 186.426 229.816 c 204.754 229.816 l 204.754 178.418
 l 204.754 175.691 206.961 173.48 209.688 173.48 c 233.832 173.48 l 233.832
 163.309 l 24.316 163.309 l 31.219 299.738 l 194.16 299.738 l h
175.402 231.664 m 175.402 258.406 153.723 280.082 126.98 280.082 c 100.238
 280.078 78.562 258.398 78.562 231.656 c 78.566 204.918 100.246 183.242 
126.984 183.242 c 153.723 183.242 175.402 204.918 175.402 231.656 c h
175.402 231.664 m f
31.715 309.613 m 33.34 341.715 l 34.098 356.91 46.641 368.832 61.852 368.828
 c 192.105 368.828 l 197.332 368.824 202.453 367.391 206.918 364.68 c 196.102
 309.613 l h
31.715 309.613 m f
Q Q
showpage
%%Trailer
end
%%EOF
