%!PS-Adobe-3.0 EPSF-3.0
%%Creator: cairo 1.16.0 (https://cairographics.org)
%%CreationDate: Mon Sep 23 08:21:26 2019
%%Pages: 1
%%DocumentData: Clean7Bit
%%LanguageLevel: 2
%%BoundingBox: 46 0 338 384
%%EndComments
%%BeginProlog
50 dict begin
/q { gsave } bind def
/Q { grestore } bind def
/cm { 6 array astore concat } bind def
/w { setlinewidth } bind def
/J { setlinecap } bind def
/j { setlinejoin } bind def
/M { setmiterlimit } bind def
/d { setdash } bind def
/m { moveto } bind def
/l { lineto } bind def
/c { curveto } bind def
/h { closepath } bind def
/re { exch dup neg 3 1 roll 5 3 roll moveto 0 rlineto
      0 exch rlineto 0 rlineto closepath } bind def
/S { stroke } bind def
/f { fill } bind def
/f* { eofill } bind def
/n { newpath } bind def
/W { clip } bind def
/W* { eoclip } bind def
/BT { } bind def
/ET { } bind def
/BDC { mark 3 1 roll /BDC pdfmark } bind def
/EMC { mark /EMC pdfmark } bind def
/cairo_store_point { /cairo_point_y exch def /cairo_point_x exch def } def
/Tj { show currentpoint cairo_store_point } bind def
/TJ {
  {
    dup
    type /stringtype eq
    { show } { -0.001 mul 0 cairo_font_matrix dtransform rmoveto } ifelse
  } forall
  currentpoint cairo_store_point
} bind def
/cairo_selectfont { cairo_font_matrix aload pop pop pop 0 0 6 array astore
    cairo_font exch selectfont cairo_point_x cairo_point_y moveto } bind def
/Tf { pop /cairo_font exch def /cairo_font_matrix where
      { pop cairo_selectfont } if } bind def
/Td { matrix translate cairo_font_matrix matrix concatmatrix dup
      /cairo_font_matrix exch def dup 4 get exch 5 get cairo_store_point
      /cairo_font where { pop cairo_selectfont } if } bind def
/Tm { 2 copy 8 2 roll 6 array astore /cairo_font_matrix exch def
      cairo_store_point /cairo_font where { pop cairo_selectfont } if } bind def
/g { setgray } bind def
/rg { setrgbcolor } bind def
/d1 { setcachedevice } bind def
/cairo_data_source {
  CairoDataIndex CairoData length lt
    { CairoData CairoDataIndex get /CairoDataIndex CairoDataIndex 1 add def }
    { () } ifelse
} def
/cairo_flush_ascii85_file { cairo_ascii85_file status { cairo_ascii85_file flushfile } if } def
/cairo_image { image cairo_flush_ascii85_file } def
/cairo_imagemask { imagemask cairo_flush_ascii85_file } def
%%EndProlog
%%BeginSetup
%%EndSetup
%%Page: 1 1
%%BeginPageSetup
%%PageBoundingBox: 46 0 338 384
%%EndPageSetup
q 46 0 292 384 rectclip
1 0 0 -1 0 384 cm q
0 g
205.848 256.082 m 206.797 265.652 l 225.812 263.766 242.758 277.648 244.645
 296.664 c 246.156 311.895 237.484 326.305 223.32 332.102 c 186.445 347.195
 l 190.09 356.094 l 226.965 341 l 249.562 331.75 260.387 305.93 251.133 
283.332 c 243.727 265.234 225.309 254.152 205.848 256.082 c h
205.848 256.082 m f
300.488 0.027 m 290.133 0.402 279.195 5.055 269.691 13.129 c 263.289 18.656
 258.406 25.719 255.496 33.656 c 264.551 36.902 l 266.902 30.555 270.809
 24.902 275.914 20.457 c 283.781 13.777 292.633 9.934 300.84 9.641 c 309.293
 9.344 316.824 12.785 322.629 19.621 c 336.105 35.488 321.438 72.84 308.293
 94.074 c 316.469 99.137 l 329.98 77.305 348.031 34.68 329.957 13.398 c 
322.18 4.23 311.984 -0.391 300.488 0.027 c h
300.488 0.027 m f
216.18 21.227 m 200.254 21.227 178.996 30.082 160.582 45.719 c 135.012 
67.43 121.453 96.676 128.957 112.758 c 231.863 25.367 l 227.766 22.566 222.375
 21.227 216.18 21.227 c h
216.18 21.227 m f
130.617 197.18 m 122.152 195.203 113.246 197.086 106.305 202.324 c 109.039
 210.59 l 119.25 206.703 130.625 207.289 140.387 212.203 c 152.539 218.332
 167.309 215.289 176.047 204.855 c 170.035 201.445 164.402 197.398 159.246
 192.789 c 150.625 197.883 140.371 199.457 130.617 197.18 c h
130.617 197.18 m f
152.758 29.258 m 149.098 32.809 147.727 38.109 149.211 42.988 c 150.871
 41.434 152.586 39.898 154.355 38.387 c 158.664 34.727 163.191 31.34 167.918
 28.242 c 165.902 26.98 163.613 26.227 161.246 26.039 c 158.09 25.863 155.004
 27.031 152.758 29.258 c h
152.758 29.258 m f
236.516 34.035 m 136.719 118.777 l 135.879 139.746 142.949 160.266 156.527
 176.266 c 158.465 178.551 160.484 180.711 162.582 182.746 c 162.973 183.023
 163.32 183.359 163.613 183.742 c 186.133 205.047 216.695 212.414 245.637
 202.977 c 247.07 202.023 251.891 198.566 252.695 197.949 c 298.285 159.234
 l 298.836 158.586 300.383 156.594 300.828 155.965 c 316.891 125.293 312.785
 89.613 290.07 62.863 c 276.469 46.875 257.352 36.582 236.516 34.035 c h
288.953 108.914 m 286.324 109.293 283.891 107.473 283.508 104.848 c 283.461
 104.535 278.652 73.41 257.473 67.258 c 254.914 66.539 253.426 63.883 254.145
 61.328 c 254.859 58.773 257.516 57.281 260.074 58 c 260.102 58.008 260.129
 58.016 260.156 58.023 c 287.305 65.91 292.805 101.938 293.023 103.469 c
 293.402 106.098 291.582 108.535 288.953 108.914 c h
288.953 108.914 m f
150.172 281.941 m 203.543 281.957 l 203.652 279.531 203.711 277.094 203.711
 274.645 c 203.715 267.207 203.203 259.781 202.184 252.414 c 149.746 252.414
 l h
150.172 281.941 m f
109.504 269.703 m 109.336 269.703 l 105.305 269.797 102.105 273.125 102.164
 277.156 c 102.375 281.938 l 116.934 281.938 l 116.836 276.863 l 116.738
 272.883 113.488 269.703 109.504 269.703 c h
109.504 269.703 m f
126.449 276.66 m 127.66 337.281 l 127.777 341.062 130.934 344.035 134.715
 343.922 c 138.457 343.809 141.414 340.711 141.355 336.965 c 140.129 252.418
 l 78.762 252.418 l 79.594 294.309 l 79.703 298.09 82.855 301.07 86.633 
300.961 c 90.367 300.855 93.328 297.773 93.285 294.039 c 92.559 277.52 l
 92.559 277.484 92.559 277.449 92.559 277.414 c 92.352 268.055 99.77 260.297
 109.129 260.09 c 118.492 259.879 126.25 267.301 126.457 276.66 c h
126.449 276.66 m f
150.309 291.559 m 150.965 336.789 l 151.145 345.867 143.945 353.379 134.871
 353.578 c 134.746 353.578 134.617 353.578 134.492 353.578 c 125.547 353.574
 118.242 346.426 118.043 337.484 c 117.125 291.551 l 102.801 291.551 l 102.891
 293.672 l 102.891 293.777 l 103.094 302.867 95.891 310.402 86.801 310.602
 c 77.707 310.805 70.176 303.602 69.973 294.512 c 69.914 291.559 l 47.324
 291.602 l 51.57 332.16 70.848 366.832 98.199 381.035 c 102.023 382.996 
106.266 384.012 110.566 384 c 139.375 383.992 l 143.789 383.996 148.137 
382.926 152.043 380.871 c 160.953 376.027 168.828 369.488 175.234 361.625
 c 190.258 343.676 199.953 318.77 202.812 291.574 c h
150.309 291.559 m f
69.141 252.422 m 47.965 252.422 l 47.027 259.18 46.52 265.992 46.441 272.816
 c 46.41 275.898 46.461 278.957 46.598 281.992 c 69.723 281.949 l h
69.141 252.422 m f
Q Q
showpage
%%Trailer
end
%%EOF
