%!PS-Adobe-3.0 EPSF-3.0
%%Creator: cairo 1.16.0 (https://cairographics.org)
%%CreationDate: Mon Sep 23 08:21:27 2019
%%Pages: 1
%%DocumentData: Clean7Bit
%%LanguageLevel: 2
%%BoundingBox: 0 4 384 380
%%EndComments
%%BeginProlog
50 dict begin
/q { gsave } bind def
/Q { grestore } bind def
/cm { 6 array astore concat } bind def
/w { setlinewidth } bind def
/J { setlinecap } bind def
/j { setlinejoin } bind def
/M { setmiterlimit } bind def
/d { setdash } bind def
/m { moveto } bind def
/l { lineto } bind def
/c { curveto } bind def
/h { closepath } bind def
/re { exch dup neg 3 1 roll 5 3 roll moveto 0 rlineto
      0 exch rlineto 0 rlineto closepath } bind def
/S { stroke } bind def
/f { fill } bind def
/f* { eofill } bind def
/n { newpath } bind def
/W { clip } bind def
/W* { eoclip } bind def
/BT { } bind def
/ET { } bind def
/BDC { mark 3 1 roll /BDC pdfmark } bind def
/EMC { mark /EMC pdfmark } bind def
/cairo_store_point { /cairo_point_y exch def /cairo_point_x exch def } def
/Tj { show currentpoint cairo_store_point } bind def
/TJ {
  {
    dup
    type /stringtype eq
    { show } { -0.001 mul 0 cairo_font_matrix dtransform rmoveto } ifelse
  } forall
  currentpoint cairo_store_point
} bind def
/cairo_selectfont { cairo_font_matrix aload pop pop pop 0 0 6 array astore
    cairo_font exch selectfont cairo_point_x cairo_point_y moveto } bind def
/Tf { pop /cairo_font exch def /cairo_font_matrix where
      { pop cairo_selectfont } if } bind def
/Td { matrix translate cairo_font_matrix matrix concatmatrix dup
      /cairo_font_matrix exch def dup 4 get exch 5 get cairo_store_point
      /cairo_font where { pop cairo_selectfont } if } bind def
/Tm { 2 copy 8 2 roll 6 array astore /cairo_font_matrix exch def
      cairo_store_point /cairo_font where { pop cairo_selectfont } if } bind def
/g { setgray } bind def
/rg { setrgbcolor } bind def
/d1 { setcachedevice } bind def
/cairo_data_source {
  CairoDataIndex CairoData length lt
    { CairoData CairoDataIndex get /CairoDataIndex CairoDataIndex 1 add def }
    { () } ifelse
} def
/cairo_flush_ascii85_file { cairo_ascii85_file status { cairo_ascii85_file flushfile } if } def
/cairo_image { image cairo_flush_ascii85_file } def
/cairo_imagemask { imagemask cairo_flush_ascii85_file } def
%%EndProlog
%%BeginSetup
%%EndSetup
%%Page: 1 1
%%BeginPageSetup
%%PageBoundingBox: 0 4 384 380
%%EndPageSetup
q 0 4 384 376 rectclip
1 0 0 -1 0 384 cm q
0 g
69.645 246.945 m 69.648 271.848 89.844 292.031 114.75 292.027 c 134.297
 292.02 151.617 279.422 157.637 260.824 c 154.363 260.84 151.629 258.328
 151.367 255.062 c 148.738 217.379 l 132.414 198.586 103.949 196.586 85.16
 212.906 c 75.301 221.469 69.641 233.887 69.645 246.945 c h
69.645 246.945 m f
164.859 325.199 m 163.805 326.555 162.867 327.996 162.055 329.512 c 158.074
 336.27 152.059 346.488 138.098 351.008 c 128.012 354.27 119.562 355.645
 112.445 355.645 c 86.836 355.645 78.465 337.844 72.984 326.191 c 72.277
 324.684 71.605 323.262 70.945 321.957 c 64.965 310.164 57.844 305.625 47.066
 298.754 c 45.438 297.715 43.738 296.633 41.961 295.473 c 31.398 288.578
 23.609 280.57 18.805 271.668 c 11.531 258.188 11.164 243.055 17.715 226.691
 c 26.012 205.973 20.137 194.32 15.695 189.086 c 5.395 206.629 -0.023 226.605
 0 246.945 c 0 310.207 51.465 361.672 114.723 361.672 c 134.617 361.68 154.172
 356.508 171.461 346.668 c 169.98 320.211 l 168.188 321.785 166.48 323.449
 164.859 325.199 c h
164.859 325.199 m f
182.262 362.723 m 182.703 372.629 187.129 379.492 190.828 379.492 c 339.684
 379.492 l 342.883 379.492 347.773 373.543 348.254 362.777 c 353.977 260.824
 l 176.543 260.824 l h
182.262 362.723 m f
143.676 168.902 m 139.688 164.914 l 137.758 163 137.742 159.883 139.656
 157.949 c 140.918 156.676 142.777 156.188 144.504 156.68 c 143.043 135.746
 l 97.082 124.082 48.684 141.883 21.227 180.543 c 24.012 183.297 26.305 
186.512 28.004 190.039 c 31.762 197.785 34.621 211.066 26.895 230.363 c 
17.742 253.227 24.629 272.348 47.371 287.195 c 49.113 288.336 50.781 289.398
 52.383 290.422 c 63.656 297.605 72.559 303.285 79.762 317.488 c 80.488 
318.922 81.188 320.406 81.93 321.98 c 88.973 336.957 96.957 353.93 135.059
 341.602 c 145.449 338.238 149.938 330.617 153.543 324.496 c 154.691 322.344
 156.066 320.32 157.637 318.453 c 161.105 314.613 165.027 311.207 169.316
 308.312 c 166.852 264.426 l 157.215 293.223 126.051 308.75 97.258 299.109
 c 68.461 289.469 52.93 258.309 62.57 229.512 c 72.211 200.719 103.371 185.188
 132.168 194.828 c 137.762 196.703 143.02 199.465 147.738 203.008 c 145.438
 170.027 l 144.777 169.781 144.176 169.398 143.676 168.902 c h
128.945 315.316 m 139.336 315.316 l 142.066 315.316 144.277 317.531 144.277
 320.258 c 144.277 322.988 142.066 325.199 139.336 325.199 c 128.945 325.199
 l 126.215 325.199 124.004 322.988 124.004 320.258 c 124.004 317.531 126.215
 315.316 128.945 315.316 c h
84.867 303.18 m 86.797 301.25 89.926 301.25 91.855 303.18 c 98.648 309.973
 l 100.578 311.902 100.578 315.031 98.648 316.961 c 96.719 318.891 93.594
 318.891 91.664 316.961 c 84.867 310.168 l 82.941 308.238 82.938 305.109
 84.867 303.18 c h
55.672 267.766 m 54.754 270.332 51.93 271.672 49.363 270.754 c 49.359 270.754
 49.359 270.754 49.355 270.75 c 39.465 267.211 l 36.898 266.289 35.559 263.461
 36.48 260.895 c 37.398 258.324 40.227 256.988 42.797 257.906 c 52.684 261.445
 l 55.254 262.367 56.59 265.195 55.672 267.762 c 55.672 267.766 55.672 267.766
 55.672 267.766 c h
39.473 221.906 m 42.602 213.93 l 43.582 211.383 46.441 210.113 48.988 211.094
 c 51.531 212.07 52.805 214.93 51.824 217.477 c 51.816 217.496 51.809 217.516
 51.801 217.535 c 48.672 225.512 l 47.695 228.059 44.836 229.328 42.289 
228.352 c 39.742 227.371 38.473 224.512 39.449 221.965 c 39.457 221.945 
39.465 221.926 39.473 221.906 c h
55.254 166.035 m 46.227 175.32 l 44.281 177.234 41.152 177.211 39.238 175.27
 c 37.383 173.383 37.34 170.371 39.145 168.434 c 48.172 159.145 l 50.117
 157.23 53.242 157.254 55.156 159.199 c 57.016 161.086 57.055 164.098 55.254
 166.035 c h
93.383 182.812 m 81.578 182.812 l 78.848 182.812 76.637 180.598 76.637 
177.871 c 76.637 175.141 78.848 172.93 81.578 172.93 c 93.383 172.93 l 96.113
 172.93 98.324 175.141 98.324 177.871 c 98.324 180.598 96.113 182.812 93.383
 182.812 c h
112.273 151.559 m 96.859 151.559 l 94.129 151.559 91.918 149.348 91.918
 146.617 c 91.918 143.887 94.129 141.676 96.859 141.676 c 112.273 141.676
 l 115.004 141.676 117.215 143.887 117.215 146.617 c 117.215 149.348 115.004
 151.559 112.273 151.559 c h
112.273 151.559 m f
363.285 25.215 m 361.969 17.68 358.734 7.254 356.52 4.508 c 172.457 21.211
 l 172.234 21.211 l 169.258 21.211 166.711 22.934 166.312 25.215 c 163.316
 42.402 l 366.281 42.402 l h
363.285 25.215 m f
146.523 52.281 237.477 16.902 re f
160.984 250.945 m 369.531 250.945 l 378.277 125.641 l 152.242 125.641 l
 h
239.137 151.863 m 245.973 141.879 255.25 136.383 265.262 136.383 c 275.27
 136.383 284.547 141.883 291.387 151.863 c 297.836 161.277 301.383 173.699
 301.383 186.848 c 301.383 199.992 297.836 212.422 291.387 221.832 c 284.547
 231.816 275.27 237.312 265.262 237.312 c 255.254 237.312 245.973 231.816
 239.137 221.832 c 232.688 212.422 229.137 199.996 229.137 186.848 c 229.137
 173.699 232.688 161.277 239.137 151.863 c h
239.137 151.863 m f
366.055 79.066 m 164.465 79.066 l 167.602 115.758 l 362.918 115.758 l h
366.055 79.066 m f
291.504 186.848 m 291.504 209.266 279.754 227.438 265.262 227.438 c 250.766
 227.438 239.02 209.266 239.02 186.848 c 239.02 164.43 250.766 146.258 265.262
 146.258 c 279.754 146.258 291.504 164.43 291.504 186.848 c h
291.504 186.848 m f
Q Q
showpage
%%Trailer
end
%%EOF
