%!PS-Adobe-3.0 EPSF-3.0
%%Creator: cairo 1.16.0 (https://cairographics.org)
%%CreationDate: Mon Sep 23 08:21:27 2019
%%Pages: 1
%%DocumentData: Clean7Bit
%%LanguageLevel: 2
%%BoundingBox: 52 0 332 384
%%EndComments
%%BeginProlog
50 dict begin
/q { gsave } bind def
/Q { grestore } bind def
/cm { 6 array astore concat } bind def
/w { setlinewidth } bind def
/J { setlinecap } bind def
/j { setlinejoin } bind def
/M { setmiterlimit } bind def
/d { setdash } bind def
/m { moveto } bind def
/l { lineto } bind def
/c { curveto } bind def
/h { closepath } bind def
/re { exch dup neg 3 1 roll 5 3 roll moveto 0 rlineto
      0 exch rlineto 0 rlineto closepath } bind def
/S { stroke } bind def
/f { fill } bind def
/f* { eofill } bind def
/n { newpath } bind def
/W { clip } bind def
/W* { eoclip } bind def
/BT { } bind def
/ET { } bind def
/BDC { mark 3 1 roll /BDC pdfmark } bind def
/EMC { mark /EMC pdfmark } bind def
/cairo_store_point { /cairo_point_y exch def /cairo_point_x exch def } def
/Tj { show currentpoint cairo_store_point } bind def
/TJ {
  {
    dup
    type /stringtype eq
    { show } { -0.001 mul 0 cairo_font_matrix dtransform rmoveto } ifelse
  } forall
  currentpoint cairo_store_point
} bind def
/cairo_selectfont { cairo_font_matrix aload pop pop pop 0 0 6 array astore
    cairo_font exch selectfont cairo_point_x cairo_point_y moveto } bind def
/Tf { pop /cairo_font exch def /cairo_font_matrix where
      { pop cairo_selectfont } if } bind def
/Td { matrix translate cairo_font_matrix matrix concatmatrix dup
      /cairo_font_matrix exch def dup 4 get exch 5 get cairo_store_point
      /cairo_font where { pop cairo_selectfont } if } bind def
/Tm { 2 copy 8 2 roll 6 array astore /cairo_font_matrix exch def
      cairo_store_point /cairo_font where { pop cairo_selectfont } if } bind def
/g { setgray } bind def
/rg { setrgbcolor } bind def
/d1 { setcachedevice } bind def
/cairo_data_source {
  CairoDataIndex CairoData length lt
    { CairoData CairoDataIndex get /CairoDataIndex CairoDataIndex 1 add def }
    { () } ifelse
} def
/cairo_flush_ascii85_file { cairo_ascii85_file status { cairo_ascii85_file flushfile } if } def
/cairo_image { image cairo_flush_ascii85_file } def
/cairo_imagemask { imagemask cairo_flush_ascii85_file } def
%%EndProlog
%%BeginSetup
%%EndSetup
%%Page: 1 1
%%BeginPageSetup
%%PageBoundingBox: 52 0 332 384
%%EndPageSetup
q 52 0 280 384 rectclip
1 0 0 -1 0 384 cm q
0 g
310.352 0 m 80.094 28.02 l 80.094 47.492 l 311.043 47.492 l h
310.352 0 m f
222.02 212.277 m 215.922 222.73 206.215 230.594 194.723 234.395 c 190.461
 235.801 l 183.039 238.262 176.75 243.316 172.758 250.039 c 166.438 260.664
 l 176.91 267.254 195.582 262.391 209.539 248.77 c 219.188 239.348 225.023
 227.48 225.145 217.023 c 225.207 214.32 224.781 211.629 223.891 209.078
 c h
222.02 212.277 m f
187.371 226.453 m 191.633 225.043 l 200.844 221.996 208.629 215.691 213.516
 207.312 c 217.332 200.777 l 213.941 198.758 210.043 197.746 206.098 197.852
 c 196.117 197.852 184 203.098 174.203 212.66 c 164.551 222.082 158.715 
233.949 158.594 244.406 c 158.531 247.133 158.965 249.852 159.879 252.422
 c 164.293 245 l 169.5 236.238 177.695 229.652 187.371 226.453 c h
187.371 226.453 m f
105.406 303.535 m 118.848 375.035 l 119.816 380.227 124.344 383.988 129.621
 384 c 246.016 384 l 251.168 383.969 255.617 380.375 256.727 375.344 c 272.348
 303.531 l h
105.406 303.535 m f
79.609 166.285 m 103.555 293.688 l 274.488 293.688 l 302.203 166.289 l 
h
216.422 255.812 m 207.219 264.797 196.117 270.828 185.156 272.793 c 182.68
 273.246 180.168 273.48 177.648 273.488 c 169.16 273.488 161.82 270.656 
156.516 265.234 c 151.336 259.941 148.648 252.699 148.746 244.293 c 148.895
 231.281 155.84 216.82 167.32 205.609 c 176.523 196.629 187.625 190.598 
198.586 188.629 c 210.242 186.539 220.41 189.223 227.227 196.188 c 232.402
 201.484 235.09 208.723 234.996 217.133 c 234.848 230.145 227.902 244.605
 216.422 255.812 c h
216.422 255.812 m f
316.039 97.977 m 66.77 97.977 l 77.758 156.434 l 304.344 156.434 l 317.059
 97.977 l h
316.039 97.977 m f
67.961 88.125 m 316.039 88.125 l 324.539 88.125 331.43 81.234 331.43 72.734
 c 331.43 64.234 324.539 57.344 316.039 57.344 c 67.961 57.344 l 59.461 
57.344 52.57 64.234 52.57 72.734 c 52.57 81.234 59.461 88.125 67.961 88.125
 c h
67.961 88.125 m f
Q Q
showpage
%%Trailer
end
%%EOF
