%!PS-Adobe-3.0 EPSF-3.0
%%Creator: cairo 1.16.0 (https://cairographics.org)
%%CreationDate: Mon Sep 23 08:21:27 2019
%%Pages: 1
%%DocumentData: Clean7Bit
%%LanguageLevel: 2
%%BoundingBox: 76 0 308 384
%%EndComments
%%BeginProlog
50 dict begin
/q { gsave } bind def
/Q { grestore } bind def
/cm { 6 array astore concat } bind def
/w { setlinewidth } bind def
/J { setlinecap } bind def
/j { setlinejoin } bind def
/M { setmiterlimit } bind def
/d { setdash } bind def
/m { moveto } bind def
/l { lineto } bind def
/c { curveto } bind def
/h { closepath } bind def
/re { exch dup neg 3 1 roll 5 3 roll moveto 0 rlineto
      0 exch rlineto 0 rlineto closepath } bind def
/S { stroke } bind def
/f { fill } bind def
/f* { eofill } bind def
/n { newpath } bind def
/W { clip } bind def
/W* { eoclip } bind def
/BT { } bind def
/ET { } bind def
/BDC { mark 3 1 roll /BDC pdfmark } bind def
/EMC { mark /EMC pdfmark } bind def
/cairo_store_point { /cairo_point_y exch def /cairo_point_x exch def } def
/Tj { show currentpoint cairo_store_point } bind def
/TJ {
  {
    dup
    type /stringtype eq
    { show } { -0.001 mul 0 cairo_font_matrix dtransform rmoveto } ifelse
  } forall
  currentpoint cairo_store_point
} bind def
/cairo_selectfont { cairo_font_matrix aload pop pop pop 0 0 6 array astore
    cairo_font exch selectfont cairo_point_x cairo_point_y moveto } bind def
/Tf { pop /cairo_font exch def /cairo_font_matrix where
      { pop cairo_selectfont } if } bind def
/Td { matrix translate cairo_font_matrix matrix concatmatrix dup
      /cairo_font_matrix exch def dup 4 get exch 5 get cairo_store_point
      /cairo_font where { pop cairo_selectfont } if } bind def
/Tm { 2 copy 8 2 roll 6 array astore /cairo_font_matrix exch def
      cairo_store_point /cairo_font where { pop cairo_selectfont } if } bind def
/g { setgray } bind def
/rg { setrgbcolor } bind def
/d1 { setcachedevice } bind def
/cairo_data_source {
  CairoDataIndex CairoData length lt
    { CairoData CairoDataIndex get /CairoDataIndex CairoDataIndex 1 add def }
    { () } ifelse
} def
/cairo_flush_ascii85_file { cairo_ascii85_file status { cairo_ascii85_file flushfile } if } def
/cairo_image { image cairo_flush_ascii85_file } def
/cairo_imagemask { imagemask cairo_flush_ascii85_file } def
%%EndProlog
%%BeginSetup
%%EndSetup
%%Page: 1 1
%%BeginPageSetup
%%PageBoundingBox: 76 0 308 384
%%EndPageSetup
q 76 0 232 384 rectclip
1 0 0 -1 0 384 cm q
0 g
86.48 265.395 m 297.52 265.395 l 302.863 265.391 307.191 261.059 307.199
 255.715 c 307.199 252.676 l 307.191 247.332 302.863 243.004 297.52 242.996
 c 220.09 242.996 l 219.324 243.195 218.527 243.195 217.762 242.996 c 166.238
 242.996 l 165.477 243.195 164.676 243.195 163.914 242.996 c 86.48 242.996
 l 81.137 243.004 76.809 247.332 76.801 252.676 c 76.801 255.715 l 76.809
 261.059 81.137 265.391 86.48 265.395 c h
86.48 265.395 m f
169.875 219.445 m 169.875 233.395 l 214.125 233.395 l 214.125 219.445 l
 199.637 223.383 184.363 223.383 169.875 219.445 c h
169.875 219.445 m f
86.48 361.598 m 297.52 361.598 l 302.867 361.598 307.199 365.934 307.199
 371.277 c 307.199 374.32 l 307.199 379.664 302.867 384 297.52 384 c 86.48
 384 l 81.133 384 76.801 379.664 76.801 374.32 c 76.801 371.277 l 76.801
 365.934 81.133 361.598 86.48 361.598 c h
86.48 361.598 m f
111.34 113.102 m 272.66 113.102 l 276.113 113.102 278.918 115.902 278.918
 119.359 c 278.918 121.676 l 278.918 125.133 276.113 127.934 272.66 127.934
 c 111.34 127.934 l 107.887 127.934 105.082 125.133 105.082 121.676 c 105.082
 119.355 l 105.082 115.902 107.887 113.098 111.34 113.098 c h
111.34 113.102 m f
269.121 137.535 m 114.879 137.535 l 117.281 179.457 150.953 212.797 192
 212.797 c 233.047 212.797 266.719 179.457 269.121 137.535 c h
269.121 137.535 m f
281.168 352 m 281.168 274.996 l 102.832 274.996 l 102.832 352 l h
133.555 292.676 m 133.559 289.141 136.422 286.277 139.957 286.273 c 244.043
 286.273 l 247.578 286.277 250.441 289.141 250.445 292.676 c 250.445 335.055
 l 250.441 338.59 247.578 341.453 244.043 341.457 c 139.957 341.457 l 136.422
 341.453 133.559 338.59 133.555 335.055 c h
133.555 292.676 m f
143.156 295.875 97.688 35.98 re f
160.695 80.113 m 187.336 80.113 l 186.918 108.23 l 196.516 108.371 l 196.938
 80.113 l 229.23 80.113 l 233.16 80.098 236.914 78.477 239.617 75.625 c 
253.688 60.812 l 254.227 60.234 254.957 59.875 255.742 59.805 c 272.945 
59.91 l 272.945 77.102 l 272.945 79.754 275.098 81.902 277.746 81.902 c 
280.398 81.902 282.547 79.754 282.547 77.102 c 282.547 59.969 l 298.633 
60.07 l 298.664 60.07 l 301.316 60.078 303.473 57.934 303.48 55.281 c 303.488
 52.633 301.344 50.477 298.695 50.469 c 282.547 50.371 l 282.547 31.938 
l 289.156 30.152 293.746 24.164 293.762 17.324 c 293.762 15.148 l 293.75
 6.789 286.977 0.012 278.613 0 c 277.195 0 l 268.832 0.008 262.055 6.785
 262.047 15.148 c 262.047 17.324 l 262.055 24.047 266.492 29.965 272.945
 31.855 c 272.945 50.312 l 255.508 50.203 l 255.375 50.211 l 252.086 50.375
 248.988 51.805 246.727 54.199 c 232.66 69.012 l 231.773 69.965 230.535 
70.512 229.234 70.516 c 197.086 70.516 l 197.25 59.348 l 205.781 57.004 
211.668 49.223 211.605 40.379 c 211.605 29.578 203.043 20.797 192.512 20.797
 c 181.984 20.797 173.418 29.578 173.418 40.379 c 173.359 49.176 179.184
 56.926 187.652 59.312 c 187.484 70.516 l 160.695 70.516 l 158.047 70.516
 155.898 72.664 155.898 75.312 c 155.898 77.965 158.047 80.113 160.695 80.113
 c h
160.695 80.113 m f
Q Q
showpage
%%Trailer
end
%%EOF
