%!PS-Adobe-3.0 EPSF-3.0
%%Creator: cairo 1.16.0 (https://cairographics.org)
%%CreationDate: Mon Sep 23 08:21:28 2019
%%Pages: 1
%%DocumentData: Clean7Bit
%%LanguageLevel: 2
%%BoundingBox: 0 65 384 319
%%EndComments
%%BeginProlog
50 dict begin
/q { gsave } bind def
/Q { grestore } bind def
/cm { 6 array astore concat } bind def
/w { setlinewidth } bind def
/J { setlinecap } bind def
/j { setlinejoin } bind def
/M { setmiterlimit } bind def
/d { setdash } bind def
/m { moveto } bind def
/l { lineto } bind def
/c { curveto } bind def
/h { closepath } bind def
/re { exch dup neg 3 1 roll 5 3 roll moveto 0 rlineto
      0 exch rlineto 0 rlineto closepath } bind def
/S { stroke } bind def
/f { fill } bind def
/f* { eofill } bind def
/n { newpath } bind def
/W { clip } bind def
/W* { eoclip } bind def
/BT { } bind def
/ET { } bind def
/BDC { mark 3 1 roll /BDC pdfmark } bind def
/EMC { mark /EMC pdfmark } bind def
/cairo_store_point { /cairo_point_y exch def /cairo_point_x exch def } def
/Tj { show currentpoint cairo_store_point } bind def
/TJ {
  {
    dup
    type /stringtype eq
    { show } { -0.001 mul 0 cairo_font_matrix dtransform rmoveto } ifelse
  } forall
  currentpoint cairo_store_point
} bind def
/cairo_selectfont { cairo_font_matrix aload pop pop pop 0 0 6 array astore
    cairo_font exch selectfont cairo_point_x cairo_point_y moveto } bind def
/Tf { pop /cairo_font exch def /cairo_font_matrix where
      { pop cairo_selectfont } if } bind def
/Td { matrix translate cairo_font_matrix matrix concatmatrix dup
      /cairo_font_matrix exch def dup 4 get exch 5 get cairo_store_point
      /cairo_font where { pop cairo_selectfont } if } bind def
/Tm { 2 copy 8 2 roll 6 array astore /cairo_font_matrix exch def
      cairo_store_point /cairo_font where { pop cairo_selectfont } if } bind def
/g { setgray } bind def
/rg { setrgbcolor } bind def
/d1 { setcachedevice } bind def
/cairo_data_source {
  CairoDataIndex CairoData length lt
    { CairoData CairoDataIndex get /CairoDataIndex CairoDataIndex 1 add def }
    { () } ifelse
} def
/cairo_flush_ascii85_file { cairo_ascii85_file status { cairo_ascii85_file flushfile } if } def
/cairo_image { image cairo_flush_ascii85_file } def
/cairo_imagemask { imagemask cairo_flush_ascii85_file } def
%%EndProlog
%%BeginSetup
%%EndSetup
%%Page: 1 1
%%BeginPageSetup
%%PageBoundingBox: 0 65 384 319
%%EndPageSetup
q 0 65 384 254 rectclip
1 0 0 -1 0 384 cm q
0 g
301.145 168.781 m 309.098 164.539 317.988 162.363 327 162.453 c 340.676
 162.75 352.859 166.75 361.305 173.715 c 370.098 180.965 374.609 191.168
 374.344 203.23 c 374.004 218.863 359.199 232.156 346.84 240.555 c 332.988
 249.969 313.777 258.859 295.453 264.344 c 298.219 273.586 l 329.711 264.168
 383.215 238.793 383.988 203.449 c 384.316 188.328 378.598 175.477 367.441
 166.281 c 357.328 157.941 343.039 153.16 327.207 152.816 c 316.504 152.668
 305.941 155.254 296.516 160.324 c h
301.145 168.781 m f
29.555 233.598 m 36.531 251.176 55.027 261.305 73.598 257.715 c 70.324 
248.523 68.141 238.98 67.102 229.277 c 54.328 227.074 42.949 219.898 35.461
 209.316 c 28.512 199.496 17.457 193.395 5.445 192.742 c 0 205.379 l 13.492
 210.035 24.281 220.336 29.555 233.598 c h
29.555 233.598 m f
193.781 78.129 m 201.754 78.301 209.703 79.02 217.574 80.285 c 216.789 
76.305 214.891 72.629 212.094 69.691 c 208.918 66.531 204.551 64.863 200.078
 65.102 c 192.168 65.289 185.152 70.926 182.785 78.242 c 186.422 78.098 
190.09 78.051 193.781 78.129 c h
193.781 78.129 m f
103.473 128.289 m 280.168 132.145 l 280.184 132.145 l 281.824 132.184 l
 279.902 121.289 270.691 110.871 255.668 102.68 c 238.961 93.574 216.91 
88.277 193.57 87.77 c 170.23 87.246 147.973 91.586 130.887 99.953 c 115.527
 107.48 105.875 117.484 103.473 128.289 c h
103.473 128.289 m f
151.832 317.227 m 229.422 318.922 l 230.477 318.785 234.082 318.109 235.02
 317.875 c 277.551 301.777 304.621 263.18 305.629 217.129 c 306.211 189.383
 296.258 162.445 277.773 141.742 c 107.043 138.012 l 87.699 157.902 76.602
 184.375 75.984 212.113 c 75.898 216.082 76.012 219.992 76.293 223.848 c
 76.426 224.371 76.469 224.914 76.426 225.449 c 76.426 225.465 76.418 225.484
 76.418 225.5 c 79.938 266.121 103.59 300.055 140.352 315.98 c 142.375 316.285
 150.562 317.133 151.832 317.227 c h
262.953 252.895 m 263.184 252.543 285.781 217.531 270.062 192.586 c 268.641
 190.332 269.316 187.355 271.57 185.934 c 273.824 184.516 276.801 185.188
 278.223 187.441 c 286.195 200.094 287.422 216.43 281.77 234.684 c 279.203
 242.949 275.586 250.852 271.008 258.195 c 269.543 260.422 266.555 261.035
 264.328 259.57 c 262.105 258.105 261.488 255.117 262.953 252.891 c h
262.953 252.895 m f
Q Q
showpage
%%Trailer
end
%%EOF
