%!PS-Adobe-3.0 EPSF-3.0
%%Creator: cairo 1.16.0 (https://cairographics.org)
%%CreationDate: Mon Sep 23 08:21:28 2019
%%Pages: 1
%%DocumentData: Clean7Bit
%%LanguageLevel: 2
%%BoundingBox: 45 0 339 384
%%EndComments
%%BeginProlog
50 dict begin
/q { gsave } bind def
/Q { grestore } bind def
/cm { 6 array astore concat } bind def
/w { setlinewidth } bind def
/J { setlinecap } bind def
/j { setlinejoin } bind def
/M { setmiterlimit } bind def
/d { setdash } bind def
/m { moveto } bind def
/l { lineto } bind def
/c { curveto } bind def
/h { closepath } bind def
/re { exch dup neg 3 1 roll 5 3 roll moveto 0 rlineto
      0 exch rlineto 0 rlineto closepath } bind def
/S { stroke } bind def
/f { fill } bind def
/f* { eofill } bind def
/n { newpath } bind def
/W { clip } bind def
/W* { eoclip } bind def
/BT { } bind def
/ET { } bind def
/BDC { mark 3 1 roll /BDC pdfmark } bind def
/EMC { mark /EMC pdfmark } bind def
/cairo_store_point { /cairo_point_y exch def /cairo_point_x exch def } def
/Tj { show currentpoint cairo_store_point } bind def
/TJ {
  {
    dup
    type /stringtype eq
    { show } { -0.001 mul 0 cairo_font_matrix dtransform rmoveto } ifelse
  } forall
  currentpoint cairo_store_point
} bind def
/cairo_selectfont { cairo_font_matrix aload pop pop pop 0 0 6 array astore
    cairo_font exch selectfont cairo_point_x cairo_point_y moveto } bind def
/Tf { pop /cairo_font exch def /cairo_font_matrix where
      { pop cairo_selectfont } if } bind def
/Td { matrix translate cairo_font_matrix matrix concatmatrix dup
      /cairo_font_matrix exch def dup 4 get exch 5 get cairo_store_point
      /cairo_font where { pop cairo_selectfont } if } bind def
/Tm { 2 copy 8 2 roll 6 array astore /cairo_font_matrix exch def
      cairo_store_point /cairo_font where { pop cairo_selectfont } if } bind def
/g { setgray } bind def
/rg { setrgbcolor } bind def
/d1 { setcachedevice } bind def
/cairo_data_source {
  CairoDataIndex CairoData length lt
    { CairoData CairoDataIndex get /CairoDataIndex CairoDataIndex 1 add def }
    { () } ifelse
} def
/cairo_flush_ascii85_file { cairo_ascii85_file status { cairo_ascii85_file flushfile } if } def
/cairo_image { image cairo_flush_ascii85_file } def
/cairo_imagemask { imagemask cairo_flush_ascii85_file } def
%%EndProlog
%%BeginSetup
%%EndSetup
%%Page: 1 1
%%BeginPageSetup
%%PageBoundingBox: 45 0 339 384
%%EndPageSetup
q 45 0 294 384 rectclip
1 0 0 -1 0 384 cm q
0 g
267.91 28.875 m 120.766 28.875 l 148.09 102.328 l 236.098 102.328 l h
267.91 28.875 m f
143.023 219.516 97.953 44.305 re f
170.363 273.668 43.27 19.652 re f
296.793 220.812 m 296.746 161.117 l 273.289 161.117 l 273.289 175.848 l
 273.289 178.566 271.086 180.77 268.367 180.77 c 231.77 180.77 l 231.77 
209.672 l 245.898 209.672 l 248.617 209.672 250.82 211.875 250.82 214.594
 c 250.82 220.812 l h
296.793 220.812 m f
250.82 230.66 80.75 18.527 re f
120.559 145.301 142.883 25.625 re f
296.746 259.035 m 250.82 259.035 l 250.82 268.746 l 250.82 271.465 248.617
 273.668 245.898 273.668 c 223.48 273.668 l 223.48 298.246 l 223.48 300.965
 221.277 303.168 218.559 303.168 c 165.441 303.168 l 162.723 303.168 160.52
 300.965 160.52 298.246 c 160.52 273.668 l 138.102 273.668 l 135.383 273.668
 133.176 271.465 133.176 268.746 c 133.176 214.59 l 133.176 211.871 135.383
 209.668 138.102 209.668 c 152.23 209.668 l 152.23 180.77 l 115.637 180.77
 l 112.918 180.77 110.715 178.566 110.715 175.848 c 110.715 161.117 l 87.254
 161.117 l 87.254 339.062 l 296.746 339.062 l h
296.746 259.035 m f
45.07 348.91 293.859 35.09 re f
149.594 112.176 84.812 23.277 re f
162.078 180.77 59.844 28.902 re f
108.25 0 m 275.746 0 l 280.812 0 284.922 4.105 284.922 9.172 c 284.922 
9.855 l 284.922 14.922 280.812 19.027 275.75 19.027 c 108.25 19.027 l 103.184
 19.027 99.078 14.922 99.078 9.855 c 99.078 9.172 l 99.078 4.105 103.184
 0 108.25 0 c h
108.25 0 m f
Q Q
showpage
%%Trailer
end
%%EOF
