%!PS-Adobe-3.0 EPSF-3.0
%%Creator: cairo 1.16.0 (https://cairographics.org)
%%CreationDate: Mon Sep 23 08:21:28 2019
%%Pages: 1
%%DocumentData: Clean7Bit
%%LanguageLevel: 2
%%BoundingBox: 47 0 337 384
%%EndComments
%%BeginProlog
50 dict begin
/q { gsave } bind def
/Q { grestore } bind def
/cm { 6 array astore concat } bind def
/w { setlinewidth } bind def
/J { setlinecap } bind def
/j { setlinejoin } bind def
/M { setmiterlimit } bind def
/d { setdash } bind def
/m { moveto } bind def
/l { lineto } bind def
/c { curveto } bind def
/h { closepath } bind def
/re { exch dup neg 3 1 roll 5 3 roll moveto 0 rlineto
      0 exch rlineto 0 rlineto closepath } bind def
/S { stroke } bind def
/f { fill } bind def
/f* { eofill } bind def
/n { newpath } bind def
/W { clip } bind def
/W* { eoclip } bind def
/BT { } bind def
/ET { } bind def
/BDC { mark 3 1 roll /BDC pdfmark } bind def
/EMC { mark /EMC pdfmark } bind def
/cairo_store_point { /cairo_point_y exch def /cairo_point_x exch def } def
/Tj { show currentpoint cairo_store_point } bind def
/TJ {
  {
    dup
    type /stringtype eq
    { show } { -0.001 mul 0 cairo_font_matrix dtransform rmoveto } ifelse
  } forall
  currentpoint cairo_store_point
} bind def
/cairo_selectfont { cairo_font_matrix aload pop pop pop 0 0 6 array astore
    cairo_font exch selectfont cairo_point_x cairo_point_y moveto } bind def
/Tf { pop /cairo_font exch def /cairo_font_matrix where
      { pop cairo_selectfont } if } bind def
/Td { matrix translate cairo_font_matrix matrix concatmatrix dup
      /cairo_font_matrix exch def dup 4 get exch 5 get cairo_store_point
      /cairo_font where { pop cairo_selectfont } if } bind def
/Tm { 2 copy 8 2 roll 6 array astore /cairo_font_matrix exch def
      cairo_store_point /cairo_font where { pop cairo_selectfont } if } bind def
/g { setgray } bind def
/rg { setrgbcolor } bind def
/d1 { setcachedevice } bind def
/cairo_data_source {
  CairoDataIndex CairoData length lt
    { CairoData CairoDataIndex get /CairoDataIndex CairoDataIndex 1 add def }
    { () } ifelse
} def
/cairo_flush_ascii85_file { cairo_ascii85_file status { cairo_ascii85_file flushfile } if } def
/cairo_image { image cairo_flush_ascii85_file } def
/cairo_imagemask { imagemask cairo_flush_ascii85_file } def
%%EndProlog
%%BeginSetup
%%EndSetup
%%Page: 1 1
%%BeginPageSetup
%%PageBoundingBox: 47 0 337 384
%%EndPageSetup
q 47 0 290 384 rectclip
1 0 0 -1 0 384 cm q
0 g
248.559 109.07 20.836 24.426 re f
289.992 51.797 m 227.914 51.797 l 227.93 99.234 l 243.559 99.23 l 243.699
 99.23 l 290.008 99.211 l h
289.992 51.797 m f
320.086 288.523 m 320.086 278.691 312.594 270.434 302.562 268.266 c 303.168
 279.379 l 303.664 288.672 302.691 297.984 300.289 306.977 c 310.637 304.676
 320.086 297.531 320.086 288.523 c h
320.086 288.523 m f
294.91 41.938 m 295 41.938 295.09 41.945 295.18 41.953 c 336.773 41.953
 l 336.188 32.168 332.914 22.176 327.762 14.711 c 323.215 8.113 314.973 
0.215 301.551 0 c 178.98 0.375 l 178.98 41.953 l 294.645 41.953 l 294.727
 41.945 294.82 41.938 294.91 41.938 c h
294.91 41.938 m f
221.883 283.582 m 221.914 294.957 224.551 306.172 229.598 316.367 c 229.68
 316.547 l 241.074 342.066 l 276.5 342.066 l 287.301 314.613 l 291.902 303.648
 293.965 291.789 293.336 279.914 c 292.215 259.449 l 223.02 259.449 l h
221.883 283.582 m f
60.273 384 m 169.137 384 l 169.137 0.395 l 60.273 0.395 l 53.082 0.395 
47.246 6.219 47.227 13.41 c 47.227 370.984 l 47.246 378.176 53.082 384 60.273
 384 c h
105.848 26.344 m 122.93 26.367 136.762 40.238 136.734 57.32 c 136.711 74.406
 122.84 88.234 105.758 88.211 c 88.691 88.188 74.867 74.344 74.867 57.277
 c 74.898 40.191 88.758 26.352 105.848 26.344 c h
105.848 26.344 m f
105.848 78.359 m 117.492 78.336 126.914 68.875 126.891 57.227 c 126.863
 45.582 117.402 36.16 105.758 36.184 c 94.129 36.211 84.715 45.645 84.715
 57.273 c 84.738 68.926 94.191 78.359 105.848 78.359 c h
105.848 78.359 m f
334.934 351.918 m 178.98 351.918 l 178.98 384 l 299.785 384 l 318.031 383.996
 333.266 370.09 334.934 351.918 c h
334.934 351.918 m f
Q Q
showpage
%%Trailer
end
%%EOF
