%!PS-Adobe-3.0 EPSF-3.0
%%Creator: cairo 1.16.0 (https://cairographics.org)
%%CreationDate: Mon Sep 23 08:21:28 2019
%%Pages: 1
%%DocumentData: Clean7Bit
%%LanguageLevel: 2
%%BoundingBox: 26 0 358 384
%%EndComments
%%BeginProlog
50 dict begin
/q { gsave } bind def
/Q { grestore } bind def
/cm { 6 array astore concat } bind def
/w { setlinewidth } bind def
/J { setlinecap } bind def
/j { setlinejoin } bind def
/M { setmiterlimit } bind def
/d { setdash } bind def
/m { moveto } bind def
/l { lineto } bind def
/c { curveto } bind def
/h { closepath } bind def
/re { exch dup neg 3 1 roll 5 3 roll moveto 0 rlineto
      0 exch rlineto 0 rlineto closepath } bind def
/S { stroke } bind def
/f { fill } bind def
/f* { eofill } bind def
/n { newpath } bind def
/W { clip } bind def
/W* { eoclip } bind def
/BT { } bind def
/ET { } bind def
/BDC { mark 3 1 roll /BDC pdfmark } bind def
/EMC { mark /EMC pdfmark } bind def
/cairo_store_point { /cairo_point_y exch def /cairo_point_x exch def } def
/Tj { show currentpoint cairo_store_point } bind def
/TJ {
  {
    dup
    type /stringtype eq
    { show } { -0.001 mul 0 cairo_font_matrix dtransform rmoveto } ifelse
  } forall
  currentpoint cairo_store_point
} bind def
/cairo_selectfont { cairo_font_matrix aload pop pop pop 0 0 6 array astore
    cairo_font exch selectfont cairo_point_x cairo_point_y moveto } bind def
/Tf { pop /cairo_font exch def /cairo_font_matrix where
      { pop cairo_selectfont } if } bind def
/Td { matrix translate cairo_font_matrix matrix concatmatrix dup
      /cairo_font_matrix exch def dup 4 get exch 5 get cairo_store_point
      /cairo_font where { pop cairo_selectfont } if } bind def
/Tm { 2 copy 8 2 roll 6 array astore /cairo_font_matrix exch def
      cairo_store_point /cairo_font where { pop cairo_selectfont } if } bind def
/g { setgray } bind def
/rg { setrgbcolor } bind def
/d1 { setcachedevice } bind def
/cairo_data_source {
  CairoDataIndex CairoData length lt
    { CairoData CairoDataIndex get /CairoDataIndex CairoDataIndex 1 add def }
    { () } ifelse
} def
/cairo_flush_ascii85_file { cairo_ascii85_file status { cairo_ascii85_file flushfile } if } def
/cairo_image { image cairo_flush_ascii85_file } def
/cairo_imagemask { imagemask cairo_flush_ascii85_file } def
%%EndProlog
%%BeginSetup
%%EndSetup
%%Page: 1 1
%%BeginPageSetup
%%PageBoundingBox: 26 0 358 384
%%EndPageSetup
q 26 0 332 384 rectclip
1 0 0 -1 0 384 cm q
0 g
351.262 163.695 m 344.938 163.695 l 344.938 144.773 l 344.938 128.512 331.328
 115.281 314.605 115.281 c 292.102 115.281 l 292.102 125.125 l 314.602 125.125
 l 325.898 125.125 335.086 133.941 335.086 144.773 c 335.086 163.695 l 327.359
 163.695 l 323.734 163.699 320.797 166.633 320.793 170.258 c 320.793 248.684
 l 320.797 252.305 323.734 255.242 327.359 255.246 c 351.262 255.246 l 354.887
 255.242 357.82 252.305 357.824 248.684 c 357.824 170.258 l 357.82 166.633
 354.887 163.699 351.262 163.695 c h
351.262 163.695 m f
256.949 77.645 m 164.875 26.594 l 162.246 25.137 159.027 25.215 156.477
 26.809 c 72.805 77.645 l h
256.949 77.645 m f
271.691 111.156 m 268.262 132.281 l 286.047 132.281 l 288.18 109.195 l 
272.156 108.355 l h
271.691 111.156 m f
261.977 109.562 m 265.637 87.492 l 63.652 87.492 l 79.133 182.797 l 250.082
 182.797 l h
261.977 109.562 m f
160.066 0.004 m 155.746 -0.109 152.148 3.297 152.02 7.621 c 152.266 12.066
 156.066 15.469 160.512 15.223 c 164.613 14.996 167.887 11.723 168.113 7.621
 c 167.988 3.301 164.391 -0.109 160.066 0.004 c h
160.066 0.004 m f
248.48 192.641 m 80.734 192.641 l 85.172 219.973 l 244.043 219.973 l h
248.48 192.641 m f
78.438 264.785 m 35.168 384 l 294.047 384 l 250.777 264.785 l h
78.438 264.785 m f
53.617 87.117 m 26.176 92.754 l 58.215 115.43 l h
53.617 87.117 m f
92.031 229.82 145.152 25.117 re f
Q Q
showpage
%%Trailer
end
%%EOF
