%!PS-Adobe-3.0 EPSF-3.0
%%Creator: cairo 1.16.0 (https://cairographics.org)
%%CreationDate: Mon Sep 23 08:21:29 2019
%%Pages: 1
%%DocumentData: Clean7Bit
%%LanguageLevel: 2
%%BoundingBox: 35 0 349 384
%%EndComments
%%BeginProlog
50 dict begin
/q { gsave } bind def
/Q { grestore } bind def
/cm { 6 array astore concat } bind def
/w { setlinewidth } bind def
/J { setlinecap } bind def
/j { setlinejoin } bind def
/M { setmiterlimit } bind def
/d { setdash } bind def
/m { moveto } bind def
/l { lineto } bind def
/c { curveto } bind def
/h { closepath } bind def
/re { exch dup neg 3 1 roll 5 3 roll moveto 0 rlineto
      0 exch rlineto 0 rlineto closepath } bind def
/S { stroke } bind def
/f { fill } bind def
/f* { eofill } bind def
/n { newpath } bind def
/W { clip } bind def
/W* { eoclip } bind def
/BT { } bind def
/ET { } bind def
/BDC { mark 3 1 roll /BDC pdfmark } bind def
/EMC { mark /EMC pdfmark } bind def
/cairo_store_point { /cairo_point_y exch def /cairo_point_x exch def } def
/Tj { show currentpoint cairo_store_point } bind def
/TJ {
  {
    dup
    type /stringtype eq
    { show } { -0.001 mul 0 cairo_font_matrix dtransform rmoveto } ifelse
  } forall
  currentpoint cairo_store_point
} bind def
/cairo_selectfont { cairo_font_matrix aload pop pop pop 0 0 6 array astore
    cairo_font exch selectfont cairo_point_x cairo_point_y moveto } bind def
/Tf { pop /cairo_font exch def /cairo_font_matrix where
      { pop cairo_selectfont } if } bind def
/Td { matrix translate cairo_font_matrix matrix concatmatrix dup
      /cairo_font_matrix exch def dup 4 get exch 5 get cairo_store_point
      /cairo_font where { pop cairo_selectfont } if } bind def
/Tm { 2 copy 8 2 roll 6 array astore /cairo_font_matrix exch def
      cairo_store_point /cairo_font where { pop cairo_selectfont } if } bind def
/g { setgray } bind def
/rg { setrgbcolor } bind def
/d1 { setcachedevice } bind def
/cairo_data_source {
  CairoDataIndex CairoData length lt
    { CairoData CairoDataIndex get /CairoDataIndex CairoDataIndex 1 add def }
    { () } ifelse
} def
/cairo_flush_ascii85_file { cairo_ascii85_file status { cairo_ascii85_file flushfile } if } def
/cairo_image { image cairo_flush_ascii85_file } def
/cairo_imagemask { imagemask cairo_flush_ascii85_file } def
%%EndProlog
%%BeginSetup
%%EndSetup
%%Page: 1 1
%%BeginPageSetup
%%PageBoundingBox: 35 0 349 384
%%EndPageSetup
q 35 0 314 384 rectclip
1 0 0 -1 0 384 cm q
0 g
46.312 384 m 240.191 384 l 246.375 383.992 251.387 378.984 251.395 372.801
 c 251.395 113.512 l 35.113 113.512 l 35.113 372.801 l 35.121 378.984 40.133
 383.992 46.312 384 c h
60.387 144.121 m 60.387 141.469 62.535 139.32 65.188 139.32 c 67.84 139.32
 69.988 141.469 69.988 144.121 c 69.988 268.059 l 69.988 270.711 67.84 272.859
 65.188 272.859 c 62.535 272.859 60.387 270.711 60.387 268.059 c h
60.387 298.582 m 60.387 295.93 62.535 293.781 65.188 293.781 c 67.84 293.781
 69.988 295.93 69.988 298.582 c 69.988 328.754 l 69.988 331.406 67.84 333.555
 65.188 333.555 c 62.535 333.555 60.387 331.406 60.387 328.754 c h
60.387 298.582 m f
76.461 86.254 m 79.109 86.254 81.262 84.102 81.262 81.453 c 81.262 49.98
 l 81.262 47.332 79.109 45.184 76.461 45.184 c 73.809 45.184 71.66 47.332
 71.66 49.98 c 71.66 81.453 l 71.66 84.102 73.809 86.254 76.461 86.254 c
 h
76.461 86.254 m f
125.887 86.254 m 128.535 86.254 130.684 84.102 130.684 81.453 c 130.684
 4.801 l 130.684 2.148 128.535 0 125.887 0 c 123.234 0 121.086 2.148 121.086
 4.801 c 121.086 81.453 l 121.086 84.102 123.234 86.254 125.887 86.254 c
 h
125.887 86.254 m f
166.828 86.254 m 169.48 86.254 171.629 84.102 171.629 81.453 c 171.629 
56.43 l 171.629 53.781 169.48 51.633 166.828 51.633 c 164.176 51.633 162.027
 53.781 162.027 56.43 c 162.027 81.453 l 162.027 84.102 164.176 86.254 166.828
 86.254 c h
166.828 86.254 m f
210.047 86.254 m 212.699 86.254 214.848 84.102 214.848 81.453 c 214.848
 21.176 l 214.848 18.523 212.699 16.375 210.047 16.375 c 207.395 16.375 
205.246 18.523 205.246 21.176 c 205.246 81.453 l 205.246 84.102 207.395 
86.254 210.047 86.254 c h
210.047 86.254 m f
313.473 295.418 m 251.504 350.816 l 257.906 357.973 l 319.871 302.574 l
 355.699 270.531 358.77 215.516 326.727 179.688 c 308.82 159.66 282.664 
149.027 255.863 150.879 c 256.523 160.457 l 299.18 157.504 336.156 189.695
 339.105 232.355 c 340.758 256.203 331.293 279.48 313.473 295.418 c h
313.473 295.418 m f
Q Q
showpage
%%Trailer
end
%%EOF
