%!PS-Adobe-3.0 EPSF-3.0
%%Creator: cairo 1.16.0 (https://cairographics.org)
%%CreationDate: Mon Sep 23 08:21:29 2019
%%Pages: 1
%%DocumentData: Clean7Bit
%%LanguageLevel: 2
%%BoundingBox: 0 19 384 365
%%EndComments
%%BeginProlog
50 dict begin
/q { gsave } bind def
/Q { grestore } bind def
/cm { 6 array astore concat } bind def
/w { setlinewidth } bind def
/J { setlinecap } bind def
/j { setlinejoin } bind def
/M { setmiterlimit } bind def
/d { setdash } bind def
/m { moveto } bind def
/l { lineto } bind def
/c { curveto } bind def
/h { closepath } bind def
/re { exch dup neg 3 1 roll 5 3 roll moveto 0 rlineto
      0 exch rlineto 0 rlineto closepath } bind def
/S { stroke } bind def
/f { fill } bind def
/f* { eofill } bind def
/n { newpath } bind def
/W { clip } bind def
/W* { eoclip } bind def
/BT { } bind def
/ET { } bind def
/BDC { mark 3 1 roll /BDC pdfmark } bind def
/EMC { mark /EMC pdfmark } bind def
/cairo_store_point { /cairo_point_y exch def /cairo_point_x exch def } def
/Tj { show currentpoint cairo_store_point } bind def
/TJ {
  {
    dup
    type /stringtype eq
    { show } { -0.001 mul 0 cairo_font_matrix dtransform rmoveto } ifelse
  } forall
  currentpoint cairo_store_point
} bind def
/cairo_selectfont { cairo_font_matrix aload pop pop pop 0 0 6 array astore
    cairo_font exch selectfont cairo_point_x cairo_point_y moveto } bind def
/Tf { pop /cairo_font exch def /cairo_font_matrix where
      { pop cairo_selectfont } if } bind def
/Td { matrix translate cairo_font_matrix matrix concatmatrix dup
      /cairo_font_matrix exch def dup 4 get exch 5 get cairo_store_point
      /cairo_font where { pop cairo_selectfont } if } bind def
/Tm { 2 copy 8 2 roll 6 array astore /cairo_font_matrix exch def
      cairo_store_point /cairo_font where { pop cairo_selectfont } if } bind def
/g { setgray } bind def
/rg { setrgbcolor } bind def
/d1 { setcachedevice } bind def
/cairo_data_source {
  CairoDataIndex CairoData length lt
    { CairoData CairoDataIndex get /CairoDataIndex CairoDataIndex 1 add def }
    { () } ifelse
} def
/cairo_flush_ascii85_file { cairo_ascii85_file status { cairo_ascii85_file flushfile } if } def
/cairo_image { image cairo_flush_ascii85_file } def
/cairo_imagemask { imagemask cairo_flush_ascii85_file } def
%%EndProlog
%%BeginSetup
%%EndSetup
%%Page: 1 1
%%BeginPageSetup
%%PageBoundingBox: 0 19 384 365
%%EndPageSetup
q 0 19 384 346 rectclip
1 0 0 -1 0 384 cm q
0 g
45.855 49.422 m 48.676 55.246 54.574 58.949 61.043 58.961 c 243.23 58.961
 l 243.23 27.781 l 243.211 22.977 239.301 19.09 234.492 19.102 c 21.406 
19.102 l 45.605 48.898 l h
45.855 49.422 m f
305.922 221.703 m 305.895 197.469 300.031 173.602 288.836 152.109 c 278.133
 131.711 263.031 113.949 244.621 100.105 c 60.766 100.105 l 42.566 113.816
 27.648 131.402 17.086 151.59 c 5.922 172.969 0.062 196.715 0.004 220.832
 c -0.094 235.117 1.648 249.355 5.188 263.195 c 300.781 263.195 l 304.211
 249.633 305.938 235.691 305.922 221.703 c h
98.941 240.555 m 54.918 240.555 l 52.195 240.555 49.992 238.352 49.992 
235.633 c 49.992 232.914 52.195 230.711 54.918 230.711 c 98.941 230.711 
l 101.66 230.711 103.863 232.914 103.863 235.633 c 103.863 238.352 101.66
 240.555 98.941 240.555 c h
98.941 207.926 m 70.508 207.926 l 67.789 207.926 65.586 205.723 65.586 
203.004 c 65.586 200.285 67.789 198.082 70.508 198.082 c 98.941 198.082 
l 101.66 198.082 103.863 200.285 103.863 203.004 c 103.863 205.723 101.66
 207.926 98.941 207.926 c h
98.941 175.297 m 54.918 175.297 l 52.195 175.297 49.992 173.094 49.992 
170.375 c 49.992 167.656 52.195 165.453 54.918 165.453 c 98.941 165.453 
l 101.66 165.453 103.863 167.656 103.863 170.375 c 103.863 173.094 101.66
 175.297 98.941 175.297 c h
98.941 142.672 m 68.855 142.672 l 66.137 142.672 63.934 140.469 63.934 
137.746 c 63.934 135.027 66.137 132.824 68.855 132.824 c 98.941 132.824 
l 101.66 132.824 103.863 135.027 103.863 137.746 c 103.863 140.469 101.66
 142.672 98.941 142.672 c h
98.941 142.672 m f
314.543 68.629 m 311.426 68.688 308.176 68.746 304.789 68.809 c 34.027 
68.809 l 28.105 68.754 23.258 73.516 23.207 79.441 c 23.156 85.363 27.918
 90.207 33.84 90.262 c 33.902 90.262 33.965 90.262 34.027 90.262 c 328.082
 90.262 l 342.215 90.254 353.684 101.688 353.723 115.82 c 353.723 219.121
 l 353.746 225.062 358.574 229.859 364.512 229.848 c 373.211 229.848 l 379.148
 229.859 383.977 225.062 384 219.125 c 384 95.406 l 381.457 67.379 376.266
 67.473 314.543 68.629 c h
314.543 68.629 m f
98.219 364.898 m 208.645 364.898 l 212.617 364.898 216.547 364.051 220.168
 362.414 c 245.895 350.707 267.523 331.328 282.715 306.379 c 289.078 295.902
 294.188 284.715 297.941 273.043 c 8.059 273.043 l 11.84 284.66 16.973 295.789
 23.355 306.203 c 38.75 331.277 60.688 350.73 86.793 362.461 c 90.383 364.078
 94.281 364.906 98.219 364.898 c h
98.219 364.898 m f
Q Q
showpage
%%Trailer
end
%%EOF
