%!PS-Adobe-3.0 EPSF-3.0
%%Creator: cairo 1.16.0 (https://cairographics.org)
%%CreationDate: Mon Sep 23 08:21:29 2019
%%Pages: 1
%%DocumentData: Clean7Bit
%%LanguageLevel: 2
%%BoundingBox: 57 0 327 384
%%EndComments
%%BeginProlog
50 dict begin
/q { gsave } bind def
/Q { grestore } bind def
/cm { 6 array astore concat } bind def
/w { setlinewidth } bind def
/J { setlinecap } bind def
/j { setlinejoin } bind def
/M { setmiterlimit } bind def
/d { setdash } bind def
/m { moveto } bind def
/l { lineto } bind def
/c { curveto } bind def
/h { closepath } bind def
/re { exch dup neg 3 1 roll 5 3 roll moveto 0 rlineto
      0 exch rlineto 0 rlineto closepath } bind def
/S { stroke } bind def
/f { fill } bind def
/f* { eofill } bind def
/n { newpath } bind def
/W { clip } bind def
/W* { eoclip } bind def
/BT { } bind def
/ET { } bind def
/BDC { mark 3 1 roll /BDC pdfmark } bind def
/EMC { mark /EMC pdfmark } bind def
/cairo_store_point { /cairo_point_y exch def /cairo_point_x exch def } def
/Tj { show currentpoint cairo_store_point } bind def
/TJ {
  {
    dup
    type /stringtype eq
    { show } { -0.001 mul 0 cairo_font_matrix dtransform rmoveto } ifelse
  } forall
  currentpoint cairo_store_point
} bind def
/cairo_selectfont { cairo_font_matrix aload pop pop pop 0 0 6 array astore
    cairo_font exch selectfont cairo_point_x cairo_point_y moveto } bind def
/Tf { pop /cairo_font exch def /cairo_font_matrix where
      { pop cairo_selectfont } if } bind def
/Td { matrix translate cairo_font_matrix matrix concatmatrix dup
      /cairo_font_matrix exch def dup 4 get exch 5 get cairo_store_point
      /cairo_font where { pop cairo_selectfont } if } bind def
/Tm { 2 copy 8 2 roll 6 array astore /cairo_font_matrix exch def
      cairo_store_point /cairo_font where { pop cairo_selectfont } if } bind def
/g { setgray } bind def
/rg { setrgbcolor } bind def
/d1 { setcachedevice } bind def
/cairo_data_source {
  CairoDataIndex CairoData length lt
    { CairoData CairoDataIndex get /CairoDataIndex CairoDataIndex 1 add def }
    { () } ifelse
} def
/cairo_flush_ascii85_file { cairo_ascii85_file status { cairo_ascii85_file flushfile } if } def
/cairo_image { image cairo_flush_ascii85_file } def
/cairo_imagemask { imagemask cairo_flush_ascii85_file } def
%%EndProlog
%%BeginSetup
%%EndSetup
%%Page: 1 1
%%BeginPageSetup
%%PageBoundingBox: 57 0 327 384
%%EndPageSetup
q 57 0 270 384 rectclip
1 0 0 -1 0 384 cm q
0 g
212.324 83.57 m 209.227 92.172 l 203.418 108.297 203.621 125.977 209.801
 141.965 c 220.539 169.738 l 249.461 163.551 268.652 123.98 263.773 78.941
 c 260.676 50.34 248.312 24.84 230.703 10.727 c 222.582 4.215 213.828 0.582
 205.059 0 c 211.27 15.684 l 219.879 37.43 220.254 61.57 212.324 83.57 c
 h
212.324 83.57 m f
184.566 159.762 m 192.707 166.285 201.484 169.922 210.27 170.492 c 200.621
 145.52 l 193.586 127.32 193.352 107.191 199.961 88.832 c 203.059 80.234
 l 210.18 60.488 209.844 38.824 202.113 19.309 c 194.766 0.742 l 165.824
 6.906 146.613 46.492 151.496 91.547 c 154.598 120.148 166.957 145.648 184.566
 159.762 c h
184.566 159.762 m f
213.035 293.582 m 209.297 337.258 227.977 375.293 255.508 382.707 c 250.84
 356.32 l 247.426 337.117 251.062 317.328 261.082 300.594 c 265.77 292.773
 l 276.551 274.777 280.379 253.461 276.539 232.836 c 272.891 213.137 l 263.145
 213.246 253.422 217.16 244.559 224.605 c 227.27 239.129 215.484 264.914
 213.035 293.582 c h
213.035 293.582 m f
274.219 297.836 m 269.527 305.656 l 260.73 320.355 257.535 337.738 260.535
 354.605 c 265.738 384 l 275.469 383.883 285.188 379.969 294.039 372.531
 c 311.324 358.012 323.113 332.227 325.562 303.559 c 329.297 259.914 310.648
 221.902 283.148 214.453 c 286.223 231.043 l 290.5 254.027 286.23 277.781
 274.219 297.836 c h
274.219 297.836 m f
122.832 279.613 m 121.91 288.684 l 120.191 305.727 124.684 322.82 134.566
 336.816 c 151.766 361.215 l 160.531 356.973 167.656 349.301 172.512 338.809
 c 181.992 318.32 181.707 289.969 171.746 262.973 c 157.801 225.176 128.742
 199.73 102.336 199.73 c 100.039 199.727 97.75 199.926 95.488 200.324 c 
105.32 214.043 l 118.961 233.031 125.188 256.352 122.832 279.613 c h
122.832 279.613 m f
141.957 364.391 m 126.52 342.488 l 115.27 326.555 110.156 307.094 112.113
 287.688 c 113.035 278.617 l 115.148 257.746 109.559 236.82 97.32 219.785
 c 85.648 203.504 l 76.871 207.742 69.734 215.418 64.875 225.922 c 55.395
 246.414 55.68 274.762 65.641 301.758 c 80.816 342.883 113.887 369.375 141.957
 364.391 c h
141.957 364.391 m f
Q Q
showpage
%%Trailer
end
%%EOF
