%!PS-Adobe-3.0 EPSF-3.0
%%Creator: cairo 1.16.0 (https://cairographics.org)
%%CreationDate: Mon Sep 23 08:21:29 2019
%%Pages: 1
%%DocumentData: Clean7Bit
%%LanguageLevel: 2
%%BoundingBox: 20 0 364 384
%%EndComments
%%BeginProlog
50 dict begin
/q { gsave } bind def
/Q { grestore } bind def
/cm { 6 array astore concat } bind def
/w { setlinewidth } bind def
/J { setlinecap } bind def
/j { setlinejoin } bind def
/M { setmiterlimit } bind def
/d { setdash } bind def
/m { moveto } bind def
/l { lineto } bind def
/c { curveto } bind def
/h { closepath } bind def
/re { exch dup neg 3 1 roll 5 3 roll moveto 0 rlineto
      0 exch rlineto 0 rlineto closepath } bind def
/S { stroke } bind def
/f { fill } bind def
/f* { eofill } bind def
/n { newpath } bind def
/W { clip } bind def
/W* { eoclip } bind def
/BT { } bind def
/ET { } bind def
/BDC { mark 3 1 roll /BDC pdfmark } bind def
/EMC { mark /EMC pdfmark } bind def
/cairo_store_point { /cairo_point_y exch def /cairo_point_x exch def } def
/Tj { show currentpoint cairo_store_point } bind def
/TJ {
  {
    dup
    type /stringtype eq
    { show } { -0.001 mul 0 cairo_font_matrix dtransform rmoveto } ifelse
  } forall
  currentpoint cairo_store_point
} bind def
/cairo_selectfont { cairo_font_matrix aload pop pop pop 0 0 6 array astore
    cairo_font exch selectfont cairo_point_x cairo_point_y moveto } bind def
/Tf { pop /cairo_font exch def /cairo_font_matrix where
      { pop cairo_selectfont } if } bind def
/Td { matrix translate cairo_font_matrix matrix concatmatrix dup
      /cairo_font_matrix exch def dup 4 get exch 5 get cairo_store_point
      /cairo_font where { pop cairo_selectfont } if } bind def
/Tm { 2 copy 8 2 roll 6 array astore /cairo_font_matrix exch def
      cairo_store_point /cairo_font where { pop cairo_selectfont } if } bind def
/g { setgray } bind def
/rg { setrgbcolor } bind def
/d1 { setcachedevice } bind def
/cairo_data_source {
  CairoDataIndex CairoData length lt
    { CairoData CairoDataIndex get /CairoDataIndex CairoDataIndex 1 add def }
    { () } ifelse
} def
/cairo_flush_ascii85_file { cairo_ascii85_file status { cairo_ascii85_file flushfile } if } def
/cairo_image { image cairo_flush_ascii85_file } def
/cairo_imagemask { imagemask cairo_flush_ascii85_file } def
%%EndProlog
%%BeginSetup
%%EndSetup
%%Page: 1 1
%%BeginPageSetup
%%PageBoundingBox: 20 0 364 384
%%EndPageSetup
q 20 0 344 384 rectclip
1 0 0 -1 0 384 cm q
0 g
282.086 100.98 30.805 32.293 re f
215.465 252.234 m 153.09 252.234 l 152.07 273.902 l 152.098 284.238 154.492
 294.434 159.07 303.703 c 159.152 303.879 l 169.449 326.973 l 201.227 326.973
 l 210.992 302.121 l 215.168 292.145 217.043 281.355 216.469 270.559 c h
215.465 252.234 m f
240.895 278.414 m 240.895 269.797 234.469 262.531 225.777 260.41 c 226.301
 270.023 l 226.742 278.336 225.91 286.664 223.832 294.723 c 232.84 292.512
 240.895 286.254 240.895 278.414 c h
240.895 278.414 m f
63.352 58.895 m 70.375 58.746 75.945 52.93 75.797 45.91 c 75.645 38.887
 69.832 33.316 62.809 33.465 c 55.895 33.613 50.363 39.262 50.363 46.176
 c 50.445 53.273 56.258 58.961 63.352 58.895 c h
63.352 58.895 m f
116.266 100.98 133.535 18.535 re f
334.168 327.207 m 334.168 100.98 l 322.738 100.98 l 322.738 136.434 l 322.738
 140.184 319.293 143.121 314.898 143.121 c 302.414 143.121 l 302.414 164.527
 l 302.414 167.246 300.207 169.449 297.488 169.449 c 294.77 169.449 292.566
 167.246 292.566 164.527 c 292.566 143.121 l 280.082 143.121 l 275.684 143.121
 272.242 140.184 272.242 136.434 c 272.242 100.98 l 259.645 100.98 l 259.645
 123.113 l 259.555 126.645 256.625 129.438 253.094 129.359 c 221.391 129.359
 l 221.391 156.191 l 240.207 156.191 l 243.73 156.273 246.527 159.191 246.457
 162.719 c 246.457 193.828 l 246.527 197.355 243.73 200.273 240.207 200.355
 c 125.859 200.355 l 122.336 200.277 119.539 197.355 119.609 193.828 c 119.609
 183.195 l 84.656 183.195 l 81.938 183.195 79.73 180.992 79.73 178.273 c
 79.73 175.555 81.938 173.352 84.656 173.352 c 119.609 173.352 l 119.609
 162.719 l 119.539 159.191 122.336 156.273 125.859 156.191 c 144.672 156.191
 l 144.672 129.359 l 112.973 129.359 l 109.438 129.438 106.508 126.645 106.418
 123.113 c 106.418 100.98 l 49.828 100.98 l 49.828 327.207 l 51.75 327.059
 53.723 326.977 55.758 326.977 c 158.672 326.977 l 150.203 307.977 l 144.969
 297.34 142.238 285.641 142.227 273.785 c 142.23 273.555 l 143.414 248.422
 l 143.234 245.273 145.645 242.578 148.789 242.398 c 148.902 242.391 149.012
 242.387 149.121 242.387 c 219.406 242.387 l 222.559 242.383 225.117 244.938
 225.121 248.09 c 225.121 248.156 225.121 248.227 225.117 248.297 c 225.227
 250.281 l 239.66 252.406 250.742 264.211 250.742 278.414 c 250.742 286.082
 246.703 293.168 239.367 298.359 c 233.73 302.27 227.172 304.652 220.34 
305.273 c 220.258 305.477 220.18 305.68 220.094 305.879 c 211.805 326.977
 l 328.242 326.977 l 330.277 326.973 332.25 327.055 334.168 327.207 c h
334.168 327.207 m f
129.453 166.039 107.156 24.473 re f
363.488 363.508 m 363.488 355.484 360.051 336.82 328.242 336.82 c 55.758
 336.82 l 23.949 336.82 20.512 355.484 20.512 363.508 c 20.512 384 l 363.488
 384 l h
363.488 363.508 m f
154.52 129.359 57.027 26.832 re f
130.66 24.082 109.68 44.191 re f
305.145 47.992 m 306.145 48.02 306.98 47.23 307.008 46.227 c 307.031 45.223
 306.242 44.391 305.238 44.363 c 304.238 44.336 303.402 45.125 303.375 46.129
 c 303.375 46.145 303.375 46.16 303.375 46.176 c 303.363 47.168 304.152 
47.977 305.145 47.992 c h
305.145 47.992 m f
32 91.133 m 352 91.133 l 358.34 91.129 363.48 85.988 363.488 79.648 c 363.488
 11.488 l 363.48 5.145 358.34 0.008 352 0 c 32 0 l 25.66 0.008 20.52 5.145
 20.512 11.488 c 20.512 79.648 l 20.52 85.988 25.66 91.129 32 91.133 c h
335.406 38.145 m 339.84 38.172 343.414 41.789 343.387 46.227 c 343.363 
50.66 339.746 54.234 335.309 54.207 c 330.891 54.184 327.324 50.594 327.324
 46.176 c 327.344 41.73 330.957 38.137 335.406 38.145 c h
305.145 38.145 m 309.578 38.172 313.152 41.789 313.125 46.227 c 313.102
 50.66 309.484 54.234 305.047 54.207 c 300.633 54.184 297.062 50.594 297.062
 46.176 c 297.082 41.73 300.695 38.137 305.145 38.145 c h
274.266 38.145 m 278.703 38.172 282.277 41.789 282.25 46.227 c 282.223 
50.66 278.609 54.234 274.172 54.207 c 269.754 54.184 266.188 50.594 266.188
 46.176 c 266.207 41.73 269.82 38.137 274.266 38.145 c h
120.812 20.801 m 120.816 17.176 123.754 14.238 127.375 14.234 c 243.621
 14.234 l 247.246 14.238 250.184 17.176 250.188 20.801 c 250.188 71.555 
l 250.184 75.18 247.246 78.117 243.621 78.121 c 127.375 78.121 l 123.754
 78.117 120.816 75.18 120.812 71.555 c h
63.352 23.613 m 75.812 23.766 85.793 33.988 85.645 46.449 c 85.492 58.91
 75.27 68.887 62.809 68.738 c 50.453 68.59 40.52 58.531 40.516 46.176 c 
40.605 33.648 50.82 23.555 63.352 23.613 c h
63.352 23.613 m f
274.266 47.992 m 275.27 48.02 276.105 47.23 276.129 46.227 c 276.156 45.223
 275.367 44.391 274.363 44.363 c 273.359 44.336 272.527 45.125 272.5 46.129
 c 272.5 46.145 272.5 46.16 272.5 46.176 c 272.488 47.168 273.277 47.977
 274.266 47.992 c h
274.266 47.992 m f
335.406 47.992 m 336.406 48.02 337.242 47.23 337.27 46.227 c 337.293 45.223
 336.504 44.391 335.5 44.363 c 334.5 44.336 333.664 45.125 333.637 46.129
 c 333.637 46.145 333.637 46.16 333.637 46.176 c 333.625 47.168 334.414 
47.977 335.406 47.992 c h
335.406 47.992 m f
Q Q
showpage
%%Trailer
end
%%EOF
