%!PS-Adobe-3.0 EPSF-3.0
%%Creator: cairo 1.16.0 (https://cairographics.org)
%%CreationDate: Mon Sep 23 08:21:30 2019
%%Pages: 1
%%DocumentData: Clean7Bit
%%LanguageLevel: 2
%%BoundingBox: 49 0 335 384
%%EndComments
%%BeginProlog
50 dict begin
/q { gsave } bind def
/Q { grestore } bind def
/cm { 6 array astore concat } bind def
/w { setlinewidth } bind def
/J { setlinecap } bind def
/j { setlinejoin } bind def
/M { setmiterlimit } bind def
/d { setdash } bind def
/m { moveto } bind def
/l { lineto } bind def
/c { curveto } bind def
/h { closepath } bind def
/re { exch dup neg 3 1 roll 5 3 roll moveto 0 rlineto
      0 exch rlineto 0 rlineto closepath } bind def
/S { stroke } bind def
/f { fill } bind def
/f* { eofill } bind def
/n { newpath } bind def
/W { clip } bind def
/W* { eoclip } bind def
/BT { } bind def
/ET { } bind def
/BDC { mark 3 1 roll /BDC pdfmark } bind def
/EMC { mark /EMC pdfmark } bind def
/cairo_store_point { /cairo_point_y exch def /cairo_point_x exch def } def
/Tj { show currentpoint cairo_store_point } bind def
/TJ {
  {
    dup
    type /stringtype eq
    { show } { -0.001 mul 0 cairo_font_matrix dtransform rmoveto } ifelse
  } forall
  currentpoint cairo_store_point
} bind def
/cairo_selectfont { cairo_font_matrix aload pop pop pop 0 0 6 array astore
    cairo_font exch selectfont cairo_point_x cairo_point_y moveto } bind def
/Tf { pop /cairo_font exch def /cairo_font_matrix where
      { pop cairo_selectfont } if } bind def
/Td { matrix translate cairo_font_matrix matrix concatmatrix dup
      /cairo_font_matrix exch def dup 4 get exch 5 get cairo_store_point
      /cairo_font where { pop cairo_selectfont } if } bind def
/Tm { 2 copy 8 2 roll 6 array astore /cairo_font_matrix exch def
      cairo_store_point /cairo_font where { pop cairo_selectfont } if } bind def
/g { setgray } bind def
/rg { setrgbcolor } bind def
/d1 { setcachedevice } bind def
/cairo_data_source {
  CairoDataIndex CairoData length lt
    { CairoData CairoDataIndex get /CairoDataIndex CairoDataIndex 1 add def }
    { () } ifelse
} def
/cairo_flush_ascii85_file { cairo_ascii85_file status { cairo_ascii85_file flushfile } if } def
/cairo_image { image cairo_flush_ascii85_file } def
/cairo_imagemask { imagemask cairo_flush_ascii85_file } def
%%EndProlog
%%BeginSetup
%%EndSetup
%%Page: 1 1
%%BeginPageSetup
%%PageBoundingBox: 49 0 335 384
%%EndPageSetup
q 49 0 286 384 rectclip
1 0 0 -1 0 384 cm q
0 g
285.039 249.445 m 285.039 252.137 287.219 254.316 289.91 254.316 c 300.027
 254.316 314.156 257.527 320.703 266.574 c 324.891 272.371 325.465 280 322.406
 289.254 c 315.547 310.02 300.648 323.141 289.363 330.488 c 274.113 340.422
 259.379 343.949 251.395 343.953 c 248.703 343.953 246.523 346.133 246.523
 348.824 c 246.523 351.512 248.703 353.695 251.395 353.695 c 263.852 353.688
 280.438 347.926 294.676 338.652 c 307.27 330.453 323.906 315.762 331.652
 292.312 c 334.465 283.793 336.219 271.422 328.59 260.867 c 319.902 248.855
 302.91 244.57 289.902 244.57 c 287.215 244.574 285.039 246.758 285.039 
249.445 c h
285.039 249.445 m f
78.883 175.867 m 103.398 182.445 142.773 176.91 184.207 161.078 c 224.359
 145.734 249.199 127.566 252.184 118.258 c 254.391 111.391 253.41 105.559
 249.195 100.43 c 244.82 95.105 237.695 93.855 225.363 96.262 c 202.828 
100.652 187.801 98.742 179.43 90.418 c 163.543 74.629 159.742 51.035 157.469
 36.938 c 157.168 35.078 156.828 32.977 156.496 31.246 c 150.488 34.145 
137.77 42.562 125.449 55.168 c 112.238 68.684 95.938 90.473 93.301 117.527
 c 93.203 120.477 93.473 123.426 94.105 126.309 c 94.32 127.285 94.988 128.102
 95.902 128.508 c 96.465 128.441 97.039 128.379 97.617 128.316 c 166.316
 121.242 177.566 112.215 178.824 110.965 c 179.996 108.543 182.91 107.535
 185.332 108.707 c 187.32 109.672 188.41 111.852 187.988 114.02 c 186.652
 120.902 170.062 130.648 98.613 138.008 c 98.359 138.035 98.105 138.062 
97.855 138.09 c 97.57 138.172 97.277 138.227 96.984 138.258 c 96.902 138.27
 l 96.453 138.352 95.996 138.387 95.543 138.367 c 94.852 138.457 94.168 
138.547 93.5 138.641 c 91.227 138.941 89.082 139.23 87.102 139.344 c 75.184
 140.016 66.789 150.324 65.844 159.484 c 65.355 164.168 66.41 172.523 78.883
 175.867 c h
78.883 175.867 m f
62.746 224.266 m 167.797 224.266 l 196.816 219.02 221.652 209.102 241.613
 194.781 c 258.41 182.734 268.152 170.133 273.367 161.688 c 274.844 159.449
 276.012 157.023 276.84 154.473 c 277.43 152.402 277.746 150.266 277.785
 148.113 c 278.25 134.773 272.332 127.199 259.723 125.035 c 250.781 140.586
 218.113 158.551 187.68 170.18 c 167.953 177.719 147.918 183.215 129.754
 186.066 c 120.742 187.539 111.629 188.309 102.5 188.371 c 93.688 188.48
 84.902 187.441 76.359 185.277 c 73.539 184.527 70.832 183.41 68.301 181.953
 c 64.711 184.191 58.758 188.25 54.324 193.055 c 51.969 195.602 48.516 204.781
 50.578 212.527 c 52.055 218.082 56.152 222.023 62.746 224.266 c h
62.746 224.266 m f
204.742 88.789 m 204.742 88.754 l 221.785 88.754 235.652 75.191 235.652
 58.52 c 235.746 51.445 232.949 44.637 227.914 39.668 c 225.941 37.727 223.699
 36.074 221.258 34.77 c 221.258 34.555 221.242 34.336 221.215 34.121 c 219.75
 23.516 224.129 17.922 240.746 9.184 c 243.125 7.93 244.039 4.984 242.789
 2.605 c 241.535 0.223 238.59 -0.691 236.207 0.562 c 220.258 8.953 210.859
 16.922 211.23 31.371 c 209.379 31.062 207.504 30.902 205.629 30.902 c 205.438
 30.902 l 190.203 30.98 173.816 41.086 173.703 63.039 c 176.508 70.465 180.477
 77.723 186.297 83.512 c 189.004 86.203 194.324 88.801 204.742 88.789 c 
h
204.742 88.789 m f
132.465 308.344 m 135.867 312.02 l 168.473 342.582 l 205.359 305.363 l 
207.09 303.277 l 210.254 299.512 211.98 294.75 211.973 289.836 c 211.969
 283.371 209.004 277.266 203.93 273.262 c 194.871 266.035 178.949 268.086
 171.16 277.484 c 168.059 281.227 l 164.309 278.133 l 163.93 277.82 163.539
 277.496 163.137 277.16 c 158.492 273.273 152.711 268.438 144.621 268.438
 c 138.176 268.414 132.043 271.207 127.832 276.09 c 119.801 285.461 121.449
 297.18 132.359 308.234 c h
132.465 308.344 m f
247.297 202.695 m 234.48 211.77 220.469 219.027 205.66 224.266 c 287.738
 224.266 l 290.273 223.684 293.078 221.406 295.48 217.926 c 301.012 209.914
 303.297 197.844 301.297 187.18 c 299.367 176.902 289.691 168.012 283.648
 163.344 c 283.078 164.43 282.426 165.566 281.66 166.805 c 275.977 176.012
 265.402 189.707 247.297 202.695 c h
247.297 202.695 m f
168.5 384 m 197.254 384 225.41 370.348 247.77 345.562 c 248.695 344.539
 l 271.473 318.797 285.039 284.203 285.039 251.719 c 285.039 250.996 285.027
 250.277 285.012 249.555 c 284.969 247.559 284.598 238.938 284.191 234.004
 c 52.809 234.004 l 52.402 238.941 52.027 247.559 51.984 249.543 c 51.969
 250.277 51.961 250.996 51.961 251.719 c 51.961 283.5 64.5 316.516 86.363
 342.293 c 109.176 369.188 138.344 384 168.5 384 c h
120.434 269.746 m 126.496 262.707 135.332 258.668 144.621 258.695 c 154.637
 258.695 161.891 263.602 167.055 267.758 c 178.922 257.234 197.875 255.969
 210 265.648 c 223.344 276.176 225.621 295.527 215.094 308.867 c 214.926
 309.078 214.758 309.285 214.586 309.492 c 212.43 312.066 l 174.277 350.559
 l 171.168 353.652 166.176 353.746 162.953 350.766 c 128.828 318.766 l 125.363
 315.02 l 110.949 300.367 109.059 283.027 120.434 269.746 c h
120.434 269.746 m f
Q Q
showpage
%%Trailer
end
%%EOF
