%!PS-Adobe-3.0 EPSF-3.0
%%Creator: cairo 1.16.0 (https://cairographics.org)
%%CreationDate: Mon Sep 23 08:21:30 2019
%%Pages: 1
%%DocumentData: Clean7Bit
%%LanguageLevel: 2
%%BoundingBox: 0 66 384 318
%%EndComments
%%BeginProlog
50 dict begin
/q { gsave } bind def
/Q { grestore } bind def
/cm { 6 array astore concat } bind def
/w { setlinewidth } bind def
/J { setlinecap } bind def
/j { setlinejoin } bind def
/M { setmiterlimit } bind def
/d { setdash } bind def
/m { moveto } bind def
/l { lineto } bind def
/c { curveto } bind def
/h { closepath } bind def
/re { exch dup neg 3 1 roll 5 3 roll moveto 0 rlineto
      0 exch rlineto 0 rlineto closepath } bind def
/S { stroke } bind def
/f { fill } bind def
/f* { eofill } bind def
/n { newpath } bind def
/W { clip } bind def
/W* { eoclip } bind def
/BT { } bind def
/ET { } bind def
/BDC { mark 3 1 roll /BDC pdfmark } bind def
/EMC { mark /EMC pdfmark } bind def
/cairo_store_point { /cairo_point_y exch def /cairo_point_x exch def } def
/Tj { show currentpoint cairo_store_point } bind def
/TJ {
  {
    dup
    type /stringtype eq
    { show } { -0.001 mul 0 cairo_font_matrix dtransform rmoveto } ifelse
  } forall
  currentpoint cairo_store_point
} bind def
/cairo_selectfont { cairo_font_matrix aload pop pop pop 0 0 6 array astore
    cairo_font exch selectfont cairo_point_x cairo_point_y moveto } bind def
/Tf { pop /cairo_font exch def /cairo_font_matrix where
      { pop cairo_selectfont } if } bind def
/Td { matrix translate cairo_font_matrix matrix concatmatrix dup
      /cairo_font_matrix exch def dup 4 get exch 5 get cairo_store_point
      /cairo_font where { pop cairo_selectfont } if } bind def
/Tm { 2 copy 8 2 roll 6 array astore /cairo_font_matrix exch def
      cairo_store_point /cairo_font where { pop cairo_selectfont } if } bind def
/g { setgray } bind def
/rg { setrgbcolor } bind def
/d1 { setcachedevice } bind def
/cairo_data_source {
  CairoDataIndex CairoData length lt
    { CairoData CairoDataIndex get /CairoDataIndex CairoDataIndex 1 add def }
    { () } ifelse
} def
/cairo_flush_ascii85_file { cairo_ascii85_file status { cairo_ascii85_file flushfile } if } def
/cairo_image { image cairo_flush_ascii85_file } def
/cairo_imagemask { imagemask cairo_flush_ascii85_file } def
%%EndProlog
%%BeginSetup
%%EndSetup
%%Page: 1 1
%%BeginPageSetup
%%PageBoundingBox: 0 66 384 318
%%EndPageSetup
q 0 66 384 252 rectclip
1 0 0 -1 0 384 cm q
0 g
298.547 80.555 m 299.535 90.512 l 336.77 86.816 369.949 114 373.645 151.234
 c 376.605 181.055 359.625 209.277 331.891 220.625 c 263.816 248.488 l 267.609
 257.75 l 335.68 229.887 l 375.422 213.621 394.453 168.219 378.184 128.477
 c 365.156 96.648 332.77 77.16 298.547 80.555 c h
298.547 80.555 m f
191.562 128.309 m 297.598 128.34 l 297.926 122.59 298.09 116.801 298.098
 110.973 c 298.102 95.938 296.98 80.926 294.75 66.059 c 190.664 66.059 l
 h
191.562 128.309 m f
78.086 163.484 m 87.203 163.281 94.43 155.723 94.227 146.605 c 92.879 101.242
 l 92.465 86.102 104.398 73.492 119.539 73.074 c 134.68 72.66 147.289 84.598
 147.703 99.734 c 147.707 99.816 147.707 99.898 147.711 99.98 c 149.941 
226.691 l 150.234 235.809 157.859 242.965 166.977 242.676 c 175.98 242.387
 183.094 234.941 182.965 225.934 c 180.656 66.062 l 59.594 66.062 l 61.211
 147.352 l 61.441 156.453 68.98 163.664 78.086 163.484 c h
78.086 163.484 m f
50.82 128.316 m 49.586 66.066 l 3.352 66.066 l 1.285 79.797 0.172 93.656
 0.02 107.543 c -0.059 114.562 0.094 121.516 0.48 128.406 c h
50.82 128.316 m f
31.203 241.668 m 51.363 278.711 79.973 305.473 111.762 317.023 c 113.555
 317.648 115.438 317.961 117.336 317.941 c 180.461 317.941 l 182.367 317.961
 184.266 317.648 186.062 317.012 c 207.398 309.199 227.652 294.336 244.637
 274.027 c 273.641 239.363 292.07 190.977 296.848 138.352 c 191.707 138.32
 l 192.977 225.754 l 193.281 240.383 181.68 252.5 167.051 252.82 c 166.848
 252.828 166.645 252.828 166.441 252.828 c 152.031 252.82 140.262 241.305
 139.941 226.895 c 138.383 138.316 l 103.996 138.316 l 104.234 146.344 l
 104.574 160.988 92.973 173.133 78.328 173.473 c 63.684 173.809 51.539 162.207
 51.203 147.566 c 51.02 138.324 l 1.191 138.414 l 4.5 176.094 14.691 211.332
 31.203 241.668 c h
31.203 241.668 m f
119.91 83.184 m 110.293 83.398 102.672 91.367 102.887 100.98 c 103.699 
128.309 l 138.203 128.309 l 137.707 100.184 l 137.48 90.578 129.516 82.973
 119.91 83.184 c h
119.91 83.184 m f
Q Q
showpage
%%Trailer
end
%%EOF
