%!PS-Adobe-3.0 EPSF-3.0
%%Creator: cairo 1.16.0 (https://cairographics.org)
%%CreationDate: Mon Sep 23 08:21:30 2019
%%Pages: 1
%%DocumentData: Clean7Bit
%%LanguageLevel: 2
%%BoundingBox: 92 0 292 384
%%EndComments
%%BeginProlog
50 dict begin
/q { gsave } bind def
/Q { grestore } bind def
/cm { 6 array astore concat } bind def
/w { setlinewidth } bind def
/J { setlinecap } bind def
/j { setlinejoin } bind def
/M { setmiterlimit } bind def
/d { setdash } bind def
/m { moveto } bind def
/l { lineto } bind def
/c { curveto } bind def
/h { closepath } bind def
/re { exch dup neg 3 1 roll 5 3 roll moveto 0 rlineto
      0 exch rlineto 0 rlineto closepath } bind def
/S { stroke } bind def
/f { fill } bind def
/f* { eofill } bind def
/n { newpath } bind def
/W { clip } bind def
/W* { eoclip } bind def
/BT { } bind def
/ET { } bind def
/BDC { mark 3 1 roll /BDC pdfmark } bind def
/EMC { mark /EMC pdfmark } bind def
/cairo_store_point { /cairo_point_y exch def /cairo_point_x exch def } def
/Tj { show currentpoint cairo_store_point } bind def
/TJ {
  {
    dup
    type /stringtype eq
    { show } { -0.001 mul 0 cairo_font_matrix dtransform rmoveto } ifelse
  } forall
  currentpoint cairo_store_point
} bind def
/cairo_selectfont { cairo_font_matrix aload pop pop pop 0 0 6 array astore
    cairo_font exch selectfont cairo_point_x cairo_point_y moveto } bind def
/Tf { pop /cairo_font exch def /cairo_font_matrix where
      { pop cairo_selectfont } if } bind def
/Td { matrix translate cairo_font_matrix matrix concatmatrix dup
      /cairo_font_matrix exch def dup 4 get exch 5 get cairo_store_point
      /cairo_font where { pop cairo_selectfont } if } bind def
/Tm { 2 copy 8 2 roll 6 array astore /cairo_font_matrix exch def
      cairo_store_point /cairo_font where { pop cairo_selectfont } if } bind def
/g { setgray } bind def
/rg { setrgbcolor } bind def
/d1 { setcachedevice } bind def
/cairo_data_source {
  CairoDataIndex CairoData length lt
    { CairoData CairoDataIndex get /CairoDataIndex CairoDataIndex 1 add def }
    { () } ifelse
} def
/cairo_flush_ascii85_file { cairo_ascii85_file status { cairo_ascii85_file flushfile } if } def
/cairo_image { image cairo_flush_ascii85_file } def
/cairo_imagemask { imagemask cairo_flush_ascii85_file } def
%%EndProlog
%%BeginSetup
%%EndSetup
%%Page: 1 1
%%BeginPageSetup
%%PageBoundingBox: 92 0 292 384
%%EndPageSetup
q 92 0 200 384 rectclip
1 0 0 -1 0 384 cm q
0 g
184.867 284.312 m 184.867 288.242 181.684 291.426 177.758 291.426 c 173.828
 291.426 170.645 288.242 170.645 284.312 c 170.645 280.387 173.828 277.199
 177.758 277.199 c 181.684 277.199 184.867 280.387 184.867 284.312 c h
184.867 284.312 m f
180.629 376.055 m 182.211 381.809 188.16 385.191 193.914 383.609 c 197.59
 382.602 200.461 379.727 201.473 376.051 c 209.719 345.996 l 179.727 372.766
 l h
180.629 376.055 m f
176.812 362.172 m 214.516 328.512 l 225.137 289.828 l 170.359 338.723 l
 h
176.812 362.172 m f
241.035 219.809 m 245.434 215.871 l 255.922 177.656 l 241.641 190.105 l
 h
241.035 219.809 m f
222.285 261.242 m 218.949 261.121 215.715 260.051 212.969 258.156 c 192.703
 276.305 l 197.133 284.543 194.047 294.82 185.805 299.25 c 180.207 302.262
 173.391 301.887 168.156 298.277 c 161 304.688 l 167.449 328.125 l 229.938
 272.348 l 234.078 257.258 l 230.945 259.844 227.012 261.254 222.949 261.254
 c 222.727 261.254 222.508 261.246 222.285 261.242 c h
222.285 261.242 m f
155.703 184.457 m 133.148 203.461 l 139.355 226.031 l 155.051 211.98 l 
h
155.703 184.457 m f
249.297 149.73 m 245.508 149.75 242.422 152.777 242.324 156.566 c 241.914
 176.809 l 256.281 164.285 l 256.281 156.707 l 256.277 152.852 253.152 149.73
 249.297 149.73 c h
249.297 149.73 m f
147.215 173.703 m 124.969 173.73 l 130.27 193.008 l 151.469 175.145 l 150.195
 174.316 148.734 173.82 147.215 173.703 c h
147.215 173.703 m f
160.797 284.312 m 160.789 274.957 168.367 267.363 177.727 267.355 c 180.508
 267.352 183.25 268.035 185.711 269.344 c 206.727 250.527 l 205.711 248.148
 205.23 245.574 205.324 242.992 c 205.953 223.676 l 189.652 237.809 l 189.582
 242.203 l 189.582 242.309 l 189.227 252.031 181.055 259.629 171.332 259.273
 c 169.535 259.207 167.762 258.867 166.066 258.266 c 151.664 270.754 l 158.082
 294.082 l 162.012 290.566 l 161.215 288.578 160.801 286.453 160.797 284.312
 c h
160.797 284.312 m f
206.949 192.879 m 207.105 188.297 203.516 184.457 198.93 184.305 c 194.391
 184.148 190.574 187.672 190.355 192.211 c 189.855 224.602 l 206.387 210.266
 l h
206.949 192.879 m f
154.367 241.023 m 154.734 225.48 l 142.273 236.641 l 148.766 260.234 l 
157.922 252.297 l 155.461 249.066 154.207 245.082 154.367 241.023 c h
154.367 241.023 m f
266.121 180.203 m 266.168 184.492 269.68 187.934 273.969 187.887 c 278.195
 187.844 281.613 184.43 281.656 180.203 c 281.984 140.344 l 282.012 132.742
 282.824 125.16 284.414 117.727 c 291.832 83.922 280.68 48.723 255.148 25.355
 c 215.664 -10.727 154.402 -7.969 118.316 31.52 c 83.902 69.18 84.602 127.074
 119.914 163.895 c 147.371 163.855 l 147.438 163.863 147.578 163.855 147.68
 163.863 c 158 164.555 165.918 173.309 165.566 183.648 c 164.203 241.32 
l 164.004 245.605 167.316 249.246 171.602 249.449 c 175.891 249.652 179.531
 246.34 179.73 242.051 c 179.734 242.031 179.734 242.012 179.734 241.996
 c 180.516 192 l 180.516 191.965 180.516 191.93 180.516 191.895 c 180.883
 182.145 188.887 174.426 198.645 174.41 c 198.867 174.41 199.09 174.41 199.316
 174.422 c 209.332 174.785 217.156 183.203 216.793 193.219 c 215.164 243.332
 l 215.004 247.621 218.348 251.23 222.637 251.391 c 226.926 251.551 230.535
 248.207 230.695 243.918 c 232.48 156.363 l 232.574 147.074 240.184 139.621
 249.473 139.715 c 258.766 139.809 266.219 147.418 266.125 156.707 c h
117.844 97.855 m 115.125 97.852 112.922 95.648 112.926 92.93 c 112.926 
91.895 113.254 90.887 113.859 90.047 c 125.414 74.082 l 126.977 71.855 130.047
 71.316 132.273 72.879 c 134.496 74.441 135.035 77.512 133.473 79.738 c 
133.445 79.777 133.418 79.812 133.391 79.852 c 121.836 95.82 l 120.91 97.098
 119.426 97.859 117.844 97.855 c h
157.172 128.684 m 156.703 130.973 154.691 132.613 152.355 132.617 c 152.02
 132.613 151.688 132.582 151.359 132.516 c 132.055 128.539 l 129.391 127.992
 127.676 125.387 128.227 122.723 c 128.773 120.059 131.375 118.348 134.039
 118.895 c 153.344 122.871 l 156.008 123.418 157.723 126.02 157.172 128.684
 c h
163.438 23.676 m 147.074 35.445 l 144.879 37.047 141.801 36.57 140.195 
34.379 c 138.59 32.184 139.066 29.102 141.262 27.496 c 141.285 27.48 141.305
 27.465 141.328 27.449 c 157.688 15.684 l 159.91 14.113 162.98 14.641 164.551
 16.863 c 166.102 19.059 165.605 22.09 163.438 23.676 c h
185.375 63.695 m 179.543 82.516 l 178.738 85.113 175.977 86.566 173.383
 85.762 c 170.785 84.957 169.332 82.199 170.137 79.602 c 175.973 60.777 
l 176.777 58.18 179.535 56.727 182.133 57.535 c 184.73 58.34 186.184 61.098
 185.375 63.695 c h
206.453 151.91 m 203.957 152.977 201.066 151.812 200.004 149.312 c 200.004
 149.309 200 149.305 200 149.301 c 192.301 131.16 l 191.238 128.656 192.406
 125.766 194.91 124.703 c 197.414 123.645 200.305 124.809 201.367 127.312
 c 209.062 145.457 l 210.125 147.957 208.957 150.848 206.453 151.91 c h
214.305 39.641 m 211.754 38.703 210.445 35.875 211.383 33.32 c 218.332 
14.406 l 219.273 11.855 222.102 10.547 224.652 11.484 c 227.207 12.422 228.512
 15.25 227.574 17.805 c 220.625 36.719 l 219.688 39.27 216.863 40.582 214.312
 39.645 c 214.309 39.645 214.309 39.645 214.305 39.641 c h
241.621 103.75 m 240.18 106.055 237.145 106.758 234.84 105.316 c 218.938
 95.379 l 216.645 93.914 215.973 90.871 217.434 88.582 c 218.875 86.316 
221.867 85.629 224.156 87.027 c 240.055 96.965 l 242.363 98.406 243.062 
101.445 241.621 103.75 c h
265.137 87.254 m 250.609 73.938 l 248.605 72.102 248.469 68.988 250.305
 66.98 c 252.141 64.977 255.258 64.84 257.262 66.68 c 271.793 79.996 l 273.797
 81.836 273.93 84.949 272.094 86.953 c 270.258 88.957 267.145 89.094 265.137
 87.258 c h
265.137 87.254 m f
291.039 224.496 m 291.039 231.648 285.242 237.445 278.09 237.445 c 270.941
 237.445 265.145 231.648 265.145 224.496 c 265.145 217.348 270.941 211.551
 278.09 211.551 c 285.242 211.551 291.039 217.348 291.039 224.496 c h
291.039 224.496 m f
Q Q
showpage
%%Trailer
end
%%EOF
