%!PS-Adobe-3.0 EPSF-3.0
%%Creator: cairo 1.16.0 (https://cairographics.org)
%%CreationDate: Mon Sep 23 08:21:30 2019
%%Pages: 1
%%DocumentData: Clean7Bit
%%LanguageLevel: 2
%%BoundingBox: 0 48 384 336
%%EndComments
%%BeginProlog
50 dict begin
/q { gsave } bind def
/Q { grestore } bind def
/cm { 6 array astore concat } bind def
/w { setlinewidth } bind def
/J { setlinecap } bind def
/j { setlinejoin } bind def
/M { setmiterlimit } bind def
/d { setdash } bind def
/m { moveto } bind def
/l { lineto } bind def
/c { curveto } bind def
/h { closepath } bind def
/re { exch dup neg 3 1 roll 5 3 roll moveto 0 rlineto
      0 exch rlineto 0 rlineto closepath } bind def
/S { stroke } bind def
/f { fill } bind def
/f* { eofill } bind def
/n { newpath } bind def
/W { clip } bind def
/W* { eoclip } bind def
/BT { } bind def
/ET { } bind def
/BDC { mark 3 1 roll /BDC pdfmark } bind def
/EMC { mark /EMC pdfmark } bind def
/cairo_store_point { /cairo_point_y exch def /cairo_point_x exch def } def
/Tj { show currentpoint cairo_store_point } bind def
/TJ {
  {
    dup
    type /stringtype eq
    { show } { -0.001 mul 0 cairo_font_matrix dtransform rmoveto } ifelse
  } forall
  currentpoint cairo_store_point
} bind def
/cairo_selectfont { cairo_font_matrix aload pop pop pop 0 0 6 array astore
    cairo_font exch selectfont cairo_point_x cairo_point_y moveto } bind def
/Tf { pop /cairo_font exch def /cairo_font_matrix where
      { pop cairo_selectfont } if } bind def
/Td { matrix translate cairo_font_matrix matrix concatmatrix dup
      /cairo_font_matrix exch def dup 4 get exch 5 get cairo_store_point
      /cairo_font where { pop cairo_selectfont } if } bind def
/Tm { 2 copy 8 2 roll 6 array astore /cairo_font_matrix exch def
      cairo_store_point /cairo_font where { pop cairo_selectfont } if } bind def
/g { setgray } bind def
/rg { setrgbcolor } bind def
/d1 { setcachedevice } bind def
/cairo_data_source {
  CairoDataIndex CairoData length lt
    { CairoData CairoDataIndex get /CairoDataIndex CairoDataIndex 1 add def }
    { () } ifelse
} def
/cairo_flush_ascii85_file { cairo_ascii85_file status { cairo_ascii85_file flushfile } if } def
/cairo_image { image cairo_flush_ascii85_file } def
/cairo_imagemask { imagemask cairo_flush_ascii85_file } def
%%EndProlog
%%BeginSetup
%%EndSetup
%%Page: 1 1
%%BeginPageSetup
%%PageBoundingBox: 0 48 384 336
%%EndPageSetup
q 0 48 384 288 rectclip
1 0 0 -1 0 384 cm q
0 g
212.879 102.945 m 207.938 102.945 203.93 106.953 203.93 111.895 c 203.93
 116.84 207.938 120.844 212.879 120.844 c 217.82 120.844 221.828 116.84 
221.828 111.895 c 221.82 106.957 217.816 102.953 212.879 102.945 c h
212.879 102.945 m f
121.449 211.496 m 116.508 211.496 112.5 215.5 112.5 220.445 c 112.5 225.387
 116.508 229.395 121.449 229.395 c 126.391 229.395 130.398 225.387 130.398
 220.445 c 130.391 215.504 126.387 211.504 121.449 211.496 c h
121.449 211.496 m f
203.156 178.266 m 201.363 177.012 199.227 176.336 197.039 176.336 c 196.395
 176.336 195.754 176.395 195.121 176.508 c 189.285 177.555 185.402 183.137
 186.449 188.973 c 187.496 194.809 193.078 198.691 198.914 197.645 c 204.75
 196.598 208.633 191.016 207.586 185.18 c 207.086 182.379 205.488 179.891
 203.156 178.266 c h
203.156 178.266 m f
187.422 288.617 m 192.363 288.617 196.367 284.613 196.367 279.668 c 196.367
 274.727 192.363 270.723 187.422 270.723 c 182.477 270.723 178.473 274.727
 178.473 279.668 c 178.477 284.609 182.48 288.613 187.422 288.617 c h
187.422 288.617 m f
139.695 151.973 m 139.695 123.414 151.633 97.297 171.293 77.352 c 158.254
 73.848 143.031 71.562 131.758 71.562 c 59.105 71.562 0 130.668 0 203.32
 c 0 275.969 59.109 335.078 131.758 335.078 c 156.715 335.211 181.191 328.215
 202.312 314.914 c 221.832 302.547 237.383 284.828 247.117 263.871 c 186.332
 255.363 139.695 208.426 139.695 151.973 c h
49.523 215.305 m 46.359 219.879 41.492 223 36.012 223.965 c 34.777 224.188
 33.523 224.301 32.27 224.301 c 20.684 224.277 11.312 214.867 11.336 203.281
 c 11.363 191.699 20.77 182.328 32.355 182.352 c 42.496 182.371 51.168 189.645
 52.957 199.625 c 53.953 205.102 52.715 210.746 49.523 215.305 c h
74.242 111.945 m 74.238 101.379 82.805 92.816 93.371 92.812 c 103.938 92.812
 112.5 101.379 112.5 111.945 c 112.504 122.508 103.938 131.074 93.371 131.074
 c 82.809 131.066 74.25 122.508 74.238 111.945 c h
110.609 322.312 m 98.262 322.312 88.254 312.305 88.254 299.957 c 88.25 
287.613 98.262 277.605 110.605 277.602 c 122.953 277.602 132.961 287.609
 132.961 299.957 c 132.949 312.297 122.949 322.297 110.609 322.312 c h
121.449 239.629 m 110.859 239.629 102.273 231.043 102.273 220.453 c 102.273
 209.863 110.859 201.277 121.449 201.277 c 132.039 201.277 140.625 209.863
 140.625 220.453 c 140.609 231.035 132.031 239.609 121.449 239.625 c h
187.422 260.492 m 198.012 260.492 206.594 269.078 206.594 279.668 c 206.594
 290.258 198.012 298.844 187.422 298.844 c 176.828 298.844 168.246 290.258
 168.246 279.668 c 168.254 269.082 176.832 260.504 187.422 260.488 c h
187.422 260.492 m f
102.27 111.945 m 102.27 107.027 98.285 103.043 93.367 103.039 c 88.449 
103.039 84.465 107.027 84.465 111.945 c 84.461 116.859 88.449 120.848 93.367
 120.848 c 98.281 120.844 102.266 116.859 102.27 111.945 c h
102.27 111.945 m f
42.887 201.43 m 41.969 196.316 37.527 192.59 32.336 192.574 c 31.691 192.574
 31.051 192.633 30.418 192.746 c 24.578 193.793 20.691 199.375 21.738 205.215
 c 22.785 211.059 28.367 214.945 34.207 213.898 c 40.047 212.852 43.934 
207.27 42.887 201.43 c h
42.887 201.43 m f
110.609 287.828 m 103.91 287.824 98.48 293.254 98.48 299.953 c 98.48 306.652
 103.91 312.082 110.605 312.082 c 117.305 312.082 122.734 306.652 122.734
 299.953 c 122.727 293.258 117.301 287.836 110.609 287.828 c h
110.609 287.828 m f
270.652 157.016 m 269.605 151.176 264.023 147.289 258.18 148.332 c 252.34
 149.379 248.453 154.961 249.496 160.805 c 250.543 166.645 256.125 170.531
 261.969 169.488 c 264.773 168.984 267.266 167.387 268.891 165.051 c 270.52
 162.711 271.152 159.82 270.652 157.016 c h
270.652 157.016 m f
266.961 48.922 m 202.426 48.922 149.922 95.148 149.922 151.973 c 149.922
 208.797 202.426 255.023 266.961 255.023 c 331.496 255.023 384 208.793 384
 151.973 c 384 95.152 331.496 48.922 266.961 48.922 c h
200.715 207.727 m 189.32 209.773 178.426 202.199 176.379 190.809 c 176.375
 190.797 176.375 190.789 176.375 190.781 c 174.332 179.379 181.918 168.484
 193.32 166.441 c 204.719 164.402 215.617 171.988 217.656 183.391 c 219.699
 194.789 212.113 205.684 200.715 207.727 c h
212.879 131.074 m 202.289 131.074 193.703 122.488 193.703 111.898 c 193.703
 101.309 202.289 92.723 212.879 92.723 c 223.469 92.723 232.055 101.309 
232.055 111.898 c 232.043 122.484 223.465 131.062 212.879 131.074 c h
263.773 179.555 m 262.539 179.777 261.285 179.887 260.031 179.887 c 248.449
 179.867 239.074 170.457 239.098 158.871 c 239.121 147.289 248.531 137.918
 260.113 137.941 c 270.254 137.961 278.93 145.23 280.719 155.215 c 282.758
 166.613 275.172 177.512 263.773 179.555 c h
295.062 234.391 m 284.473 234.391 275.887 225.805 275.887 215.215 c 275.887
 204.625 284.473 196.039 295.062 196.039 c 305.652 196.039 314.238 204.625
 314.238 215.215 c 314.223 225.801 305.645 234.379 295.059 234.391 c h
302.172 106.102 m 291.605 106.102 283.039 97.535 283.039 86.973 c 283.039
 76.406 291.605 67.84 302.172 67.84 c 312.734 67.84 321.301 76.406 321.301
 86.973 c 321.289 97.531 312.73 106.09 302.168 106.102 c h
337.254 171.148 m 326.664 171.148 318.078 162.562 318.078 151.973 c 318.078
 141.383 326.664 132.797 337.254 132.797 c 347.844 132.797 356.43 141.383
 356.43 151.973 c 356.418 162.559 347.836 171.137 337.25 171.148 c h
337.254 171.148 m f
337.25 143.02 m 332.309 143.02 328.301 147.027 328.301 151.969 c 328.301
 156.91 332.309 160.918 337.25 160.918 c 342.195 160.918 346.199 156.91 
346.199 151.969 c 346.191 147.031 342.191 143.027 337.25 143.02 c h
337.25 143.02 m f
302.168 78.066 m 297.25 78.066 293.266 82.055 293.266 86.973 c 293.266 
91.891 297.25 95.875 302.168 95.875 c 307.086 95.875 311.07 91.891 311.07
 86.973 c 311.066 82.059 307.082 78.074 302.168 78.066 c h
302.168 78.066 m f
295.059 206.262 m 290.117 206.262 286.109 210.266 286.109 215.211 c 286.109
 220.152 290.117 224.156 295.059 224.156 c 300 224.156 304.008 220.152 304.008
 215.211 c 304 210.27 300 206.27 295.059 206.262 c h
295.059 206.262 m f
Q Q
showpage
%%Trailer
end
%%EOF
