%!PS-Adobe-3.0 EPSF-3.0
%%Creator: cairo 1.16.0 (https://cairographics.org)
%%CreationDate: Mon Sep 23 08:21:31 2019
%%Pages: 1
%%DocumentData: Clean7Bit
%%LanguageLevel: 2
%%BoundingBox: 42 0 342 384
%%EndComments
%%BeginProlog
50 dict begin
/q { gsave } bind def
/Q { grestore } bind def
/cm { 6 array astore concat } bind def
/w { setlinewidth } bind def
/J { setlinecap } bind def
/j { setlinejoin } bind def
/M { setmiterlimit } bind def
/d { setdash } bind def
/m { moveto } bind def
/l { lineto } bind def
/c { curveto } bind def
/h { closepath } bind def
/re { exch dup neg 3 1 roll 5 3 roll moveto 0 rlineto
      0 exch rlineto 0 rlineto closepath } bind def
/S { stroke } bind def
/f { fill } bind def
/f* { eofill } bind def
/n { newpath } bind def
/W { clip } bind def
/W* { eoclip } bind def
/BT { } bind def
/ET { } bind def
/BDC { mark 3 1 roll /BDC pdfmark } bind def
/EMC { mark /EMC pdfmark } bind def
/cairo_store_point { /cairo_point_y exch def /cairo_point_x exch def } def
/Tj { show currentpoint cairo_store_point } bind def
/TJ {
  {
    dup
    type /stringtype eq
    { show } { -0.001 mul 0 cairo_font_matrix dtransform rmoveto } ifelse
  } forall
  currentpoint cairo_store_point
} bind def
/cairo_selectfont { cairo_font_matrix aload pop pop pop 0 0 6 array astore
    cairo_font exch selectfont cairo_point_x cairo_point_y moveto } bind def
/Tf { pop /cairo_font exch def /cairo_font_matrix where
      { pop cairo_selectfont } if } bind def
/Td { matrix translate cairo_font_matrix matrix concatmatrix dup
      /cairo_font_matrix exch def dup 4 get exch 5 get cairo_store_point
      /cairo_font where { pop cairo_selectfont } if } bind def
/Tm { 2 copy 8 2 roll 6 array astore /cairo_font_matrix exch def
      cairo_store_point /cairo_font where { pop cairo_selectfont } if } bind def
/g { setgray } bind def
/rg { setrgbcolor } bind def
/d1 { setcachedevice } bind def
/cairo_data_source {
  CairoDataIndex CairoData length lt
    { CairoData CairoDataIndex get /CairoDataIndex CairoDataIndex 1 add def }
    { () } ifelse
} def
/cairo_flush_ascii85_file { cairo_ascii85_file status { cairo_ascii85_file flushfile } if } def
/cairo_image { image cairo_flush_ascii85_file } def
/cairo_imagemask { imagemask cairo_flush_ascii85_file } def
%%EndProlog
%%BeginSetup
%%EndSetup
%%Page: 1 1
%%BeginPageSetup
%%PageBoundingBox: 42 0 342 384
%%EndPageSetup
q 42 0 300 384 rectclip
1 0 0 -1 0 384 cm q
0 g
62.812 92.141 m 62.824 102.285 71.043 110.504 81.188 110.516 c 245.48 110.516
 l 255.629 110.586 263.914 102.414 263.98 92.266 c 264.051 82.117 255.879
 73.836 245.734 73.766 c 245.648 73.766 245.566 73.766 245.484 73.766 c 
213.914 73.766 l 213.887 73.766 213.859 73.766 213.832 73.766 c 213.805 
73.766 213.793 73.766 213.773 73.766 c 81.188 73.766 l 71.043 73.777 62.824
 81.996 62.812 92.141 c h
62.812 92.141 m f
268.957 157.457 m 279.105 157.391 287.277 149.105 287.207 138.957 c 287.141
 128.906 279.008 120.777 268.957 120.707 c 61.07 120.707 l 50.922 120.641
 42.641 128.812 42.57 138.957 c 42.5 149.105 50.672 157.387 60.82 157.457
 c 60.902 157.457 60.984 157.457 61.07 157.457 c h
268.957 157.457 m f
137.531 0 m 120.801 0 107.191 14.258 107.191 31.785 c 107.191 49.312 120.801
 63.574 137.531 63.574 c 212.73 63.574 l 221.555 59.387 225.312 48.844 221.129
 40.02 c 218.199 33.848 211.98 29.918 205.152 29.918 c 188.879 29.918 l 
188.137 29.918 170.379 29.926 161.441 18.449 c 157.555 13.457 155.98 7.27
 156.727 0.004 c h
137.531 0 m f
278.836 220.277 m 258.406 220.254 l 255.59 220.254 253.309 217.969 253.312
 215.152 c 253.312 212.34 255.598 210.059 258.41 210.062 c 258.418 210.062
 l 278.836 210.082 l 278.836 194.793 l 258.406 194.77 l 255.59 194.766 253.312
 192.48 253.316 189.668 c 253.32 186.855 255.602 184.578 258.41 184.578 
c 258.418 184.578 l 278.836 184.602 l 278.836 165.887 l 275.676 167.059 
272.328 167.652 268.957 167.652 c 61.07 167.652 l 57.699 167.656 54.352 
167.059 51.188 165.887 c 51.188 184.574 l 239.977 184.574 l 242.789 184.574
 245.07 186.859 245.07 189.672 c 245.07 192.488 242.789 194.77 239.977 194.77
 c 51.188 194.77 l 51.188 210.059 l 239.977 210.059 l 242.789 210.059 245.07
 212.34 245.07 215.156 c 245.07 217.969 242.789 220.254 239.977 220.254 
c 51.188 220.254 l 51.188 270.176 l 51.188 332.938 102.25 384 165.012 384
 c 227.777 384 278.836 332.938 278.836 270.176 c h
278.836 220.277 m f
289.031 205.395 m 289.031 270.176 l 289.051 289.496 284.531 308.551 275.836
 325.801 c 306.594 313.215 l 335.246 301.484 348.965 268.75 337.238 240.098
 c 329.121 220.27 310.41 206.801 289.031 205.395 c h
289.031 205.395 m f
Q Q
showpage
%%Trailer
end
%%EOF
