%!PS-Adobe-3.0 EPSF-3.0
%%Creator: cairo 1.16.0 (https://cairographics.org)
%%CreationDate: Mon Sep 23 08:21:31 2019
%%Pages: 1
%%DocumentData: Clean7Bit
%%LanguageLevel: 2
%%BoundingBox: 0 49 384 335
%%EndComments
%%BeginProlog
50 dict begin
/q { gsave } bind def
/Q { grestore } bind def
/cm { 6 array astore concat } bind def
/w { setlinewidth } bind def
/J { setlinecap } bind def
/j { setlinejoin } bind def
/M { setmiterlimit } bind def
/d { setdash } bind def
/m { moveto } bind def
/l { lineto } bind def
/c { curveto } bind def
/h { closepath } bind def
/re { exch dup neg 3 1 roll 5 3 roll moveto 0 rlineto
      0 exch rlineto 0 rlineto closepath } bind def
/S { stroke } bind def
/f { fill } bind def
/f* { eofill } bind def
/n { newpath } bind def
/W { clip } bind def
/W* { eoclip } bind def
/BT { } bind def
/ET { } bind def
/BDC { mark 3 1 roll /BDC pdfmark } bind def
/EMC { mark /EMC pdfmark } bind def
/cairo_store_point { /cairo_point_y exch def /cairo_point_x exch def } def
/Tj { show currentpoint cairo_store_point } bind def
/TJ {
  {
    dup
    type /stringtype eq
    { show } { -0.001 mul 0 cairo_font_matrix dtransform rmoveto } ifelse
  } forall
  currentpoint cairo_store_point
} bind def
/cairo_selectfont { cairo_font_matrix aload pop pop pop 0 0 6 array astore
    cairo_font exch selectfont cairo_point_x cairo_point_y moveto } bind def
/Tf { pop /cairo_font exch def /cairo_font_matrix where
      { pop cairo_selectfont } if } bind def
/Td { matrix translate cairo_font_matrix matrix concatmatrix dup
      /cairo_font_matrix exch def dup 4 get exch 5 get cairo_store_point
      /cairo_font where { pop cairo_selectfont } if } bind def
/Tm { 2 copy 8 2 roll 6 array astore /cairo_font_matrix exch def
      cairo_store_point /cairo_font where { pop cairo_selectfont } if } bind def
/g { setgray } bind def
/rg { setrgbcolor } bind def
/d1 { setcachedevice } bind def
/cairo_data_source {
  CairoDataIndex CairoData length lt
    { CairoData CairoDataIndex get /CairoDataIndex CairoDataIndex 1 add def }
    { () } ifelse
} def
/cairo_flush_ascii85_file { cairo_ascii85_file status { cairo_ascii85_file flushfile } if } def
/cairo_image { image cairo_flush_ascii85_file } def
/cairo_imagemask { imagemask cairo_flush_ascii85_file } def
%%EndProlog
%%BeginSetup
%%EndSetup
%%Page: 1 1
%%BeginPageSetup
%%PageBoundingBox: 0 49 384 335
%%EndPageSetup
q 0 49 384 286 rectclip
1 0 0 -1 0 384 cm q
0 g
32.836 148.746 m 6.535 170.02 l -4.23 178.723 -1.32 201.125 12.508 220.523
 c 60.125 182.469 l h
32.836 148.746 m f
33.379 133.742 m 77.707 188.512 l 134.215 152.621 l 106.711 92.387 l 105.281
 89.266 102.586 86.906 99.305 85.898 c 95.004 84.516 90.316 85.023 86.414
 87.297 c 38.773 114.301 l 34.75 116.48 31.895 120.328 30.973 124.812 c 
30.359 127.945 31.203 131.191 33.273 133.621 c h
33.379 133.742 m f
288.797 64.23 m 289.414 61.094 288.566 57.844 286.496 55.41 c 283.5 51.949
 279.129 49.988 274.551 50.059 c 219.793 49.789 l 219.711 49.789 l 215.223
 49.738 210.922 51.586 207.867 54.875 c 205.48 57.367 204.285 60.77 204.582
 64.211 c 204.605 64.469 204.609 64.73 204.594 64.992 c 209.98 130.145 l
 276.871 133.824 l h
288.797 64.23 m f
288.809 122.52 m 349.508 132.887 l 350.781 121.477 349.617 110.547 346.137
 101.691 c 342.492 92.418 336.793 86.68 330.082 85.535 c 296.141 79.707 
l h
288.809 122.52 m f
200.77 138.426 m 194.566 63.414 l 193.914 55.434 186.914 49.496 178.938
 50.152 c 178.098 50.219 177.262 50.363 176.445 50.574 c 123.465 64.41 l
 115.715 66.434 111.07 74.355 113.094 82.105 c 113.305 82.918 113.586 83.707
 113.934 84.469 c 145.199 152.938 l h
200.77 138.426 m f
369.559 251.203 m 336.969 240.078 l 322.953 281.188 l 381.238 301.039 l
 387.602 277.859 382.664 255.664 369.559 251.203 c h
369.559 251.203 m f
66.055 266.555 m 36.719 283.398 l 24.719 290.289 24.039 312.867 34.621 
334.211 c 87.664 304.172 l h
66.055 266.555 m f
77.371 233.484 m 73.051 235 69.621 238.344 68.004 242.629 c 66.902 245.625
 67.223 248.965 68.883 251.691 c 68.965 251.828 l 98.695 303.578 l 98.699
 303.586 l 98.699 303.594 l 104.059 312.922 l 165.543 286.434 l 147.93 222.633
 l 147.02 219.312 144.727 216.543 141.637 215.023 c 137.605 212.98 132.898
 212.742 128.684 214.367 c h
77.371 233.484 m f
332.164 223.625 m 333.27 220.625 332.949 217.289 331.289 214.559 c 328.879
 210.664 324.875 208.039 320.344 207.379 c 266.32 198.449 l 261.871 197.66
 257.297 198.797 253.738 201.578 c 250.988 203.664 249.266 206.832 249.016
 210.277 c 249 210.539 248.961 210.797 248.902 211.055 c 243.91 276.234 
l 309.375 290.461 l h
332.164 223.625 m f
239.258 207.906 m 239.867 199.918 233.887 192.949 225.898 192.336 c 225.535
 192.309 225.168 192.297 224.805 192.297 c 224.336 192.297 223.867 192.316
 223.398 192.363 c 168.895 197.633 l 160.918 198.406 155.078 205.496 155.852
 213.473 c 155.934 214.305 156.082 215.129 156.305 215.934 c 176.336 288.488
 l 233.504 282.961 l h
239.258 207.906 m f
Q Q
showpage
%%Trailer
end
%%EOF
