%!PS-Adobe-3.0 EPSF-3.0
%%Creator: cairo 1.16.0 (https://cairographics.org)
%%CreationDate: Mon Sep 23 08:21:32 2019
%%Pages: 1
%%DocumentData: Clean7Bit
%%LanguageLevel: 2
%%BoundingBox: 0 79 384 305
%%EndComments
%%BeginProlog
50 dict begin
/q { gsave } bind def
/Q { grestore } bind def
/cm { 6 array astore concat } bind def
/w { setlinewidth } bind def
/J { setlinecap } bind def
/j { setlinejoin } bind def
/M { setmiterlimit } bind def
/d { setdash } bind def
/m { moveto } bind def
/l { lineto } bind def
/c { curveto } bind def
/h { closepath } bind def
/re { exch dup neg 3 1 roll 5 3 roll moveto 0 rlineto
      0 exch rlineto 0 rlineto closepath } bind def
/S { stroke } bind def
/f { fill } bind def
/f* { eofill } bind def
/n { newpath } bind def
/W { clip } bind def
/W* { eoclip } bind def
/BT { } bind def
/ET { } bind def
/BDC { mark 3 1 roll /BDC pdfmark } bind def
/EMC { mark /EMC pdfmark } bind def
/cairo_store_point { /cairo_point_y exch def /cairo_point_x exch def } def
/Tj { show currentpoint cairo_store_point } bind def
/TJ {
  {
    dup
    type /stringtype eq
    { show } { -0.001 mul 0 cairo_font_matrix dtransform rmoveto } ifelse
  } forall
  currentpoint cairo_store_point
} bind def
/cairo_selectfont { cairo_font_matrix aload pop pop pop 0 0 6 array astore
    cairo_font exch selectfont cairo_point_x cairo_point_y moveto } bind def
/Tf { pop /cairo_font exch def /cairo_font_matrix where
      { pop cairo_selectfont } if } bind def
/Td { matrix translate cairo_font_matrix matrix concatmatrix dup
      /cairo_font_matrix exch def dup 4 get exch 5 get cairo_store_point
      /cairo_font where { pop cairo_selectfont } if } bind def
/Tm { 2 copy 8 2 roll 6 array astore /cairo_font_matrix exch def
      cairo_store_point /cairo_font where { pop cairo_selectfont } if } bind def
/g { setgray } bind def
/rg { setrgbcolor } bind def
/d1 { setcachedevice } bind def
/cairo_data_source {
  CairoDataIndex CairoData length lt
    { CairoData CairoDataIndex get /CairoDataIndex CairoDataIndex 1 add def }
    { () } ifelse
} def
/cairo_flush_ascii85_file { cairo_ascii85_file status { cairo_ascii85_file flushfile } if } def
/cairo_image { image cairo_flush_ascii85_file } def
/cairo_imagemask { imagemask cairo_flush_ascii85_file } def
%%EndProlog
%%BeginSetup
%%EndSetup
%%Page: 1 1
%%BeginPageSetup
%%PageBoundingBox: 0 79 384 305
%%EndPageSetup
q 0 79 384 226 rectclip
1 0 0 -1 0 384 cm q
0 g
321.48 101.371 m 315.102 101.371 l 315.102 111.059 l 321.48 111.059 l 350.613
 111.059 374.312 134.543 374.312 163.41 c 374.312 192.043 350.812 215.527
 321.934 215.762 c 321.758 215.762 321.582 215.758 321.402 215.742 c 299.676
 213.902 l 298.859 223.555 l 320.582 225.395 l 321.027 225.434 321.469 225.449
 321.902 225.449 c 322.008 225.449 l 356.191 225.172 384 197.34 384 163.41
 c 384 129.199 355.953 101.371 321.48 101.371 c h
321.48 101.371 m f
55.238 79.789 254.602 28.137 re f
176.996 279.777 m 188.082 279.777 l 255.223 279.777 309.84 225.16 309.84
 158.023 c 309.84 117.613 l 55.238 117.613 l 55.238 158.023 l 55.238 225.16
 109.859 279.777 176.996 279.777 c h
176.996 279.777 m f
290.039 240.887 m 265.113 271.621 227.652 289.473 188.082 289.465 c 176.996
 289.465 l 136.598 289.469 98.445 270.871 73.559 239.043 c 7.242 248.812
 0 261.926 0 267.16 c 0 273.363 13.863 283.602 52.926 292.051 c 89.195 299.895
 137.488 304.211 188.902 304.211 c 240.32 304.211 288.613 299.895 324.879
 292.051 c 363.949 283.602 377.809 273.363 377.809 267.16 c 377.809 251.188
 318.277 244.055 290.039 240.887 c h
290.039 240.887 m f
Q Q
showpage
%%Trailer
end
%%EOF
