%!PS-Adobe-3.0 EPSF-3.0
%%Creator: cairo 1.16.0 (https://cairographics.org)
%%CreationDate: Mon Sep 23 08:21:32 2019
%%Pages: 1
%%DocumentData: Clean7Bit
%%LanguageLevel: 2
%%BoundingBox: 70 0 314 384
%%EndComments
%%BeginProlog
50 dict begin
/q { gsave } bind def
/Q { grestore } bind def
/cm { 6 array astore concat } bind def
/w { setlinewidth } bind def
/J { setlinecap } bind def
/j { setlinejoin } bind def
/M { setmiterlimit } bind def
/d { setdash } bind def
/m { moveto } bind def
/l { lineto } bind def
/c { curveto } bind def
/h { closepath } bind def
/re { exch dup neg 3 1 roll 5 3 roll moveto 0 rlineto
      0 exch rlineto 0 rlineto closepath } bind def
/S { stroke } bind def
/f { fill } bind def
/f* { eofill } bind def
/n { newpath } bind def
/W { clip } bind def
/W* { eoclip } bind def
/BT { } bind def
/ET { } bind def
/BDC { mark 3 1 roll /BDC pdfmark } bind def
/EMC { mark /EMC pdfmark } bind def
/cairo_store_point { /cairo_point_y exch def /cairo_point_x exch def } def
/Tj { show currentpoint cairo_store_point } bind def
/TJ {
  {
    dup
    type /stringtype eq
    { show } { -0.001 mul 0 cairo_font_matrix dtransform rmoveto } ifelse
  } forall
  currentpoint cairo_store_point
} bind def
/cairo_selectfont { cairo_font_matrix aload pop pop pop 0 0 6 array astore
    cairo_font exch selectfont cairo_point_x cairo_point_y moveto } bind def
/Tf { pop /cairo_font exch def /cairo_font_matrix where
      { pop cairo_selectfont } if } bind def
/Td { matrix translate cairo_font_matrix matrix concatmatrix dup
      /cairo_font_matrix exch def dup 4 get exch 5 get cairo_store_point
      /cairo_font where { pop cairo_selectfont } if } bind def
/Tm { 2 copy 8 2 roll 6 array astore /cairo_font_matrix exch def
      cairo_store_point /cairo_font where { pop cairo_selectfont } if } bind def
/g { setgray } bind def
/rg { setrgbcolor } bind def
/d1 { setcachedevice } bind def
/cairo_data_source {
  CairoDataIndex CairoData length lt
    { CairoData CairoDataIndex get /CairoDataIndex CairoDataIndex 1 add def }
    { () } ifelse
} def
/cairo_flush_ascii85_file { cairo_ascii85_file status { cairo_ascii85_file flushfile } if } def
/cairo_image { image cairo_flush_ascii85_file } def
/cairo_imagemask { imagemask cairo_flush_ascii85_file } def
%%EndProlog
%%BeginSetup
%%EndSetup
%%Page: 1 1
%%BeginPageSetup
%%PageBoundingBox: 70 0 314 384
%%EndPageSetup
q 70 0 244 384 rectclip
1 0 0 -1 0 384 cm q
0 g
235.719 39.285 m 235.941 39.285 236.164 39.273 236.383 39.242 c 239.066
 38.879 240.953 36.41 240.59 33.723 c 239.18 23.312 243.383 17.824 259.316
 9.258 c 261.719 8.004 262.648 5.039 261.395 2.637 c 260.141 0.234 257.176
 -0.695 254.773 0.559 c 254.738 0.578 254.703 0.594 254.668 0.613 c 237.863
 9.648 228.582 18.18 230.863 35.035 c 231.191 37.469 233.266 39.285 235.719
 39.285 c h
235.719 39.285 m f
82.852 226.262 m 82.875 226.27 l 85.648 227.227 88.523 227.859 91.445 228.152
 c 148.758 234.586 196.496 228.66 233.332 210.543 c 263.984 195.465 279.293
 175.445 285.695 164.855 c 288.773 159.754 289.766 156.641 289.941 151.516
 c 290.383 138.516 284.789 131.117 272.895 128.953 c 264.152 144.258 232.754
 161.898 203.5 173.32 c 187.805 179.457 153.375 191.281 121.516 191.281 
c 112.945 191.383 104.402 190.344 96.105 188.191 c 93.422 187.461 90.844
 186.383 88.438 184.988 c 84.848 187.277 79.324 191.172 75.16 195.785 c 
72.855 198.332 69.039 208.484 72.109 216.59 c 73.805 221.062 77.402 224.297
 82.852 226.262 c h
82.852 226.262 m f
90.352 237.906 m 87.141 237.566 83.973 236.91 80.895 235.945 c 80.77 236.055
 80.695 236.215 80.691 236.383 c 108.215 383.992 l 125.121 383.992 l 109.035
 239.59 l 102.918 239.176 96.691 238.613 90.352 237.906 c h
90.352 237.906 m f
98.699 178.727 m 122.246 185.18 160.09 179.742 199.93 164.184 c 238.539
 149.102 262.418 131.258 265.285 122.121 c 267.406 115.371 266.469 109.645
 262.422 104.613 c 258.27 99.449 251.488 98.246 239.734 100.586 c 217.926
 104.93 203.375 103.027 195.242 94.77 c 179.926 79.203 176.262 55.969 174.07
 42.09 c 173.797 40.344 173.488 38.387 173.184 36.734 c 160.277 43.312 117.094
 75.512 112.711 121.406 c 112.617 124.309 112.879 127.211 113.488 130.047
 c 113.672 130.93 114.246 131.684 115.047 132.094 c 115.562 132.031 116.09
 131.973 116.617 131.914 c 182.484 124.98 193.41 116.16 194.648 114.918 
c 195.82 112.473 198.75 111.441 201.191 112.613 c 203.203 113.574 204.309
 115.77 203.895 117.957 c 202.602 124.77 186.586 134.414 117.648 141.676
 c 117.414 141.699 117.18 141.727 116.949 141.75 c 116.664 141.832 116.371
 141.891 116.078 141.918 c 116 141.93 l 115.559 142.016 115.109 142.051 
114.66 142.035 c 114.008 142.121 113.359 142.207 112.723 142.293 c 110.531
 142.594 108.461 142.879 106.547 142.988 c 95.234 143.645 87.219 153.691
 86.277 162.625 c 85.797 167.234 86.766 175.457 98.699 178.727 c h
98.699 178.727 m f
219.816 93.012 m 219.816 92.977 l 236.156 92.934 249.375 79.668 249.367
 63.328 c 249.473 56.312 246.715 49.555 241.734 44.613 c 236.078 39.176 
228.516 36.176 220.672 36.262 c 220.488 36.262 l 199.738 36.379 190.234 
52.637 190.145 67.777 c 192.84 75.074 196.652 82.203 202.246 87.887 c 204.816
 90.504 209.883 93.023 219.816 93.012 c h
219.816 93.012 m f
298.898 236.184 m 299.137 233.965 298.766 232.977 298.535 232.758 c 298.344
 232.578 297.453 232.051 294 232.688 c 293.91 232.703 293.824 232.715 293.734
 232.73 c 286.18 235.625 278.355 237.754 270.375 239.082 c 253.246 384 l
 275.734 384 l h
298.898 236.184 m f
231.109 241.844 m 222.285 383.996 l 243.359 383.996 l 260.324 240.488 l
 251.109 241.453 241.852 241.906 232.586 241.852 c 232.098 241.852 231.602
 241.848 231.109 241.844 c h
231.109 241.844 m f
237.664 219.352 m 227.512 224.297 216.93 228.316 206.051 231.348 c 236.801
 232.656 267.992 233.191 292.934 222.469 c 301.141 218.941 315.812 207.609
 312.578 189.969 c 311.148 182.168 305.273 175.25 300.598 170.812 c 298.945
 169.25 297.336 167.887 295.902 166.75 c 295.352 167.797 294.75 168.852 
294.094 169.934 c 287.141 181.441 270.559 203.168 237.664 219.352 c h
237.664 219.352 m f
166.426 383.996 m 184.895 383.996 l 184.895 240.262 l 175.98 239.926 167.066
 239.719 158.477 239.895 c h
166.426 383.996 m f
198.344 240.828 m 194.707 240.664 l 194.707 383.996 l 212.453 383.996 l
 221.285 241.695 l 213.637 241.508 205.961 241.172 198.344 240.828 c h
198.344 240.828 m f
156.598 383.996 m 148.664 240.16 l 143.949 240.371 139.152 240.477 134.273
 240.48 c 129.258 240.48 124.16 240.367 118.973 240.145 c 134.996 384 l 
h
156.598 383.996 m f
Q Q
showpage
%%Trailer
end
%%EOF
