%!PS-Adobe-3.0 EPSF-3.0
%%Creator: cairo 1.16.0 (https://cairographics.org)
%%CreationDate: Mon Sep 23 08:21:33 2019
%%Pages: 1
%%DocumentData: Clean7Bit
%%LanguageLevel: 2
%%BoundingBox: 4 0 380 384
%%EndComments
%%BeginProlog
50 dict begin
/q { gsave } bind def
/Q { grestore } bind def
/cm { 6 array astore concat } bind def
/w { setlinewidth } bind def
/J { setlinecap } bind def
/j { setlinejoin } bind def
/M { setmiterlimit } bind def
/d { setdash } bind def
/m { moveto } bind def
/l { lineto } bind def
/c { curveto } bind def
/h { closepath } bind def
/re { exch dup neg 3 1 roll 5 3 roll moveto 0 rlineto
      0 exch rlineto 0 rlineto closepath } bind def
/S { stroke } bind def
/f { fill } bind def
/f* { eofill } bind def
/n { newpath } bind def
/W { clip } bind def
/W* { eoclip } bind def
/BT { } bind def
/ET { } bind def
/BDC { mark 3 1 roll /BDC pdfmark } bind def
/EMC { mark /EMC pdfmark } bind def
/cairo_store_point { /cairo_point_y exch def /cairo_point_x exch def } def
/Tj { show currentpoint cairo_store_point } bind def
/TJ {
  {
    dup
    type /stringtype eq
    { show } { -0.001 mul 0 cairo_font_matrix dtransform rmoveto } ifelse
  } forall
  currentpoint cairo_store_point
} bind def
/cairo_selectfont { cairo_font_matrix aload pop pop pop 0 0 6 array astore
    cairo_font exch selectfont cairo_point_x cairo_point_y moveto } bind def
/Tf { pop /cairo_font exch def /cairo_font_matrix where
      { pop cairo_selectfont } if } bind def
/Td { matrix translate cairo_font_matrix matrix concatmatrix dup
      /cairo_font_matrix exch def dup 4 get exch 5 get cairo_store_point
      /cairo_font where { pop cairo_selectfont } if } bind def
/Tm { 2 copy 8 2 roll 6 array astore /cairo_font_matrix exch def
      cairo_store_point /cairo_font where { pop cairo_selectfont } if } bind def
/g { setgray } bind def
/rg { setrgbcolor } bind def
/d1 { setcachedevice } bind def
/cairo_data_source {
  CairoDataIndex CairoData length lt
    { CairoData CairoDataIndex get /CairoDataIndex CairoDataIndex 1 add def }
    { () } ifelse
} def
/cairo_flush_ascii85_file { cairo_ascii85_file status { cairo_ascii85_file flushfile } if } def
/cairo_image { image cairo_flush_ascii85_file } def
/cairo_imagemask { imagemask cairo_flush_ascii85_file } def
%%EndProlog
%%BeginSetup
%%EndSetup
%%Page: 1 1
%%BeginPageSetup
%%PageBoundingBox: 4 0 380 384
%%EndPageSetup
q 4 0 376 384 rectclip
1 0 0 -1 0 384 cm q
0 g
354.945 234.395 m 345.59 225.082 339.879 212.73 338.844 199.57 c 302.941
 183.109 287.184 140.664 303.645 104.762 c 306.625 98.254 310.566 92.234
 315.34 86.898 c 314.609 82.449 314.422 77.926 314.781 73.43 c 301.879 73.43
 l 298.766 73.43 296.246 70.906 296.246 67.797 c 296.246 64.684 298.766 
62.16 301.879 62.16 c 316.855 62.16 l 318.324 57.168 320.492 52.406 323.297
 48.02 c 295.648 23.527 261.484 7.598 224.953 2.16 c 215.414 0.727 205.785
 0.004 196.141 0 c 170.457 -0.004 145.031 5.168 121.391 15.203 c 127.527
 26.293 125.586 40.109 116.637 49.082 c 60.672 105.047 l 57.082 108.637 
57.082 114.453 60.672 118.039 c 64.258 121.629 70.078 121.629 73.664 118.039
 c 119.078 72.629 l 127.078 64.656 140.031 64.684 148.004 72.684 c 155.953
 80.668 155.953 93.574 148.004 101.555 c 116.562 132.992 l 112.973 136.582
 112.973 142.398 116.562 145.984 c 120.152 149.574 125.969 149.574 129.555
 145.984 c 139.93 135.613 l 171.07 104.473 221.555 104.473 252.691 135.613
 c 283.828 166.754 283.828 217.238 252.691 248.375 c 221.562 279.512 171.086
 279.516 139.949 248.387 c 116.707 225.148 110.105 190.027 123.332 159.938
 c 123.238 159.938 123.152 159.949 123.059 159.949 c 111.766 159.949 102.609
 150.789 102.609 139.496 c 102.613 134.07 104.766 128.867 108.602 125.035
 c 140.035 93.594 l 143.625 90.008 143.625 84.188 140.035 80.602 c 136.449
 77.012 130.633 77.012 127.043 80.602 c 81.625 126.012 l 73.77 134.125 60.824
 134.336 52.707 126.48 c 44.59 118.625 44.379 105.676 52.234 97.559 c 52.391
 97.398 52.551 97.242 52.711 97.086 c 108.676 41.121 l 114.305 35.473 115.305
 26.691 111.094 19.922 c 16.074 66.984 -22.801 182.16 24.262 277.18 c 71.324
 372.195 186.504 411.07 281.52 364.008 c 300.223 354.746 317.289 342.496
 332.051 327.738 c 354.125 305.676 370.488 278.562 379.727 248.754 c 370.344
 246.234 361.797 241.281 354.945 234.395 c h
183.891 42.379 m 165.258 42.379 l 162.148 42.379 159.625 39.855 159.625
 36.742 c 159.625 33.633 162.148 31.109 165.258 31.109 c 183.891 31.109 
l 187 31.109 189.523 33.633 189.523 36.742 c 189.523 39.855 187 42.379 183.891
 42.379 c h
205.047 95.738 m 205.047 98.852 202.523 101.371 199.414 101.371 c 196.301
 101.371 193.781 98.852 193.781 95.738 c 193.781 77.109 l 193.781 74 196.301
 71.477 199.414 71.477 c 202.523 71.477 205.047 74 205.047 77.109 c h
217.168 20.34 m 219.367 18.145 222.934 18.145 225.133 20.34 c 234.449 29.656
 l 236.676 31.828 236.727 35.395 234.555 37.621 c 232.387 39.852 228.82 
39.898 226.59 37.73 c 226.555 37.695 226.516 37.656 226.48 37.621 c 217.168
 28.305 l 214.973 26.105 214.973 22.543 217.168 20.34 c h
221.727 55.375 m 221.727 52.262 224.246 49.742 227.359 49.742 c 252.199
 49.742 l 255.312 49.742 257.832 52.262 257.832 55.375 c 257.832 58.484 
255.312 61.008 252.199 61.008 c 227.359 61.008 l 224.246 61.008 221.727 
58.484 221.727 55.375 c h
271.707 105.934 m 259.289 118.352 l 257.117 120.582 253.551 120.629 251.32
 118.461 c 249.094 116.293 249.043 112.727 251.215 110.496 c 251.25 110.461
 251.285 110.422 251.32 110.387 c 263.742 97.965 l 265.973 95.797 269.539
 95.844 271.707 98.074 c 273.836 100.262 273.836 103.746 271.707 105.934
 c h
302.758 192.867 m 296.547 199.078 l 294.309 201.238 290.742 201.176 288.582
 198.941 c 286.473 196.758 286.473 193.297 288.582 191.113 c 294.793 184.902
 l 296.953 182.668 300.52 182.605 302.758 184.766 c 304.996 186.926 305.055
 190.492 302.895 192.73 c 302.852 192.777 302.805 192.824 302.758 192.867
 c h
310.316 233.238 m 308.117 231.039 308.117 227.473 310.316 225.273 c 325.414
 210.176 l 327.582 207.945 331.148 207.898 333.379 210.066 c 335.609 212.238
 335.656 215.805 333.488 218.031 c 333.453 218.07 333.414 218.105 333.379
 218.141 c 318.281 233.238 l 316.082 235.438 312.516 235.438 310.316 233.238
 c h
329.25 313.094 m 329.25 316.203 326.727 318.727 323.613 318.727 c 320.504
 318.727 317.98 316.203 317.98 313.094 c 317.98 288.25 l 317.98 285.141 
320.504 282.617 323.613 282.617 c 326.727 282.617 329.25 285.141 329.25 
288.25 c h
351.559 259.73 m 332.93 259.73 l 329.82 259.73 327.297 257.211 327.297 
254.098 c 327.297 250.988 329.82 248.465 332.93 248.465 c 351.559 248.465
 l 354.672 248.465 357.195 250.988 357.195 254.098 c 357.195 257.211 354.672
 259.73 351.559 259.73 c h
351.559 259.73 m f
244.723 240.41 m 271.465 213.672 271.465 170.32 244.723 143.582 c 217.984
 116.844 174.633 116.84 147.895 143.582 c 121.156 170.32 121.156 213.672
 147.895 240.41 c 174.652 267.105 217.969 267.105 244.723 240.41 c h
244.723 240.41 m f
Q Q
showpage
%%Trailer
end
%%EOF
