%!PS-Adobe-3.0 EPSF-3.0
%%Creator: cairo 1.16.0 (https://cairographics.org)
%%CreationDate: Mon Sep 23 08:21:33 2019
%%Pages: 1
%%DocumentData: Clean7Bit
%%LanguageLevel: 2
%%BoundingBox: 0 0 384 384
%%EndComments
%%BeginProlog
50 dict begin
/q { gsave } bind def
/Q { grestore } bind def
/cm { 6 array astore concat } bind def
/w { setlinewidth } bind def
/J { setlinecap } bind def
/j { setlinejoin } bind def
/M { setmiterlimit } bind def
/d { setdash } bind def
/m { moveto } bind def
/l { lineto } bind def
/c { curveto } bind def
/h { closepath } bind def
/re { exch dup neg 3 1 roll 5 3 roll moveto 0 rlineto
      0 exch rlineto 0 rlineto closepath } bind def
/S { stroke } bind def
/f { fill } bind def
/f* { eofill } bind def
/n { newpath } bind def
/W { clip } bind def
/W* { eoclip } bind def
/BT { } bind def
/ET { } bind def
/BDC { mark 3 1 roll /BDC pdfmark } bind def
/EMC { mark /EMC pdfmark } bind def
/cairo_store_point { /cairo_point_y exch def /cairo_point_x exch def } def
/Tj { show currentpoint cairo_store_point } bind def
/TJ {
  {
    dup
    type /stringtype eq
    { show } { -0.001 mul 0 cairo_font_matrix dtransform rmoveto } ifelse
  } forall
  currentpoint cairo_store_point
} bind def
/cairo_selectfont { cairo_font_matrix aload pop pop pop 0 0 6 array astore
    cairo_font exch selectfont cairo_point_x cairo_point_y moveto } bind def
/Tf { pop /cairo_font exch def /cairo_font_matrix where
      { pop cairo_selectfont } if } bind def
/Td { matrix translate cairo_font_matrix matrix concatmatrix dup
      /cairo_font_matrix exch def dup 4 get exch 5 get cairo_store_point
      /cairo_font where { pop cairo_selectfont } if } bind def
/Tm { 2 copy 8 2 roll 6 array astore /cairo_font_matrix exch def
      cairo_store_point /cairo_font where { pop cairo_selectfont } if } bind def
/g { setgray } bind def
/rg { setrgbcolor } bind def
/d1 { setcachedevice } bind def
/cairo_data_source {
  CairoDataIndex CairoData length lt
    { CairoData CairoDataIndex get /CairoDataIndex CairoDataIndex 1 add def }
    { () } ifelse
} def
/cairo_flush_ascii85_file { cairo_ascii85_file status { cairo_ascii85_file flushfile } if } def
/cairo_image { image cairo_flush_ascii85_file } def
/cairo_imagemask { imagemask cairo_flush_ascii85_file } def
%%EndProlog
%%BeginSetup
%%EndSetup
%%Page: 1 1
%%BeginPageSetup
%%PageBoundingBox: 0 0 384 384
%%EndPageSetup
q 0 0 384 384 rectclip
1 0 0 -1 0 384 cm q
0 g
192.02 383.957 m 242.957 384.098 291.832 363.852 327.754 327.734 c 332.527
 322.957 337.047 317.938 341.301 312.695 c 322.668 302.441 l 321.734 302.07
 l 308.895 296.992 296.77 292.195 272.152 318.559 c 270.719 320.094 269.051
 322.93 267.117 326.211 c 260.816 336.918 251.293 353.094 229.48 360.152
 c 213.062 365.465 199.414 367.711 187.992 367.711 c 148.203 367.711 135.402
 340.492 126.238 321.012 c 125.062 318.512 123.953 316.148 122.844 313.965
 c 112.602 293.777 100.598 286.121 82.426 274.531 c 79.75 272.828 76.965
 271.051 74.059 269.152 c 57.133 258.105 44.672 245.32 37.027 231.152 c 
25.531 209.848 24.98 185.863 35.387 159.863 c 51.66 119.215 36.184 98.625
 28.434 91.441 c -27.074 181.797 1.176 300.043 91.531 355.551 c 121.758 
374.125 156.539 383.957 192.02 383.957 c h
192.02 383.957 m f
269.398 192 m 269.398 234.734 234.754 269.379 192.02 269.379 c 149.281 
269.379 114.637 234.734 114.637 192 c 114.637 149.262 149.281 114.617 192.02
 114.617 c 212.539 114.617 232.223 122.77 246.734 137.281 c 261.246 151.793
 269.398 171.477 269.398 192 c h
269.398 192 m f
192.02 0.039 m 141.078 -0.098 92.203 20.148 56.281 56.266 c 48.012 64.531
 40.508 73.523 33.855 83.141 c 39.117 87.789 43.398 93.445 46.438 99.773
 c 52.34 111.934 56.797 132.863 44.523 163.523 c 35.254 186.68 35.645 207.863
 45.688 226.473 c 52.543 239.18 63.898 250.766 79.438 260.91 c 82.312 262.789
 85.07 264.547 87.715 266.234 c 106.551 278.246 120.16 286.926 131.621 309.512
 c 132.793 311.828 133.938 314.254 135.148 316.824 c 146.699 341.379 161.07
 371.941 226.449 350.785 c 244.707 344.879 252.758 331.203 258.633 321.215
 c 260.859 317.434 262.785 314.168 264.957 311.84 c 294.148 280.574 311.449
 287.418 325.355 292.918 c 327.141 293.664 l 347.375 304.797 l 409.656 218.984
 390.586 98.934 304.773 36.652 c 271.992 12.859 232.523 0.043 192.02 0.039
 c h
235.355 47.809 m 237.277 45.887 240.395 45.887 242.316 47.809 c 255.852
 61.344 l 257.801 63.238 257.84 66.355 255.945 68.305 c 254.051 70.25 250.934
 70.293 248.984 68.398 c 248.953 68.367 248.922 68.336 248.891 68.305 c 
235.355 54.77 l 233.434 52.848 233.434 49.73 235.355 47.809 c h
162.617 22.012 m 187.98 22.012 l 190.699 22.012 192.906 24.215 192.906 
26.934 c 192.906 29.652 190.699 31.855 187.98 31.855 c 162.617 31.855 l 
159.898 31.855 157.695 29.652 157.695 26.934 c 157.695 24.215 159.898 22.012
 162.617 22.012 c h
137.477 73.434 m 156.906 73.434 l 159.625 73.434 161.828 75.637 161.828
 78.355 c 161.828 81.074 159.625 83.277 156.906 83.277 c 137.48 83.277 l
 134.762 83.277 132.559 81.074 132.559 78.355 c 132.559 75.637 134.762 73.434
 137.48 73.434 c h
91.832 225.176 m 90.922 227.734 88.109 229.066 85.555 228.156 c 85.551 
228.156 85.543 228.152 85.539 228.152 c 69.273 222.328 l 66.711 221.41 65.379
 218.594 66.297 216.031 c 67.211 213.473 70.031 212.141 72.59 213.059 c 
88.859 218.883 l 91.418 219.797 92.75 222.613 91.832 225.176 c h
71.188 151.977 m 76.332 138.852 l 77.305 136.316 80.152 135.047 82.691 
136.023 c 85.227 137 86.496 139.848 85.52 142.383 c 85.512 142.402 85.504
 142.422 85.496 142.441 c 80.355 155.566 l 79.363 158.102 76.508 159.348
 73.977 158.355 c 71.445 157.363 70.195 154.508 71.188 151.977 c h
91.871 56.645 m 77.016 71.922 l 75.078 73.828 71.961 73.805 70.055 71.867
 c 68.203 69.992 68.164 66.988 69.961 65.059 c 84.816 49.781 l 86.668 47.793
 89.781 47.684 91.77 49.535 c 93.762 51.387 93.871 54.504 92.016 56.492 
c 91.969 56.543 91.918 56.594 91.871 56.645 c h
163.297 304.93 m 161.375 306.852 158.258 306.852 156.336 304.93 c 145.16
 293.75 l 143.254 291.812 143.277 288.695 145.215 286.789 c 147.133 284.906
 150.203 284.906 152.121 286.789 c 163.297 297.969 l 165.219 299.891 165.219
 303.008 163.297 304.93 c h
232.508 317.543 m 215.406 317.543 l 212.688 317.543 210.484 315.34 210.484
 312.621 c 210.484 309.902 212.688 307.699 215.406 307.699 c 232.508 307.699
 l 235.227 307.699 237.43 309.902 237.43 312.621 c 237.43 315.34 235.223
 317.543 232.508 317.543 c h
192.02 279.227 m 143.844 279.227 104.793 240.172 104.793 192 c 104.789 
143.828 143.844 104.773 192.016 104.773 c 240.188 104.773 279.242 143.824
 279.242 192 c 279.188 240.148 240.168 279.172 192.02 279.227 c h
295.242 108.527 m 292.523 108.531 290.316 106.328 290.316 103.609 c 290.312
 102.043 291.059 100.566 292.324 99.641 c 310.512 86.273 l 312.703 84.664
 315.785 85.133 317.395 87.324 c 319.004 89.516 318.531 92.598 316.344 94.207
 c 298.152 107.57 l 297.309 108.195 296.289 108.527 295.242 108.527 c h
299.547 144.391 m 301.363 142.367 304.473 142.195 306.5 144.008 c 320.117
 156.203 l 322.184 157.969 322.426 161.074 320.66 163.141 c 318.895 165.211
 315.789 165.453 313.723 163.688 c 313.664 163.641 313.609 163.59 313.555
 163.535 c 299.938 151.34 l 297.91 149.527 297.738 146.418 299.547 144.391
 c h
335.492 202.227 m 360.207 197.633 l 362.879 197.137 365.449 198.898 365.945
 201.574 c 366.441 204.246 364.676 206.816 362.004 207.312 c 337.289 211.902
 l 334.617 212.398 332.047 210.633 331.551 207.961 c 331.055 205.289 332.816
 202.719 335.492 202.223 c h
332.398 247.461 m 333.32 250.02 331.992 252.84 329.438 253.762 c 312.234
 259.961 l 309.68 260.883 306.859 259.555 305.938 257 c 305.016 254.441 
306.34 251.621 308.898 250.699 c 326.098 244.5 l 328.656 243.578 331.477
 244.906 332.398 247.465 c h
332.398 247.461 m f
Q Q
showpage
%%Trailer
end
%%EOF
