%!PS-Adobe-3.0 EPSF-3.0
%%Creator: cairo 1.16.0 (https://cairographics.org)
%%CreationDate: Mon Sep 23 08:21:33 2019
%%Pages: 1
%%DocumentData: Clean7Bit
%%LanguageLevel: 2
%%BoundingBox: 0 0 384 384
%%EndComments
%%BeginProlog
50 dict begin
/q { gsave } bind def
/Q { grestore } bind def
/cm { 6 array astore concat } bind def
/w { setlinewidth } bind def
/J { setlinecap } bind def
/j { setlinejoin } bind def
/M { setmiterlimit } bind def
/d { setdash } bind def
/m { moveto } bind def
/l { lineto } bind def
/c { curveto } bind def
/h { closepath } bind def
/re { exch dup neg 3 1 roll 5 3 roll moveto 0 rlineto
      0 exch rlineto 0 rlineto closepath } bind def
/S { stroke } bind def
/f { fill } bind def
/f* { eofill } bind def
/n { newpath } bind def
/W { clip } bind def
/W* { eoclip } bind def
/BT { } bind def
/ET { } bind def
/BDC { mark 3 1 roll /BDC pdfmark } bind def
/EMC { mark /EMC pdfmark } bind def
/cairo_store_point { /cairo_point_y exch def /cairo_point_x exch def } def
/Tj { show currentpoint cairo_store_point } bind def
/TJ {
  {
    dup
    type /stringtype eq
    { show } { -0.001 mul 0 cairo_font_matrix dtransform rmoveto } ifelse
  } forall
  currentpoint cairo_store_point
} bind def
/cairo_selectfont { cairo_font_matrix aload pop pop pop 0 0 6 array astore
    cairo_font exch selectfont cairo_point_x cairo_point_y moveto } bind def
/Tf { pop /cairo_font exch def /cairo_font_matrix where
      { pop cairo_selectfont } if } bind def
/Td { matrix translate cairo_font_matrix matrix concatmatrix dup
      /cairo_font_matrix exch def dup 4 get exch 5 get cairo_store_point
      /cairo_font where { pop cairo_selectfont } if } bind def
/Tm { 2 copy 8 2 roll 6 array astore /cairo_font_matrix exch def
      cairo_store_point /cairo_font where { pop cairo_selectfont } if } bind def
/g { setgray } bind def
/rg { setrgbcolor } bind def
/d1 { setcachedevice } bind def
/cairo_data_source {
  CairoDataIndex CairoData length lt
    { CairoData CairoDataIndex get /CairoDataIndex CairoDataIndex 1 add def }
    { () } ifelse
} def
/cairo_flush_ascii85_file { cairo_ascii85_file status { cairo_ascii85_file flushfile } if } def
/cairo_image { image cairo_flush_ascii85_file } def
/cairo_imagemask { imagemask cairo_flush_ascii85_file } def
%%EndProlog
%%BeginSetup
%%EndSetup
%%Page: 1 1
%%BeginPageSetup
%%PageBoundingBox: 0 0 384 384
%%EndPageSetup
q 0 0 384 384 rectclip
1 0 0 -1 0 384 cm q
0 g
123.031 338.184 m 123.039 343.465 127.316 347.742 132.594 347.746 c 134.727
 347.746 l 140.008 347.742 144.285 343.465 144.293 338.184 c 144.293 255.133
 l 123.031 255.133 l h
123.031 338.184 m f
265.594 88.383 m 265.668 62.402 246.023 40.605 220.176 37.988 c 219.664
 198.199 l 265.234 198.336 l h
265.594 88.383 m f
227.875 347.746 m 232.328 347.824 236.008 344.285 236.102 339.832 c 236.102
 208.09 l 219.648 208.039 l 219.648 339.832 l 219.742 344.285 223.418 347.824
 227.875 347.746 c h
227.875 347.746 m f
0 384 m 384 384 l 384 0 l 0 0 l h
209.805 203.27 m 209.812 203.27 l 209.812 203.211 209.805 203.148 209.805
 203.086 c 210.348 32.797 l 210.355 30.086 212.559 27.891 215.273 27.891
 c 215.281 27.891 l 248.605 27.988 275.539 55.082 275.441 88.406 c 275.441
 88.414 l 275.066 203.285 l 275.059 205.996 272.855 208.191 270.145 208.191
 c 270.129 208.191 l 245.949 208.117 l 245.949 339.832 l 245.773 349.812
 237.535 357.758 227.555 357.582 c 217.824 357.406 209.98 349.562 209.805
 339.832 c h
142.176 31.328 m 142.176 28.609 144.379 26.406 147.098 26.406 c 149.816
 26.406 152.02 28.609 152.02 31.328 c 152.02 98.168 l 152.02 100.887 149.816
 103.09 147.098 103.09 c 144.379 103.09 142.176 100.887 142.176 98.168 c
 h
116.621 31.328 m 116.621 28.609 118.824 26.406 121.547 26.406 c 124.266
 26.406 126.469 28.609 126.469 31.328 c 126.469 98.168 l 126.469 100.887
 124.266 103.09 121.547 103.09 c 118.824 103.09 116.621 100.887 116.621 
98.168 c h
90.941 31.328 m 90.941 28.609 93.145 26.406 95.863 26.406 c 98.582 26.406
 100.785 28.609 100.785 31.328 c 100.785 88.977 l 100.695 107.504 115.641
 122.598 134.168 122.688 c 152.695 122.777 167.789 107.832 167.879 89.305
 c 167.883 89.195 167.883 89.086 167.879 88.977 c 167.879 31.328 l 167.879
 28.609 170.086 26.406 172.805 26.406 c 175.523 26.406 177.727 28.609 177.727
 31.328 c 177.727 88.977 l 177.699 111.027 161.152 129.562 139.246 132.082
 c 138.934 245.285 l 149.211 245.285 l 151.93 245.285 154.133 247.488 154.133
 250.207 c 154.133 338.184 l 154.121 348.898 145.441 357.578 134.727 357.594
 c 132.594 357.594 l 121.879 357.582 113.199 348.898 113.188 338.184 c 113.188
 250.207 l 113.188 247.488 115.391 245.285 118.109 245.285 c 129.09 245.285
 l 129.398 132.082 l 107.5 129.547 90.973 111.02 90.941 88.977 c h
90.941 31.328 m f
Q Q
showpage
%%Trailer
end
%%EOF
