%!PS-Adobe-3.0 EPSF-3.0
%%Creator: cairo 1.16.0 (https://cairographics.org)
%%CreationDate: Mon Sep 23 08:21:34 2019
%%Pages: 1
%%DocumentData: Clean7Bit
%%LanguageLevel: 2
%%BoundingBox: 62 0 322 384
%%EndComments
%%BeginProlog
50 dict begin
/q { gsave } bind def
/Q { grestore } bind def
/cm { 6 array astore concat } bind def
/w { setlinewidth } bind def
/J { setlinecap } bind def
/j { setlinejoin } bind def
/M { setmiterlimit } bind def
/d { setdash } bind def
/m { moveto } bind def
/l { lineto } bind def
/c { curveto } bind def
/h { closepath } bind def
/re { exch dup neg 3 1 roll 5 3 roll moveto 0 rlineto
      0 exch rlineto 0 rlineto closepath } bind def
/S { stroke } bind def
/f { fill } bind def
/f* { eofill } bind def
/n { newpath } bind def
/W { clip } bind def
/W* { eoclip } bind def
/BT { } bind def
/ET { } bind def
/BDC { mark 3 1 roll /BDC pdfmark } bind def
/EMC { mark /EMC pdfmark } bind def
/cairo_store_point { /cairo_point_y exch def /cairo_point_x exch def } def
/Tj { show currentpoint cairo_store_point } bind def
/TJ {
  {
    dup
    type /stringtype eq
    { show } { -0.001 mul 0 cairo_font_matrix dtransform rmoveto } ifelse
  } forall
  currentpoint cairo_store_point
} bind def
/cairo_selectfont { cairo_font_matrix aload pop pop pop 0 0 6 array astore
    cairo_font exch selectfont cairo_point_x cairo_point_y moveto } bind def
/Tf { pop /cairo_font exch def /cairo_font_matrix where
      { pop cairo_selectfont } if } bind def
/Td { matrix translate cairo_font_matrix matrix concatmatrix dup
      /cairo_font_matrix exch def dup 4 get exch 5 get cairo_store_point
      /cairo_font where { pop cairo_selectfont } if } bind def
/Tm { 2 copy 8 2 roll 6 array astore /cairo_font_matrix exch def
      cairo_store_point /cairo_font where { pop cairo_selectfont } if } bind def
/g { setgray } bind def
/rg { setrgbcolor } bind def
/d1 { setcachedevice } bind def
/cairo_data_source {
  CairoDataIndex CairoData length lt
    { CairoData CairoDataIndex get /CairoDataIndex CairoDataIndex 1 add def }
    { () } ifelse
} def
/cairo_flush_ascii85_file { cairo_ascii85_file status { cairo_ascii85_file flushfile } if } def
/cairo_image { image cairo_flush_ascii85_file } def
/cairo_imagemask { imagemask cairo_flush_ascii85_file } def
%%EndProlog
%%BeginSetup
%%EndSetup
%%Page: 1 1
%%BeginPageSetup
%%PageBoundingBox: 62 0 322 384
%%EndPageSetup
q 62 0 260 384 rectclip
1 0 0 -1 0 384 cm q
0 g
172.574 187.691 m 181.957 19.207 l 163.25 19.207 l 161.957 180.672 l 165.219
 183.375 168.758 185.723 172.523 187.668 c h
172.574 187.691 m f
182.223 191.652 m 187.887 193.398 193.781 194.281 199.707 194.27 c 201.461
 194.27 203.219 194.18 204.961 194.027 c 215.508 1.246 l 192.895 0 l h
182.223 191.652 m f
214.926 192.289 m 224.312 189.797 232.941 185.027 240.043 178.398 c 240.078
 178.367 240.113 178.332 240.148 178.297 c 254.406 14.281 l 224.664 14.281
 l h
214.926 192.289 m f
140.523 139.184 m 141.34 150.496 145.387 161.332 152.188 170.406 c 153.551
 0.398 l 130.926 0.398 l 130.926 133.043 l 133.945 133.043 l 137.402 133.062
 140.266 135.734 140.523 139.184 c h
140.523 139.184 m f
314.09 3.137 m 291.559 0.168 l 271.219 133.043 l 297.309 133.043 l h
314.09 3.137 m f
251.258 164.238 m 251.934 163.047 252.586 161.84 253.18 160.602 c 256.422
 153.887 258.363 146.617 258.898 139.184 c 259.023 137.527 259.762 135.977
 260.977 134.844 c 274.574 46.012 l 261.664 44.523 l h
251.258 164.238 m f
154.84 317.871 m 146.094 301.152 147.031 281.02 157.289 265.18 c 102.348
 266.027 l 112.773 318.129 l h
154.84 317.871 m f
301.883 262.961 m 243.559 263.859 l 249.617 272.598 252.871 282.977 252.887
 293.609 c 252.906 301.852 250.961 309.977 247.211 317.309 c 292.863 317.031
 l h
301.883 262.961 m f
321.91 142.895 m 268.441 142.895 l 264.918 172.793 242.52 197.004 212.984
 202.836 c 175.441 210.137 139.086 185.617 131.789 148.074 c 131.453 146.355
 131.188 144.629 130.984 142.895 c 77.703 142.895 l 100.379 256.207 l 165.742
 255.199 l 185.152 237.328 214.883 236.871 234.824 254.141 c 303.527 253.082
 l h
321.91 142.895 m f
200.879 335.891 m 224.191 335.852 243.062 316.922 243.035 293.609 c 243.023
 281.895 238.168 270.707 229.621 262.695 c 212.512 246.859 185.801 247.891
 169.965 265.004 c 154.129 282.113 155.16 308.824 172.273 324.66 c 180.059
 331.863 190.273 335.875 200.879 335.891 c h
200.879 335.891 m f
291.219 326.891 m 240.633 327.203 l 222.219 349.156 189.492 352.027 167.535
 333.609 c 165.379 331.801 163.371 329.82 161.539 327.684 c 114.742 327.969
 l 125.957 384 l 281.695 384 l h
291.219 326.891 m f
103.527 133.043 m 80.938 16.887 l 62.09 21.73 l 89.289 133.043 l h
103.527 133.043 m f
Q Q
showpage
%%Trailer
end
%%EOF
