%!PS-Adobe-3.0 EPSF-3.0
%%Creator: cairo 1.16.0 (https://cairographics.org)
%%CreationDate: Mon Sep 23 08:21:34 2019
%%Pages: 1
%%DocumentData: Clean7Bit
%%LanguageLevel: 2
%%BoundingBox: 50 0 334 384
%%EndComments
%%BeginProlog
50 dict begin
/q { gsave } bind def
/Q { grestore } bind def
/cm { 6 array astore concat } bind def
/w { setlinewidth } bind def
/J { setlinecap } bind def
/j { setlinejoin } bind def
/M { setmiterlimit } bind def
/d { setdash } bind def
/m { moveto } bind def
/l { lineto } bind def
/c { curveto } bind def
/h { closepath } bind def
/re { exch dup neg 3 1 roll 5 3 roll moveto 0 rlineto
      0 exch rlineto 0 rlineto closepath } bind def
/S { stroke } bind def
/f { fill } bind def
/f* { eofill } bind def
/n { newpath } bind def
/W { clip } bind def
/W* { eoclip } bind def
/BT { } bind def
/ET { } bind def
/BDC { mark 3 1 roll /BDC pdfmark } bind def
/EMC { mark /EMC pdfmark } bind def
/cairo_store_point { /cairo_point_y exch def /cairo_point_x exch def } def
/Tj { show currentpoint cairo_store_point } bind def
/TJ {
  {
    dup
    type /stringtype eq
    { show } { -0.001 mul 0 cairo_font_matrix dtransform rmoveto } ifelse
  } forall
  currentpoint cairo_store_point
} bind def
/cairo_selectfont { cairo_font_matrix aload pop pop pop 0 0 6 array astore
    cairo_font exch selectfont cairo_point_x cairo_point_y moveto } bind def
/Tf { pop /cairo_font exch def /cairo_font_matrix where
      { pop cairo_selectfont } if } bind def
/Td { matrix translate cairo_font_matrix matrix concatmatrix dup
      /cairo_font_matrix exch def dup 4 get exch 5 get cairo_store_point
      /cairo_font where { pop cairo_selectfont } if } bind def
/Tm { 2 copy 8 2 roll 6 array astore /cairo_font_matrix exch def
      cairo_store_point /cairo_font where { pop cairo_selectfont } if } bind def
/g { setgray } bind def
/rg { setrgbcolor } bind def
/d1 { setcachedevice } bind def
/cairo_data_source {
  CairoDataIndex CairoData length lt
    { CairoData CairoDataIndex get /CairoDataIndex CairoDataIndex 1 add def }
    { () } ifelse
} def
/cairo_flush_ascii85_file { cairo_ascii85_file status { cairo_ascii85_file flushfile } if } def
/cairo_image { image cairo_flush_ascii85_file } def
/cairo_imagemask { imagemask cairo_flush_ascii85_file } def
%%EndProlog
%%BeginSetup
%%EndSetup
%%Page: 1 1
%%BeginPageSetup
%%PageBoundingBox: 50 0 334 384
%%EndPageSetup
q 50 0 284 384 rectclip
1 0 0 -1 0 384 cm q
0 g
74.359 72.91 m 74.258 73.621 74.754 74.277 75.461 74.375 c 75.875 74.434
 76.289 74.289 76.578 73.988 c 77.352 71.801 l 75.031 71.945 l 74.668 72.141
 74.414 72.5 74.359 72.91 c h
74.359 72.91 m f
91.113 98.094 m 90.773 96.906 90.602 95.684 90.598 94.449 c 90.598 60.781
 l 90.605 53.348 96.629 47.32 104.066 47.312 c 150.023 47.312 l 146.09 20.051
 120.797 1.133 93.531 5.066 c 66.27 9 47.355 34.293 51.289 61.559 c 53.797
 78.957 65.285 93.754 81.523 100.5 c 84.602 99.285 87.824 98.477 91.113 
98.094 c h
128.582 23.074 m 134.816 23.945 139.164 29.707 138.293 35.941 c 137.652
 40.508 134.324 44.238 129.863 45.395 c 129.547 45.477 129.23 45.527 128.906
 45.547 c 118.301 46.203 l 118.195 46.207 118.094 46.211 117.988 46.211 
c 115.199 46.211 112.938 43.949 112.941 41.16 c 112.941 40.586 113.039 40.02
 113.227 39.477 c 116.777 29.461 l 116.883 29.156 117.02 28.863 117.184 
28.586 c 119.512 24.605 124.016 22.43 128.582 23.074 c h
98.926 12.773 m 103.953 8.992 111.094 9.992 114.887 15.012 c 117.672 18.691
 117.957 23.684 115.609 27.656 c 115.445 27.934 115.254 28.199 115.043 28.441
 c 108.004 36.402 l 106.156 38.492 102.965 38.691 100.875 36.844 c 100.367
 36.395 99.953 35.848 99.66 35.234 c 95.082 25.637 l 94.945 25.348 94.832
 25.043 94.754 24.73 c 93.59 20.266 95.238 15.543 98.926 12.773 c h
70.668 26.465 m 71.547 20.23 77.309 15.891 83.539 16.758 c 88.109 17.391
 91.848 20.719 92.996 25.188 c 93.074 25.504 93.125 25.82 93.145 26.145 
c 93.801 36.75 l 93.973 39.535 91.855 41.93 89.07 42.102 c 88.395 42.145
 87.715 42.047 87.074 41.82 c 77.059 38.273 l 76.754 38.168 76.461 38.031
 76.184 37.867 c 72.199 35.539 70.023 31.031 70.668 26.465 c h
60.371 56.125 m 56.59 51.094 57.59 43.953 62.609 40.16 c 66.285 37.375 
71.281 37.09 75.254 39.438 c 75.531 39.602 75.793 39.793 76.035 40.004 c
 84 47.043 l 86.09 48.891 86.285 52.082 84.438 54.172 c 83.988 54.68 83.441
 55.094 82.828 55.387 c 73.234 59.965 l 72.941 60.102 72.637 60.215 72.324
 60.293 c 67.863 61.457 63.137 59.809 60.367 56.125 c h
74.062 84.379 m 67.824 83.504 63.477 77.746 64.352 71.508 c 64.988 66.941
 68.32 63.207 72.785 62.051 c 73.098 61.973 73.418 61.922 73.738 61.902 
c 84.348 61.246 l 87.129 61.074 89.527 63.191 89.699 65.977 c 89.738 66.652
 89.645 67.332 89.418 67.973 c 85.871 77.988 l 85.766 78.293 85.625 78.586
 85.461 78.867 c 83.422 82.348 79.691 84.484 75.656 84.484 c 75.121 84.484
 74.59 84.449 74.062 84.379 c h
74.062 84.379 m f
71.59 49.559 m 69.848 48.02 l 69.16 47.812 68.438 48.199 68.23 48.887 c
 68.109 49.281 68.184 49.707 68.43 50.039 c 68.68 50.371 69.074 50.562 69.492
 50.555 c h
71.59 49.559 m f
275.773 94.449 m 275.773 82.664 l 229.809 82.664 l 225.961 97.816 l 272.406
 97.816 l 274.266 97.816 275.773 96.309 275.773 94.449 c h
275.773 94.449 m f
219.387 82.664 m 100.699 82.664 l 100.699 94.449 l 100.699 96.309 102.207
 97.816 104.066 97.816 c 215.539 97.816 l h
219.387 82.664 m f
95.648 107.918 m 79.848 107.934 67.047 120.738 67.027 136.535 c 67.027 
186.594 l 71.391 184.672 74.719 181.637 78.41 178.262 c 85.125 172.117 92.742
 165.152 107.59 165.152 c 122.434 165.152 130.051 172.113 136.77 178.262
 c 142.906 183.875 148.207 188.723 159.133 188.723 c 170.059 188.723 175.363
 183.875 181.504 178.258 c 185.957 174.188 190.82 169.766 197.91 167.238
 c 212.977 107.914 l 95.648 107.914 l h
95.648 107.918 m f
280.824 107.918 m 223.395 107.918 l 208.848 165.207 l 209.457 165.184 210.059
 165.152 210.691 165.152 c 225.543 165.152 233.164 172.117 239.887 178.262
 c 246.031 183.875 251.332 188.723 262.266 188.723 c 273.199 188.723 278.496
 183.875 284.637 178.262 c 290.66 172.754 297.422 166.605 309.441 165.383
 c 309.441 136.535 l 309.426 120.738 296.625 107.934 280.824 107.918 c h
280.824 107.918 m f
128.285 34.543 m 128.383 33.832 127.891 33.176 127.18 33.078 c 126.77 33.016
 126.352 33.16 126.066 33.461 c 125.293 35.648 l 127.609 35.504 l 127.977
 35.312 128.227 34.953 128.285 34.543 c h
128.285 34.543 m f
83.246 29.754 m 83.102 27.438 l 82.766 26.805 81.98 26.562 81.348 26.902
 c 80.715 27.238 80.477 28.023 80.812 28.656 c 80.875 28.777 80.957 28.887
 81.055 28.98 c h
83.246 29.754 m f
107.027 22.254 m 107.238 21.57 106.852 20.844 106.164 20.637 c 105.48 20.426
 104.754 20.812 104.547 21.5 c 104.504 21.629 104.488 21.762 104.488 21.898
 c 105.488 23.996 l h
107.027 22.254 m f
100.699 60.781 m 100.699 72.566 l 221.953 72.566 l 225.328 59.27 l 225.484
 58.648 225.652 58.031 225.824 57.414 c 104.066 57.414 l 102.207 57.414 
100.699 58.922 100.699 60.781 c h
100.699 60.781 m f
232.371 72.566 m 275.773 72.566 l 275.773 60.781 l 275.773 58.922 274.266
 57.414 272.406 57.414 c 236.391 57.414 l 235.926 58.844 235.488 60.289 
235.117 61.758 c h
232.371 72.566 m f
262.262 198.824 m 247.41 198.824 239.789 191.863 233.07 185.715 c 226.926
 180.102 221.621 175.254 210.688 175.254 c 209.191 175.254 207.695 175.355
 206.215 175.566 c 161.316 352.398 l 160.629 355.105 157.883 356.738 155.18
 356.051 c 152.477 355.367 150.84 352.617 151.527 349.914 c 194.566 180.41
 l 192.391 182.062 190.305 183.836 188.32 185.715 c 181.602 191.859 173.984
 198.824 159.133 198.824 c 144.281 198.824 136.672 191.859 129.953 185.715
 c 123.812 180.102 118.512 175.254 107.59 175.254 c 96.664 175.254 91.363
 180.102 85.227 185.715 c 80.465 190.07 75.137 194.934 67.027 197.324 c 
67.027 338.547 l 67.059 363.637 87.391 383.973 112.48 384 c 263.992 384 
l 289.082 383.973 309.414 363.637 309.441 338.547 c 309.441 175.555 l 301.363
 176.68 296.711 180.91 291.453 185.715 c 284.738 191.859 277.117 198.824
 262.262 198.824 c h
72.516 277.465 m 72.516 274.676 74.773 272.418 77.562 272.418 c 87.465 
272.418 l 90.254 272.418 92.516 274.676 92.516 277.465 c 92.516 280.258 
90.254 282.516 87.465 282.516 c 77.566 282.516 l 74.777 282.516 72.516 280.258
 72.516 277.465 c h
94.566 340.293 m 81.203 340.293 l 78.414 340.293 76.152 338.031 76.152 
335.242 c 76.152 332.453 78.414 330.191 81.203 330.191 c 94.57 330.191 l
 97.359 330.191 99.621 332.453 99.621 335.242 c 99.621 338.031 97.359 340.293
 94.57 340.293 c h
125.57 370.418 m 113.691 370.418 l 110.902 370.418 108.641 368.156 108.641
 365.367 c 108.641 362.578 110.902 360.316 113.691 360.316 c 125.57 360.316
 l 128.359 360.316 130.617 362.578 130.617 365.367 c 130.617 368.156 128.359
 370.418 125.57 370.418 c h
138.168 305.902 m 126.289 305.902 l 123.5 305.902 121.238 303.641 121.238
 300.852 c 121.238 298.062 123.5 295.801 126.289 295.801 c 138.168 295.801
 l 140.957 295.801 143.219 298.062 143.219 300.852 c 143.219 303.641 140.957
 305.902 138.168 305.902 c h
198.406 352.258 m 188.508 352.258 l 185.719 352.258 183.457 349.996 183.457
 347.207 c 183.457 344.418 185.719 342.156 188.508 342.156 c 198.406 342.156
 l 201.195 342.156 203.457 344.418 203.457 347.207 c 203.457 349.996 201.195
 352.258 198.406 352.258 c h
214.246 305.902 m 204.348 305.902 l 201.559 305.902 199.297 303.641 199.297
 300.852 c 199.297 298.062 201.559 295.801 204.348 295.801 c 214.246 295.801
 l 217.035 295.801 219.297 298.062 219.297 300.852 c 219.297 303.641 217.035
 305.902 214.246 305.902 c h
245.922 372.945 m 232.066 372.945 l 229.277 372.945 227.016 370.684 227.016
 367.895 c 227.016 365.105 229.277 362.844 232.066 362.844 c 245.926 362.844
 l 248.715 362.844 250.977 365.105 250.977 367.895 c 250.977 370.684 248.715
 372.945 245.926 372.945 c h
252.754 268.328 m 252.754 265.535 255.012 263.277 257.801 263.277 c 271
 263.277 l 273.789 263.277 276.051 265.535 276.051 268.328 c 276.051 271.117
 273.789 273.375 271 273.375 c 257.801 273.375 l 255.012 273.375 252.754
 271.117 252.754 268.328 c h
277.605 325.488 m 263.086 325.488 l 260.293 325.488 258.035 323.227 258.035
 320.438 c 258.035 317.648 260.293 315.387 263.086 315.387 c 277.602 315.387
 l 280.391 315.387 282.652 317.648 282.652 320.438 c 282.652 323.227 280.391
 325.488 277.602 325.488 c h
277.605 325.488 m f
329.957 5.352 m 289.496 -10.363 243.961 9.695 228.246 50.156 c 227.32 52.535
 226.512 54.957 225.824 57.414 c 236.391 57.414 l 248.082 21.457 286.707
 1.781 322.668 13.473 c 323.891 13.871 325.102 14.301 326.297 14.77 c 328.887
 15.805 331.828 14.547 332.867 11.961 c 333.902 9.371 332.645 6.43 330.059
 5.395 c 330.023 5.379 329.988 5.367 329.957 5.352 c h
329.957 5.352 m f
Q Q
showpage
%%Trailer
end
%%EOF
