%!PS-Adobe-3.0 EPSF-3.0
%%Creator: cairo 1.16.0 (https://cairographics.org)
%%CreationDate: Mon Sep 23 08:21:35 2019
%%Pages: 1
%%DocumentData: Clean7Bit
%%LanguageLevel: 2
%%BoundingBox: 103 0 281 384
%%EndComments
%%BeginProlog
50 dict begin
/q { gsave } bind def
/Q { grestore } bind def
/cm { 6 array astore concat } bind def
/w { setlinewidth } bind def
/J { setlinecap } bind def
/j { setlinejoin } bind def
/M { setmiterlimit } bind def
/d { setdash } bind def
/m { moveto } bind def
/l { lineto } bind def
/c { curveto } bind def
/h { closepath } bind def
/re { exch dup neg 3 1 roll 5 3 roll moveto 0 rlineto
      0 exch rlineto 0 rlineto closepath } bind def
/S { stroke } bind def
/f { fill } bind def
/f* { eofill } bind def
/n { newpath } bind def
/W { clip } bind def
/W* { eoclip } bind def
/BT { } bind def
/ET { } bind def
/BDC { mark 3 1 roll /BDC pdfmark } bind def
/EMC { mark /EMC pdfmark } bind def
/cairo_store_point { /cairo_point_y exch def /cairo_point_x exch def } def
/Tj { show currentpoint cairo_store_point } bind def
/TJ {
  {
    dup
    type /stringtype eq
    { show } { -0.001 mul 0 cairo_font_matrix dtransform rmoveto } ifelse
  } forall
  currentpoint cairo_store_point
} bind def
/cairo_selectfont { cairo_font_matrix aload pop pop pop 0 0 6 array astore
    cairo_font exch selectfont cairo_point_x cairo_point_y moveto } bind def
/Tf { pop /cairo_font exch def /cairo_font_matrix where
      { pop cairo_selectfont } if } bind def
/Td { matrix translate cairo_font_matrix matrix concatmatrix dup
      /cairo_font_matrix exch def dup 4 get exch 5 get cairo_store_point
      /cairo_font where { pop cairo_selectfont } if } bind def
/Tm { 2 copy 8 2 roll 6 array astore /cairo_font_matrix exch def
      cairo_store_point /cairo_font where { pop cairo_selectfont } if } bind def
/g { setgray } bind def
/rg { setrgbcolor } bind def
/d1 { setcachedevice } bind def
/cairo_data_source {
  CairoDataIndex CairoData length lt
    { CairoData CairoDataIndex get /CairoDataIndex CairoDataIndex 1 add def }
    { () } ifelse
} def
/cairo_flush_ascii85_file { cairo_ascii85_file status { cairo_ascii85_file flushfile } if } def
/cairo_image { image cairo_flush_ascii85_file } def
/cairo_imagemask { imagemask cairo_flush_ascii85_file } def
%%EndProlog
%%BeginSetup
%%EndSetup
%%Page: 1 1
%%BeginPageSetup
%%PageBoundingBox: 103 0 281 384
%%EndPageSetup
q 103 0 178 384 rectclip
1 0 0 -1 0 384 cm q
0 g
275.449 374.398 m 217.98 374.398 l 218.043 374.094 218.074 373.777 218.074
 373.465 c 218.074 235.41 l 208.473 235.41 l 208.473 373.465 l 208.473 373.777
 208.504 374.094 208.562 374.398 c 151.098 374.398 l 148.445 374.398 146.297
 376.551 146.297 379.199 c 146.297 381.852 148.445 384 151.098 384 c 275.449
 384 l 278.102 384 280.25 381.852 280.25 379.199 c 280.25 376.551 278.102
 374.398 275.449 374.398 c h
275.449 374.398 m f
130.086 23.805 m 129.402 23.805 128.852 24.355 128.852 25.039 c 128.852
 25.434 129.039 25.805 129.359 26.039 c 131.52 26.477 l 131.078 24.316 l
 130.848 23.996 130.48 23.805 130.086 23.805 c h
130.086 23.805 m f
151.699 18.121 m 152.918 16.281 l 153.023 15.609 152.566 14.977 151.891
 14.871 c 151.219 14.766 150.586 15.223 150.48 15.895 c 150.461 16.023 150.461
 16.152 150.48 16.281 c h
151.699 18.121 m f
128.852 68.266 m 128.852 68.949 129.406 69.5 130.086 69.5 c 130.48 69.5
 130.852 69.312 131.082 68.992 c 131.523 66.832 l 129.363 67.273 l 129.043
 67.504 128.852 67.871 128.852 68.266 c h
128.852 68.266 m f
123.168 46.652 m 121.328 45.434 l 120.938 45.375 120.539 45.504 120.262
 45.781 c 119.781 46.262 119.781 47.043 120.262 47.523 c 120.539 47.805 
120.938 47.934 121.328 47.871 c h
123.168 46.652 m f
174.547 25.043 m 174.547 24.363 173.996 23.809 173.316 23.809 c 172.918
 23.809 172.547 23.996 172.316 24.316 c 171.875 26.477 l 174.039 26.039 
l 174.355 25.805 174.547 25.438 174.547 25.043 c h
174.547 25.043 m f
149.754 39.613 m 197.914 39.613 l 193.609 13.793 169.184 -3.652 143.363
 0.652 c 117.539 4.957 100.098 29.383 104.402 55.203 c 107.828 75.766 124.289
 91.672 144.953 94.402 c 144.953 44.414 l 144.953 41.762 147.102 39.613 
149.754 39.613 c h
163.305 20.895 m 165.594 15.367 171.934 12.742 177.461 15.031 c 182.988
 17.324 185.609 23.66 183.32 29.188 c 182.223 31.84 180.113 33.949 177.461
 35.047 c 177.176 35.164 176.883 35.254 176.578 35.316 c 166.68 37.332 l
 164.082 37.859 161.551 36.184 161.02 33.586 c 160.891 32.953 160.891 32.305
 161.02 31.672 c 163.035 21.773 l 163.098 21.473 163.188 21.176 163.305 
20.895 c h
113.473 54.312 m 109.242 50.082 109.242 43.223 113.473 38.992 c 116.566
 35.887 121.23 34.957 125.277 36.645 c 125.562 36.762 125.832 36.906 126.09
 37.074 c 134.512 42.648 l 136.723 44.109 137.332 47.09 135.867 49.301 c
 135.512 49.84 135.051 50.297 134.512 50.652 c 126.09 56.227 l 125.832 56.398
 125.562 56.543 125.277 56.66 c 121.23 58.344 116.566 57.418 113.473 54.312
 c h
142.379 61.637 m 140.363 71.535 l 140.301 71.836 140.211 72.129 140.094
 72.414 c 137.805 77.941 131.465 80.566 125.938 78.277 c 120.41 75.988 117.785
 69.648 120.074 64.121 c 121.176 61.465 123.285 59.359 125.938 58.258 c 
126.223 58.141 126.52 58.051 126.82 57.992 c 136.719 55.977 l 139.316 55.445
 141.848 57.125 142.379 59.723 c 142.508 60.352 142.508 61.004 142.379 61.637
 c h
141.07 36.023 m 139.93 37.16 138.297 37.652 136.719 37.332 c 126.82 35.316
 l 126.516 35.254 126.223 35.164 125.938 35.047 c 120.41 32.758 117.785 
26.422 120.078 20.895 c 122.367 15.363 128.703 12.738 134.23 15.031 c 136.887
 16.129 138.996 18.238 140.094 20.895 c 140.211 21.176 140.301 21.473 140.363
 21.773 c 142.379 31.672 l 142.699 33.25 142.207 34.883 141.07 36.023 c 
h
142.121 21.043 m 141.953 20.785 141.809 20.516 141.691 20.23 c 139.402 
14.703 142.023 8.367 147.551 6.074 c 151.602 4.398 156.262 5.324 159.359
 8.426 c 162.465 11.516 163.395 16.184 161.707 20.23 c 161.59 20.516 161.445
 20.785 161.277 21.043 c 155.703 29.465 l 154.238 31.676 151.262 32.285 
149.051 30.82 c 148.512 30.465 148.051 30.004 147.695 29.465 c h
142.121 21.043 m f
154.555 49.215 117.441 89.664 re f
154.555 172.133 m 154.586 204.418 180.75 230.578 213.035 230.613 c 213.523
 230.613 l 245.805 230.578 271.965 204.418 272 172.137 c 272 148.48 l 154.559
 148.48 l h
154.555 172.133 m f
Q Q
showpage
%%Trailer
end
%%EOF
