%!PS-Adobe-3.0 EPSF-3.0
%%Creator: cairo 1.16.0 (https://cairographics.org)
%%CreationDate: Mon Sep 23 08:21:36 2019
%%Pages: 1
%%DocumentData: Clean7Bit
%%LanguageLevel: 2
%%BoundingBox: 60 0 324 384
%%EndComments
%%BeginProlog
50 dict begin
/q { gsave } bind def
/Q { grestore } bind def
/cm { 6 array astore concat } bind def
/w { setlinewidth } bind def
/J { setlinecap } bind def
/j { setlinejoin } bind def
/M { setmiterlimit } bind def
/d { setdash } bind def
/m { moveto } bind def
/l { lineto } bind def
/c { curveto } bind def
/h { closepath } bind def
/re { exch dup neg 3 1 roll 5 3 roll moveto 0 rlineto
      0 exch rlineto 0 rlineto closepath } bind def
/S { stroke } bind def
/f { fill } bind def
/f* { eofill } bind def
/n { newpath } bind def
/W { clip } bind def
/W* { eoclip } bind def
/BT { } bind def
/ET { } bind def
/BDC { mark 3 1 roll /BDC pdfmark } bind def
/EMC { mark /EMC pdfmark } bind def
/cairo_store_point { /cairo_point_y exch def /cairo_point_x exch def } def
/Tj { show currentpoint cairo_store_point } bind def
/TJ {
  {
    dup
    type /stringtype eq
    { show } { -0.001 mul 0 cairo_font_matrix dtransform rmoveto } ifelse
  } forall
  currentpoint cairo_store_point
} bind def
/cairo_selectfont { cairo_font_matrix aload pop pop pop 0 0 6 array astore
    cairo_font exch selectfont cairo_point_x cairo_point_y moveto } bind def
/Tf { pop /cairo_font exch def /cairo_font_matrix where
      { pop cairo_selectfont } if } bind def
/Td { matrix translate cairo_font_matrix matrix concatmatrix dup
      /cairo_font_matrix exch def dup 4 get exch 5 get cairo_store_point
      /cairo_font where { pop cairo_selectfont } if } bind def
/Tm { 2 copy 8 2 roll 6 array astore /cairo_font_matrix exch def
      cairo_store_point /cairo_font where { pop cairo_selectfont } if } bind def
/g { setgray } bind def
/rg { setrgbcolor } bind def
/d1 { setcachedevice } bind def
/cairo_data_source {
  CairoDataIndex CairoData length lt
    { CairoData CairoDataIndex get /CairoDataIndex CairoDataIndex 1 add def }
    { () } ifelse
} def
/cairo_flush_ascii85_file { cairo_ascii85_file status { cairo_ascii85_file flushfile } if } def
/cairo_image { image cairo_flush_ascii85_file } def
/cairo_imagemask { imagemask cairo_flush_ascii85_file } def
%%EndProlog
%%BeginSetup
%%EndSetup
%%Page: 1 1
%%BeginPageSetup
%%PageBoundingBox: 60 0 324 384
%%EndPageSetup
q 60 0 264 384 rectclip
1 0 0 -1 0 384 cm q
0 g
323.195 72.82 m 323.18 56.625 310.055 43.5 293.859 43.48 c 90.141 43.48
 l 73.945 43.5 60.82 56.625 60.805 72.82 c 60.805 93.008 l 323.195 93.008
 l h
323.195 72.82 m f
285.516 26.484 m 284.105 11.43 271.438 -0.059 256.32 0 c 126.844 0 l 111.723
 -0.059 99.055 11.43 97.645 26.484 c 97.328 33.125 l 285.832 33.125 l h
285.516 26.484 m f
291.73 302.379 m 232.125 302.379 l 212.188 324.965 177.719 327.117 155.133
 307.18 c 153.434 305.68 151.832 304.078 150.332 302.379 c 91.43 302.379
 l 93.738 355.926 l 94.383 371.637 107.328 384.031 123.051 384 c 260.113
 384 l 275.836 384.031 288.777 371.637 289.422 355.926 c h
291.73 302.379 m f
88.789 241.121 m 90.984 292.023 l 143.098 292.023 l 134.613 276.164 134.406
 257.164 142.547 241.121 c h
88.789 241.121 m f
191.238 310.473 m 215.742 310.43 235.574 290.539 235.543 266.035 c 235.527
 253.723 230.426 241.965 221.445 233.543 c 203.461 216.898 175.387 217.984
 158.746 235.969 c 142.102 253.953 143.188 282.023 161.172 298.668 c 169.355
 306.242 180.09 310.457 191.238 310.473 c h
191.238 310.473 m f
300.312 103.359 m 82.852 103.359 l 88.344 230.77 l 149.426 230.77 l 150.477
 229.52 151.582 228.305 152.754 227.145 c 174.027 205.891 208.5 205.91 229.754
 227.184 c 230.898 228.328 231.992 229.523 233.031 230.77 c 294.82 230.77
 l h
300.312 103.359 m f
294.375 241.121 m 239.883 241.121 l 248.082 257.145 247.891 276.172 239.371
 292.023 c 292.18 292.023 l h
294.375 241.121 m f
Q Q
showpage
%%Trailer
end
%%EOF
