%!PS-Adobe-3.0 EPSF-3.0
%%Creator: cairo 1.16.0 (https://cairographics.org)
%%CreationDate: Mon Sep 23 08:21:37 2019
%%Pages: 1
%%DocumentData: Clean7Bit
%%LanguageLevel: 2
%%BoundingBox: 0 3 384 381
%%EndComments
%%BeginProlog
50 dict begin
/q { gsave } bind def
/Q { grestore } bind def
/cm { 6 array astore concat } bind def
/w { setlinewidth } bind def
/J { setlinecap } bind def
/j { setlinejoin } bind def
/M { setmiterlimit } bind def
/d { setdash } bind def
/m { moveto } bind def
/l { lineto } bind def
/c { curveto } bind def
/h { closepath } bind def
/re { exch dup neg 3 1 roll 5 3 roll moveto 0 rlineto
      0 exch rlineto 0 rlineto closepath } bind def
/S { stroke } bind def
/f { fill } bind def
/f* { eofill } bind def
/n { newpath } bind def
/W { clip } bind def
/W* { eoclip } bind def
/BT { } bind def
/ET { } bind def
/BDC { mark 3 1 roll /BDC pdfmark } bind def
/EMC { mark /EMC pdfmark } bind def
/cairo_store_point { /cairo_point_y exch def /cairo_point_x exch def } def
/Tj { show currentpoint cairo_store_point } bind def
/TJ {
  {
    dup
    type /stringtype eq
    { show } { -0.001 mul 0 cairo_font_matrix dtransform rmoveto } ifelse
  } forall
  currentpoint cairo_store_point
} bind def
/cairo_selectfont { cairo_font_matrix aload pop pop pop 0 0 6 array astore
    cairo_font exch selectfont cairo_point_x cairo_point_y moveto } bind def
/Tf { pop /cairo_font exch def /cairo_font_matrix where
      { pop cairo_selectfont } if } bind def
/Td { matrix translate cairo_font_matrix matrix concatmatrix dup
      /cairo_font_matrix exch def dup 4 get exch 5 get cairo_store_point
      /cairo_font where { pop cairo_selectfont } if } bind def
/Tm { 2 copy 8 2 roll 6 array astore /cairo_font_matrix exch def
      cairo_store_point /cairo_font where { pop cairo_selectfont } if } bind def
/g { setgray } bind def
/rg { setrgbcolor } bind def
/d1 { setcachedevice } bind def
/cairo_data_source {
  CairoDataIndex CairoData length lt
    { CairoData CairoDataIndex get /CairoDataIndex CairoDataIndex 1 add def }
    { () } ifelse
} def
/cairo_flush_ascii85_file { cairo_ascii85_file status { cairo_ascii85_file flushfile } if } def
/cairo_image { image cairo_flush_ascii85_file } def
/cairo_imagemask { imagemask cairo_flush_ascii85_file } def
%%EndProlog
%%BeginSetup
%%EndSetup
%%Page: 1 1
%%BeginPageSetup
%%PageBoundingBox: 0 3 384 381
%%EndPageSetup
q 0 3 384 378 rectclip
1 0 0 -1 0 384 cm q
0 g
78.773 107.645 m 74.188 110.453 67.902 114.305 67.902 122.281 c 67.902 
125 70.109 127.203 72.828 127.203 c 75.547 127.203 77.75 125 77.75 122.281
 c 77.75 120.051 79.629 118.668 83.918 116.039 c 88.504 113.227 94.785 109.379
 94.785 101.402 c 94.785 93.422 88.504 89.574 83.918 86.762 c 79.629 84.137
 77.75 82.75 77.75 80.52 c 77.75 78.289 79.629 76.902 83.918 74.273 c 88.504
 71.465 94.785 67.613 94.785 59.637 c 94.785 51.66 88.504 47.809 83.918 
44.996 c 79.629 42.371 77.75 40.984 77.75 38.754 c 77.75 36.52 79.629 35.137
 83.918 32.508 c 88.504 29.695 94.785 25.844 94.785 17.867 c 94.785 15.148
 92.582 12.945 89.863 12.945 c 87.145 12.945 84.941 15.148 84.941 17.867
 c 84.941 20.098 83.059 21.484 78.773 24.113 c 74.188 26.922 67.902 30.773
 67.902 38.754 c 67.902 46.73 74.188 50.582 78.773 53.391 c 83.059 56.02
 84.941 57.406 84.941 59.637 c 84.941 61.867 83.062 63.254 78.773 65.879
 c 74.188 68.691 67.902 72.543 67.902 80.52 c 67.902 88.496 74.188 92.348
 78.773 95.156 c 83.059 97.781 84.941 99.168 84.941 101.402 c 84.941 103.633
 83.062 105.016 78.773 107.645 c h
78.773 107.645 m f
231.457 32.508 m 236.043 29.695 242.324 25.844 242.324 17.867 c 242.324
 15.148 240.121 12.945 237.402 12.945 c 234.684 12.945 232.48 15.148 232.48
 17.867 c 232.48 20.098 230.602 21.484 226.312 24.113 c 221.727 26.922 215.445
 30.773 215.445 38.754 c 215.445 46.73 221.727 50.582 226.312 53.391 c 230.602
 56.02 232.48 57.406 232.48 59.637 c 232.48 61.867 230.602 63.254 226.312
 65.879 c 221.727 68.691 215.445 72.543 215.445 80.52 c 215.445 88.496 221.727
 92.348 226.312 95.156 c 230.602 97.781 232.48 99.168 232.48 101.402 c 232.48
 103.633 230.602 105.016 226.312 107.645 c 221.727 110.453 215.445 114.305
 215.445 122.281 c 215.445 125 217.648 127.203 220.367 127.203 c 223.086
 127.203 225.289 125 225.289 122.281 c 225.289 120.051 227.168 118.668 231.457
 116.039 c 236.043 113.227 242.324 109.379 242.324 101.402 c 242.324 93.422
 236.043 89.574 231.457 86.762 c 227.168 84.137 225.289 82.75 225.289 80.52
 c 225.289 78.289 227.168 76.902 231.457 74.273 c 236.043 71.465 242.324
 67.613 242.324 59.637 c 242.324 51.66 236.047 47.809 231.457 44.996 c 227.168
 42.371 225.289 40.984 225.289 38.754 c 225.289 36.52 227.168 35.137 231.457
 32.508 c h
231.457 32.508 m f
152.371 106.77 m 147.855 109.797 141.672 113.945 141.672 122.281 c 141.672
 125 143.875 127.203 146.594 127.203 c 149.312 127.203 151.516 125 151.516
 122.281 c 151.516 119.477 153.352 117.965 157.855 114.949 c 162.355 111.93
 168.555 107.773 168.555 99.434 c 168.555 91.098 162.367 86.949 157.855 
83.926 c 153.34 80.902 151.516 79.398 151.516 76.594 c 151.516 73.785 153.352
 72.277 157.855 69.258 c 162.359 66.238 168.555 62.082 168.555 53.75 c 168.555
 45.418 162.371 41.262 157.855 38.234 c 153.34 35.207 151.516 33.707 151.516
 30.898 c 151.516 28.09 153.352 26.582 157.855 23.562 c 162.359 20.543 168.555
 16.387 168.555 8.047 c 168.555 5.328 166.348 3.125 163.629 3.125 c 160.91
 3.125 158.707 5.328 158.707 8.047 c 158.707 10.855 156.871 12.363 152.371
 15.383 c 147.855 18.414 141.672 22.559 141.672 30.898 c 141.672 39.238 
147.855 43.379 152.371 46.406 c 156.871 49.426 158.707 50.934 158.707 53.742
 c 158.707 56.551 156.871 58.055 152.371 61.074 c 147.855 64.105 141.672
 68.25 141.672 76.59 c 141.672 84.926 147.855 89.074 152.371 92.102 c 156.871
 95.121 158.707 96.629 158.707 99.434 c 158.707 102.242 156.875 103.75 152.371
 106.77 c h
152.371 106.77 m f
305.395 23.555 m 309.906 20.527 316.094 16.379 316.094 8.039 c 316.094 
5.32 313.891 3.117 311.172 3.117 c 308.453 3.117 306.246 5.32 306.246 8.039
 c 306.246 10.848 304.414 12.355 299.91 15.375 c 295.398 18.402 289.211 
22.551 289.211 30.891 c 289.211 39.23 295.395 43.379 299.91 46.406 c 304.426
 49.434 306.246 50.934 306.246 53.742 c 306.246 56.551 304.414 58.055 299.91
 61.074 c 295.398 64.105 289.211 68.25 289.211 76.59 c 289.211 84.926 295.395
 89.074 299.91 92.102 c 304.414 95.121 306.246 96.629 306.246 99.434 c 306.246
 102.242 304.414 103.75 299.91 106.77 c 295.406 109.789 289.211 113.945 
289.211 122.281 c 289.211 125 291.414 127.203 294.133 127.203 c 296.852 
127.203 299.059 125 299.059 122.281 c 299.059 119.477 300.891 117.965 305.395
 114.949 c 309.906 111.918 316.094 107.773 316.094 99.434 c 316.094 91.098
 309.91 86.949 305.395 83.926 c 300.891 80.906 299.059 79.398 299.059 76.594
 c 299.059 73.785 300.891 72.277 305.395 69.258 c 309.906 66.23 316.094 
62.082 316.094 53.75 c 316.094 45.418 309.914 41.254 305.395 38.227 c 300.891
 35.207 299.059 33.699 299.059 30.891 c 299.059 28.082 300.895 26.574 305.395
 23.555 c h
305.395 23.555 m f
0 163.156 23.801 50.82 re f
189.543 238.398 m 196.875 238.391 202.816 232.449 202.824 225.117 c 202.824
 163.156 l 33.648 163.156 l 33.648 226.625 l 33.57 233.129 38.781 238.461
 45.285 238.539 c 51.785 238.617 57.121 233.406 57.195 226.902 c 57.199 
226.809 57.199 226.719 57.195 226.625 c 57.195 206.613 l 57.191 193.84 67.543
 183.48 80.316 183.477 c 93.09 183.473 103.445 193.824 103.449 206.598 c
 103.449 293.453 l 103.445 300.789 109.391 306.734 116.723 306.738 c 124.059
 306.742 130.008 300.801 130.008 293.465 c 130.008 293.461 130.008 293.457
 130.008 293.453 c 130.008 206.613 l 130.086 193.84 140.5 183.547 153.273
 183.625 c 165.938 183.699 176.188 193.945 176.262 206.613 c 176.262 225.117
 l 176.27 232.449 182.211 238.391 189.543 238.398 c h
189.543 238.398 m f
86.473 375.961 m 86.477 378.676 88.68 380.879 91.398 380.883 c 292.605 
380.883 l 295.32 380.879 297.523 378.676 297.527 375.961 c 297.527 362.109
 l 86.473 362.109 l h
86.473 375.961 m f
212.668 213.98 m 302.449 213.98 l 305.168 213.98 307.375 216.184 307.375
 218.902 c 307.375 221.621 305.168 223.824 302.449 223.824 c 212.668 223.824
 l 212.668 225.117 l 212.672 237.891 202.324 248.246 189.551 248.25 c 176.777
 248.254 166.422 237.902 166.418 225.133 c 166.418 225.125 166.418 225.121
 166.418 225.117 c 166.418 206.613 l 166.359 199.277 160.367 193.379 153.031
 193.438 c 145.777 193.492 139.914 199.359 139.855 206.613 c 139.855 293.453
 l 139.859 306.227 129.508 316.582 116.738 316.586 c 103.965 316.59 93.609
 306.242 93.605 293.469 c 93.605 293.465 93.605 293.457 93.605 293.453 c
 93.605 206.613 l 93.605 199.277 87.664 193.328 80.328 193.328 c 72.996 
193.324 67.047 199.266 67.043 206.602 c 67.043 226.625 l 67.148 238.566 
57.551 248.332 45.613 248.434 c 33.672 248.539 23.906 238.941 23.805 227
 c 23.801 226.875 23.801 226.75 23.805 226.625 c 23.805 223.828 l 0 223.828
 l 0 321.082 l 0.02 338.297 13.969 352.242 31.18 352.262 c 352.82 352.262
 l 370.031 352.242 383.98 338.297 384 321.082 c 384 223.824 l 334.359 223.824
 l 331.641 223.824 329.438 221.621 329.438 218.902 c 329.438 216.184 331.641
 213.98 334.359 213.98 c 384 213.98 l 384 163.156 l 212.668 163.156 l h
212.668 213.98 m f
Q Q
showpage
%%Trailer
end
%%EOF
