%!PS-Adobe-3.0 EPSF-3.0
%%Creator: cairo 1.16.0 (https://cairographics.org)
%%CreationDate: Mon Sep 23 08:21:37 2019
%%Pages: 1
%%DocumentData: Clean7Bit
%%LanguageLevel: 2
%%BoundingBox: 0 0 384 384
%%EndComments
%%BeginProlog
50 dict begin
/q { gsave } bind def
/Q { grestore } bind def
/cm { 6 array astore concat } bind def
/w { setlinewidth } bind def
/J { setlinecap } bind def
/j { setlinejoin } bind def
/M { setmiterlimit } bind def
/d { setdash } bind def
/m { moveto } bind def
/l { lineto } bind def
/c { curveto } bind def
/h { closepath } bind def
/re { exch dup neg 3 1 roll 5 3 roll moveto 0 rlineto
      0 exch rlineto 0 rlineto closepath } bind def
/S { stroke } bind def
/f { fill } bind def
/f* { eofill } bind def
/n { newpath } bind def
/W { clip } bind def
/W* { eoclip } bind def
/BT { } bind def
/ET { } bind def
/BDC { mark 3 1 roll /BDC pdfmark } bind def
/EMC { mark /EMC pdfmark } bind def
/cairo_store_point { /cairo_point_y exch def /cairo_point_x exch def } def
/Tj { show currentpoint cairo_store_point } bind def
/TJ {
  {
    dup
    type /stringtype eq
    { show } { -0.001 mul 0 cairo_font_matrix dtransform rmoveto } ifelse
  } forall
  currentpoint cairo_store_point
} bind def
/cairo_selectfont { cairo_font_matrix aload pop pop pop 0 0 6 array astore
    cairo_font exch selectfont cairo_point_x cairo_point_y moveto } bind def
/Tf { pop /cairo_font exch def /cairo_font_matrix where
      { pop cairo_selectfont } if } bind def
/Td { matrix translate cairo_font_matrix matrix concatmatrix dup
      /cairo_font_matrix exch def dup 4 get exch 5 get cairo_store_point
      /cairo_font where { pop cairo_selectfont } if } bind def
/Tm { 2 copy 8 2 roll 6 array astore /cairo_font_matrix exch def
      cairo_store_point /cairo_font where { pop cairo_selectfont } if } bind def
/g { setgray } bind def
/rg { setrgbcolor } bind def
/d1 { setcachedevice } bind def
/cairo_data_source {
  CairoDataIndex CairoData length lt
    { CairoData CairoDataIndex get /CairoDataIndex CairoDataIndex 1 add def }
    { () } ifelse
} def
/cairo_flush_ascii85_file { cairo_ascii85_file status { cairo_ascii85_file flushfile } if } def
/cairo_image { image cairo_flush_ascii85_file } def
/cairo_imagemask { imagemask cairo_flush_ascii85_file } def
%%EndProlog
%%BeginSetup
%%EndSetup
%%Page: 1 1
%%BeginPageSetup
%%PageBoundingBox: 0 0 384 384
%%EndPageSetup
q 0 0 384 384 rectclip
1 0 0 -1 0 384 cm q
0 g
321.395 131.898 m 316.305 126.809 l 316.305 204.309 l 321.402 199.207 l
 339.957 180.605 339.953 150.496 321.395 131.898 c h
321.395 131.898 m f
302.852 234.16 m 280.852 256.164 l 356.914 332.227 l 362.992 338.305 372.84
 338.301 378.914 332.227 c 384.992 326.152 384.992 316.301 378.914 310.227
 c h
302.852 234.16 m f
304.703 115.207 m 275.691 86.195 l 275.691 244.918 l 304.703 215.906 l 
h
304.703 115.207 m f
193.66 41.336 m 193.66 284.859 l 202.953 288.777 213.25 289.66 223.074 
287.379 c 223.074 33.578 l 222.152 32.656 l 213.473 37.758 203.711 40.734
 193.66 41.336 c h
193.66 41.336 m f
234.676 283.031 m 238.805 280.832 242.586 278.027 245.895 274.719 c 264.09
 256.523 l 264.09 74.602 l 234.676 45.188 l h
234.676 283.031 m f
14.441 110.562 m 17.34 113.461 l 17.34 40.363 l 14.441 43.266 l -4.109 
61.859 -4.109 91.965 14.441 110.562 c h
14.441 110.562 m f
117.562 31.465 m 126.02 222.137 l 146.844 242.965 l 146.844 33.238 l 139.816
 33.023 133.078 30.375 127.781 25.746 c 124.645 28.098 121.211 30.02 117.562
 31.465 c h
117.562 31.465 m f
158.445 254.566 m 178.586 274.707 l 179.703 275.824 180.863 276.871 182.059
 277.852 c 182.059 40.992 l 173.758 40.008 165.734 37.391 158.445 33.301
 c h
158.445 254.566 m f
57.703 0 m 28.938 28.766 l 28.938 240.043 l 28.996 246.16 34 251.074 40.121
 251.02 c 46.156 250.961 51.039 246.082 51.094 240.043 c 51.094 225.266 
l 51.109 215.922 57.258 207.699 66.215 205.039 c 59.047 4.641 l 58.516 3.121
 58.066 1.57 57.703 0 c h
57.703 0 m f
93.289 276.789 m 93.281 282.762 98.121 287.613 104.094 287.617 c 110.07
 287.625 114.918 282.785 114.926 276.812 c 114.523 224.789 l 106.078 34.324
 l 93.438 35.766 80.781 31.723 71.316 23.219 c 77.816 204.938 l 86.949 207.477
 93.277 215.785 93.289 225.266 c h
93.289 276.789 m f
121.777 326.074 m 121.777 334.613 114.852 341.539 106.309 341.539 c 97.766
 341.539 90.844 334.613 90.844 326.074 c 90.844 317.531 97.766 310.605 106.309
 310.605 c 114.852 310.605 121.777 317.531 121.777 326.074 c h
121.777 326.074 m f
59.859 278.898 m 59.859 284.238 55.531 288.566 50.195 288.566 c 44.855 
288.566 40.527 284.238 40.527 278.898 c 40.527 273.562 44.855 269.234 50.195
 269.234 c 55.531 269.234 59.859 273.562 59.859 278.898 c h
59.859 278.898 m f
116.941 373.367 m 116.941 379.238 112.184 384 106.309 384 c 100.438 384
 95.676 379.238 95.676 373.367 c 95.676 367.496 100.438 362.734 106.309 
362.734 c 112.184 362.734 116.941 367.496 116.941 373.367 c h
116.941 373.367 m f
Q Q
showpage
%%Trailer
end
%%EOF
