%!PS-Adobe-3.0 EPSF-3.0
%%Creator: cairo 1.16.0 (https://cairographics.org)
%%CreationDate: Mon Sep 23 08:21:37 2019
%%Pages: 1
%%DocumentData: Clean7Bit
%%LanguageLevel: 2
%%BoundingBox: 0 0 384 384
%%EndComments
%%BeginProlog
50 dict begin
/q { gsave } bind def
/Q { grestore } bind def
/cm { 6 array astore concat } bind def
/w { setlinewidth } bind def
/J { setlinecap } bind def
/j { setlinejoin } bind def
/M { setmiterlimit } bind def
/d { setdash } bind def
/m { moveto } bind def
/l { lineto } bind def
/c { curveto } bind def
/h { closepath } bind def
/re { exch dup neg 3 1 roll 5 3 roll moveto 0 rlineto
      0 exch rlineto 0 rlineto closepath } bind def
/S { stroke } bind def
/f { fill } bind def
/f* { eofill } bind def
/n { newpath } bind def
/W { clip } bind def
/W* { eoclip } bind def
/BT { } bind def
/ET { } bind def
/BDC { mark 3 1 roll /BDC pdfmark } bind def
/EMC { mark /EMC pdfmark } bind def
/cairo_store_point { /cairo_point_y exch def /cairo_point_x exch def } def
/Tj { show currentpoint cairo_store_point } bind def
/TJ {
  {
    dup
    type /stringtype eq
    { show } { -0.001 mul 0 cairo_font_matrix dtransform rmoveto } ifelse
  } forall
  currentpoint cairo_store_point
} bind def
/cairo_selectfont { cairo_font_matrix aload pop pop pop 0 0 6 array astore
    cairo_font exch selectfont cairo_point_x cairo_point_y moveto } bind def
/Tf { pop /cairo_font exch def /cairo_font_matrix where
      { pop cairo_selectfont } if } bind def
/Td { matrix translate cairo_font_matrix matrix concatmatrix dup
      /cairo_font_matrix exch def dup 4 get exch 5 get cairo_store_point
      /cairo_font where { pop cairo_selectfont } if } bind def
/Tm { 2 copy 8 2 roll 6 array astore /cairo_font_matrix exch def
      cairo_store_point /cairo_font where { pop cairo_selectfont } if } bind def
/g { setgray } bind def
/rg { setrgbcolor } bind def
/d1 { setcachedevice } bind def
/cairo_data_source {
  CairoDataIndex CairoData length lt
    { CairoData CairoDataIndex get /CairoDataIndex CairoDataIndex 1 add def }
    { () } ifelse
} def
/cairo_flush_ascii85_file { cairo_ascii85_file status { cairo_ascii85_file flushfile } if } def
/cairo_image { image cairo_flush_ascii85_file } def
/cairo_imagemask { imagemask cairo_flush_ascii85_file } def
%%EndProlog
%%BeginSetup
%%EndSetup
%%Page: 1 1
%%BeginPageSetup
%%PageBoundingBox: 0 0 384 384
%%EndPageSetup
q 0 0 384 384 rectclip
1 0 0 -1 0 384 cm q
0 g
358.004 23.441 m 324.117 -8.555 269.895 -7.668 237.129 25.418 c 170.172
 93.027 l 138.191 125.324 l 131.887 131.617 131.875 141.832 138.168 148.141
 c 138.309 148.281 138.453 148.418 138.594 148.551 c 145.434 154.934 156.098
 154.762 162.723 148.16 c 221.652 88.656 l 228.309 82.016 239.027 81.836
 245.898 88.254 c 252.637 94.566 252.98 105.148 246.668 111.887 c 246.551
 112.012 246.43 112.137 246.309 112.258 c 193.469 165.617 l 187.16 171.91
 187.148 182.125 193.441 188.434 c 193.582 188.574 193.727 188.711 193.871
 188.848 c 200.707 195.23 211.371 195.059 217.992 188.457 c 271.066 134.867
 l 277.59 128.344 288.121 128.203 294.816 134.551 c 301.355 140.762 301.625
 151.098 295.414 157.637 c 295.348 157.707 295.281 157.773 295.211 157.844
 c 206.891 248.168 l 200.57 254.449 200.539 264.664 206.82 270.984 c 206.965
 271.133 207.117 271.277 207.27 271.418 c 214.105 277.801 224.77 277.629
 231.395 271.027 c 360.023 141.141 l 391.988 109.184 391.992 57.367 360.035
 25.406 c 359.367 24.738 358.691 24.082 358 23.441 c h
358.004 23.441 m f
34.617 377.992 m 144.785 266.75 l 115.945 239.516 l 5.613 350.926 l -1.859
 358.387 -1.875 370.496 5.586 377.973 c 5.75 378.137 5.918 378.297 6.09 
378.457 c 14.172 386.008 26.785 385.801 34.617 377.992 c h
34.617 377.992 m f
197.066 302.578 m 197.961 303.395 199.332 303.371 200.199 302.527 c 216.754
 285.816 l 210.676 285.309 204.945 282.758 200.508 278.578 c 190.031 268.773
 189.484 252.336 199.289 241.859 c 199.48 241.656 199.672 241.457 199.867
 241.262 c 288.172 150.961 l 290.691 148.422 290.68 144.316 288.137 141.793
 c 288.094 141.75 288.051 141.707 288.008 141.668 c 285.203 139.004 280.789
 139.062 278.055 141.797 c 224.988 195.383 l 214.586 205.758 197.84 206.031
 187.102 196.008 c 176.629 186.203 176.082 169.762 185.887 159.289 c 186.074
 159.086 186.27 158.883 186.465 158.688 c 239.305 105.328 l 242 102.656 
242.012 98.305 239.34 95.609 c 239.27 95.543 239.203 95.477 239.133 95.414
 c 236.16 92.637 231.523 92.711 228.641 95.582 c 169.715 155.086 l 159.312
 165.457 142.566 165.734 131.832 155.711 c 127.367 151.539 124.52 145.926
 123.789 139.859 c 77.305 186.805 l 76.562 187.527 76.547 188.715 77.27 
189.457 c 77.297 189.484 77.324 189.508 77.352 189.535 c h
197.066 302.578 m f
Q Q
showpage
%%Trailer
end
%%EOF
