%!PS-Adobe-3.0 EPSF-3.0
%%Creator: cairo 1.16.0 (https://cairographics.org)
%%CreationDate: Mon Sep 23 08:21:37 2019
%%Pages: 1
%%DocumentData: Clean7Bit
%%LanguageLevel: 2
%%BoundingBox: 48 0 336 384
%%EndComments
%%BeginProlog
50 dict begin
/q { gsave } bind def
/Q { grestore } bind def
/cm { 6 array astore concat } bind def
/w { setlinewidth } bind def
/J { setlinecap } bind def
/j { setlinejoin } bind def
/M { setmiterlimit } bind def
/d { setdash } bind def
/m { moveto } bind def
/l { lineto } bind def
/c { curveto } bind def
/h { closepath } bind def
/re { exch dup neg 3 1 roll 5 3 roll moveto 0 rlineto
      0 exch rlineto 0 rlineto closepath } bind def
/S { stroke } bind def
/f { fill } bind def
/f* { eofill } bind def
/n { newpath } bind def
/W { clip } bind def
/W* { eoclip } bind def
/BT { } bind def
/ET { } bind def
/BDC { mark 3 1 roll /BDC pdfmark } bind def
/EMC { mark /EMC pdfmark } bind def
/cairo_store_point { /cairo_point_y exch def /cairo_point_x exch def } def
/Tj { show currentpoint cairo_store_point } bind def
/TJ {
  {
    dup
    type /stringtype eq
    { show } { -0.001 mul 0 cairo_font_matrix dtransform rmoveto } ifelse
  } forall
  currentpoint cairo_store_point
} bind def
/cairo_selectfont { cairo_font_matrix aload pop pop pop 0 0 6 array astore
    cairo_font exch selectfont cairo_point_x cairo_point_y moveto } bind def
/Tf { pop /cairo_font exch def /cairo_font_matrix where
      { pop cairo_selectfont } if } bind def
/Td { matrix translate cairo_font_matrix matrix concatmatrix dup
      /cairo_font_matrix exch def dup 4 get exch 5 get cairo_store_point
      /cairo_font where { pop cairo_selectfont } if } bind def
/Tm { 2 copy 8 2 roll 6 array astore /cairo_font_matrix exch def
      cairo_store_point /cairo_font where { pop cairo_selectfont } if } bind def
/g { setgray } bind def
/rg { setrgbcolor } bind def
/d1 { setcachedevice } bind def
/cairo_data_source {
  CairoDataIndex CairoData length lt
    { CairoData CairoDataIndex get /CairoDataIndex CairoDataIndex 1 add def }
    { () } ifelse
} def
/cairo_flush_ascii85_file { cairo_ascii85_file status { cairo_ascii85_file flushfile } if } def
/cairo_image { image cairo_flush_ascii85_file } def
/cairo_imagemask { imagemask cairo_flush_ascii85_file } def
%%EndProlog
%%BeginSetup
%%EndSetup
%%Page: 1 1
%%BeginPageSetup
%%PageBoundingBox: 48 0 336 384
%%EndPageSetup
q 48 0 288 384 rectclip
1 0 0 -1 0 384 cm q
0 g
248.48 136.664 m 248.328 130.281 247.199 123.961 245.133 117.922 c 241.859
 114.961 238.965 112.734 233.379 112.734 c 227.301 112.734 224.551 115.25
 220.742 118.734 c 216.59 122.527 211.426 127.254 201.621 127.254 c 191.816
 127.254 186.652 122.531 182.5 118.734 c 178.691 115.25 175.941 112.734 
169.859 112.734 c 163.781 112.734 161.031 115.25 157.219 118.734 c 153.07
 122.527 147.906 127.254 138.102 127.254 c 132.164 127.352 126.398 125.242
 121.934 121.328 c 120.566 126.109 119.789 131.039 119.613 136.012 c 119.16
 148.32 122.355 160.488 128.801 170.988 c 128.934 171.199 129.082 171.406
 129.242 171.602 c 131.207 173.977 l 237.414 173.977 l 244.582 163.445 248.445
 151.016 248.512 138.277 c 248.512 137.797 248.488 137.316 248.477 136.844
 c 248.48 136.785 248.48 136.727 248.48 136.664 c h
248.48 136.664 m f
180.508 74.965 m 156.852 76.266 135.789 90.371 125.578 111.746 c 129.332
 115.184 132.09 117.656 138.109 117.656 c 144.184 117.656 146.938 115.137
 150.746 111.656 c 154.895 107.859 160.059 103.137 169.867 103.137 c 179.672
 103.137 184.832 107.855 188.984 111.656 c 192.797 115.141 195.547 117.656
 201.625 117.656 c 207.707 117.656 210.457 115.137 214.266 111.656 c 218.418
 107.859 223.582 103.137 233.387 103.137 c 234.93 103.133 236.469 103.266
 237.992 103.527 c 225.246 84.496 203.383 73.633 180.52 74.965 c h
180.508 74.965 m f
275.441 135.836 m 271 135.832 266.586 136.508 262.352 137.844 c 261.66 
138.07 260.984 138.34 260.328 138.652 c 258.09 139.68 l 257.805 151.711 
254.578 163.488 248.688 173.977 c 317.91 173.977 l 315.43 152.863 296.996
 135.836 275.441 135.836 c h
275.441 135.836 m f
168.992 50.359 m 169.012 56.855 172.797 62.754 178.699 65.477 c 179.137
 65.449 179.57 65.402 180.008 65.379 c 184.285 65.152 188.578 65.285 192.836
 65.773 c 201.352 62.305 205.445 52.586 201.977 44.07 c 199.984 39.172 195.781
 35.512 190.656 34.211 c 190.359 33.105 189.676 32.141 188.727 31.496 c 
185.234 29.129 184.504 25.219 184.379 23.098 c 184.184 17.484 186.547 12.09
 190.805 8.43 c 192.809 6.691 193.027 3.66 191.293 1.656 c 189.555 -0.348
 186.523 -0.562 184.52 1.172 c 178.031 6.801 174.457 15.074 174.801 23.656
 c 174.98 27.816 176.395 31.828 178.863 35.184 c 172.891 37.875 169.035 
43.805 168.992 50.359 c h
168.992 50.359 m f
87.285 148.996 m 82.32 153.43 74.367 162.195 72.672 173.98 c 119.43 173.98
 l 113.023 162.742 109.766 149.984 110 137.051 c 102.578 138.508 94.141 
142.879 87.285 148.996 c h
87.285 148.996 m f
239.863 183.633 m 239.629 183.633 239.391 183.617 239.16 183.578 c 48.664
 183.578 l 50.133 212.941 65.035 240.418 90.879 261.262 c 117.949 283.086
 153.863 295.105 192 295.105 c 230.137 295.105 266.051 283.086 293.121 261.262
 c 318.961 240.422 333.867 212.941 335.336 183.582 c 323.551 183.582 l 323.188
 183.629 322.816 183.629 322.453 183.582 c 240.551 183.582 l 240.324 183.617
 240.094 183.633 239.863 183.633 c h
139.102 271.758 m 138.066 274.195 135.254 275.336 132.816 274.305 c 132.812
 274.301 132.809 274.301 132.805 274.301 c 116.027 267.168 101.613 256.574
 91.121 243.66 c 89.445 241.602 89.758 238.578 91.816 236.902 c 93.871 235.23
 96.898 235.539 98.57 237.598 c 108.082 249.301 121.219 258.938 136.562 
265.457 c 139 266.496 140.141 269.312 139.102 271.754 c 139.102 271.754 
139.102 271.758 139.102 271.758 c h
139.102 271.758 m f
204.199 304.305 m 200.16 304.562 196.094 304.699 192 304.703 c 187.906 
304.711 183.84 304.578 179.801 304.305 c 179.801 357.711 l 187.809 359.75
 196.195 359.75 204.203 357.711 c h
204.199 304.305 m f
263.664 370.953 m 263.156 369.938 259.609 366.867 248.566 363.898 c 239.406
 361.434 227.207 359.602 213.801 358.652 c 213.801 361.297 l 213.801 363.363
 212.48 365.199 210.52 365.852 c 198.496 369.832 185.508 369.832 173.484
 365.852 c 171.527 365.199 170.203 363.363 170.203 361.297 c 170.203 358.652
 l 156.801 359.602 144.598 361.434 135.438 363.898 c 124.398 366.867 120.848
 369.938 120.34 370.953 c 120.945 372.203 125.68 376.012 140.848 379.312
 c 154.727 382.336 172.895 384 192 384 c 211.109 384 229.273 382.336 243.156
 379.312 c 258.32 376.012 263.059 372.203 263.664 370.953 c h
263.664 370.953 m f
Q Q
showpage
%%Trailer
end
%%EOF
