%!PS-Adobe-3.0 EPSF-3.0
%%Creator: cairo 1.16.0 (https://cairographics.org)
%%CreationDate: Mon Sep 23 08:21:38 2019
%%Pages: 1
%%DocumentData: Clean7Bit
%%LanguageLevel: 2
%%BoundingBox: 87 0 297 384
%%EndComments
%%BeginProlog
50 dict begin
/q { gsave } bind def
/Q { grestore } bind def
/cm { 6 array astore concat } bind def
/w { setlinewidth } bind def
/J { setlinecap } bind def
/j { setlinejoin } bind def
/M { setmiterlimit } bind def
/d { setdash } bind def
/m { moveto } bind def
/l { lineto } bind def
/c { curveto } bind def
/h { closepath } bind def
/re { exch dup neg 3 1 roll 5 3 roll moveto 0 rlineto
      0 exch rlineto 0 rlineto closepath } bind def
/S { stroke } bind def
/f { fill } bind def
/f* { eofill } bind def
/n { newpath } bind def
/W { clip } bind def
/W* { eoclip } bind def
/BT { } bind def
/ET { } bind def
/BDC { mark 3 1 roll /BDC pdfmark } bind def
/EMC { mark /EMC pdfmark } bind def
/cairo_store_point { /cairo_point_y exch def /cairo_point_x exch def } def
/Tj { show currentpoint cairo_store_point } bind def
/TJ {
  {
    dup
    type /stringtype eq
    { show } { -0.001 mul 0 cairo_font_matrix dtransform rmoveto } ifelse
  } forall
  currentpoint cairo_store_point
} bind def
/cairo_selectfont { cairo_font_matrix aload pop pop pop 0 0 6 array astore
    cairo_font exch selectfont cairo_point_x cairo_point_y moveto } bind def
/Tf { pop /cairo_font exch def /cairo_font_matrix where
      { pop cairo_selectfont } if } bind def
/Td { matrix translate cairo_font_matrix matrix concatmatrix dup
      /cairo_font_matrix exch def dup 4 get exch 5 get cairo_store_point
      /cairo_font where { pop cairo_selectfont } if } bind def
/Tm { 2 copy 8 2 roll 6 array astore /cairo_font_matrix exch def
      cairo_store_point /cairo_font where { pop cairo_selectfont } if } bind def
/g { setgray } bind def
/rg { setrgbcolor } bind def
/d1 { setcachedevice } bind def
/cairo_data_source {
  CairoDataIndex CairoData length lt
    { CairoData CairoDataIndex get /CairoDataIndex CairoDataIndex 1 add def }
    { () } ifelse
} def
/cairo_flush_ascii85_file { cairo_ascii85_file status { cairo_ascii85_file flushfile } if } def
/cairo_image { image cairo_flush_ascii85_file } def
/cairo_imagemask { imagemask cairo_flush_ascii85_file } def
%%EndProlog
%%BeginSetup
%%EndSetup
%%Page: 1 1
%%BeginPageSetup
%%PageBoundingBox: 87 0 297 384
%%EndPageSetup
q 87 0 210 384 rectclip
1 0 0 -1 0 384 cm q
0 g
217.973 3.688 m 217.332 1.09 214.703 -0.5 212.105 0.141 c 209.875 0.691
 208.34 2.727 208.418 5.02 c 190.98 6.645 175.965 17.996 169.645 34.328 
c 168.688 36.832 169.941 39.633 172.445 40.586 c 174.945 41.543 177.746 
40.289 178.703 37.789 c 183.875 24.422 196.41 15.332 210.723 14.57 c 211.664
 17.07 214.457 18.336 216.957 17.391 c 219.254 16.527 220.539 14.078 219.949
 11.695 c h
217.973 3.688 m f
112.234 225.871 m 134.516 203.586 l 102.949 203.586 l h
112.234 225.871 m f
181.852 203.586 m 148.23 203.586 l 116.266 235.551 l 126.156 259.281 l 
h
181.852 203.586 m f
234.098 176.25 m 230.57 176.254 227.711 179.117 227.707 182.645 c 227.707
 189.793 l 227.715 198.422 220.727 205.422 212.098 205.434 c 209.523 205.434
 206.988 204.801 204.719 203.586 c 195.562 203.586 l 130.188 268.961 l 140.074
 292.691 l 240.488 192.277 l 240.488 182.645 l 240.488 179.117 237.629 176.254
 234.098 176.25 c h
234.098 176.25 m f
196.684 60.676 m 196.684 49.758 187.832 40.91 176.918 40.91 c 166.004 40.91
 157.152 49.758 157.152 60.676 c 157.152 71.59 166.004 80.438 176.918 80.438
 c 187.828 80.426 196.672 71.586 196.684 60.676 c h
196.684 60.676 m f
97.797 173.883 m 92.27 173.836 87.754 178.273 87.703 183.797 c 87.652 189.32
 92.09 193.84 97.617 193.891 c 97.676 193.891 97.734 193.891 97.797 193.891
 c 196.996 193.891 l 196.625 192.559 196.434 191.18 196.43 189.793 c 196.43
 173.883 l h
97.797 173.883 m f
240.488 232.621 m 240.488 205.988 l 144.109 302.375 l 153.996 326.105 l
 241.633 238.465 l 240.879 236.609 240.492 234.625 240.488 232.621 c h
240.488 232.621 m f
179.48 384 m 180.316 384.027 181.078 383.52 181.371 382.738 c 198.266 342.875
 l 171.949 369.195 l 177.594 382.738 l 177.887 383.52 178.648 384.027 179.48
 384 c h
179.48 384 m f
205.043 69.457 m 200.191 84.988 183.672 93.645 168.141 88.797 c 159.477
 86.09 152.547 79.543 149.348 71.051 c 134.234 76.852 121.066 86.816 111.379
 99.789 c 100.496 114.379 94.637 132.113 94.688 150.316 c 94.688 154.996
 95.074 159.668 95.836 164.285 c 96.484 164.223 97.137 164.188 97.797 164.188
 c 196.434 164.188 l 196.434 145.965 l 196.43 141.918 193.148 138.637 189.102
 138.633 c 186.422 138.633 184.25 136.461 184.25 133.785 c 184.25 131.105
 186.422 128.938 189.102 128.938 c 198.5 128.945 206.121 136.566 206.129
 145.965 c 206.129 189.793 l 206.129 191.684 207.031 193.457 208.555 194.574
 c 208.703 194.664 208.848 194.762 208.988 194.867 c 211.781 196.574 215.43
 195.691 217.137 192.898 c 217.707 191.965 218.008 190.891 218.008 189.793
 c 218.008 182.645 l 217.941 173.758 225.094 166.504 233.98 166.441 c 242.863
 166.375 250.121 173.527 250.184 182.414 c 250.184 182.492 250.184 182.566
 250.184 182.645 c 250.184 232.621 l 250.262 235.898 252.98 238.496 256.262
 238.422 c 259.434 238.348 261.988 235.793 262.062 232.621 c 262.062 169.781
 262.062 169.781 262.129 169.383 c 262.141 169.293 262.16 169.203 262.18
 169.109 c 271.906 126.09 247.074 82.789 205.035 69.457 c h
205.043 69.457 m f
208.344 319.102 m 233.094 260.719 l 158.027 335.785 l 167.914 359.516 l
 208.25 319.184 l 208.277 319.152 208.316 319.133 208.344 319.102 c h
208.344 319.102 m f
272.562 268.035 m 272.562 275.176 266.773 280.965 259.633 280.965 c 252.496
 280.965 246.707 275.176 246.707 268.035 c 246.707 260.895 252.496 255.105
 259.633 255.105 c 266.773 255.105 272.562 260.895 272.562 268.035 c h
272.562 268.035 m f
296.297 230.578 m 296.297 235.484 292.316 239.465 287.41 239.465 c 282.5
 239.465 278.52 235.484 278.52 230.578 c 278.52 225.668 282.5 221.688 287.41
 221.688 c 292.316 221.688 296.297 225.668 296.297 230.578 c h
296.297 230.578 m f
Q Q
showpage
%%Trailer
end
%%EOF
