%!PS-Adobe-3.0 EPSF-3.0
%%Creator: cairo 1.16.0 (https://cairographics.org)
%%CreationDate: Mon Sep 23 08:21:38 2019
%%Pages: 1
%%DocumentData: Clean7Bit
%%LanguageLevel: 2
%%BoundingBox: 72 0 312 384
%%EndComments
%%BeginProlog
50 dict begin
/q { gsave } bind def
/Q { grestore } bind def
/cm { 6 array astore concat } bind def
/w { setlinewidth } bind def
/J { setlinecap } bind def
/j { setlinejoin } bind def
/M { setmiterlimit } bind def
/d { setdash } bind def
/m { moveto } bind def
/l { lineto } bind def
/c { curveto } bind def
/h { closepath } bind def
/re { exch dup neg 3 1 roll 5 3 roll moveto 0 rlineto
      0 exch rlineto 0 rlineto closepath } bind def
/S { stroke } bind def
/f { fill } bind def
/f* { eofill } bind def
/n { newpath } bind def
/W { clip } bind def
/W* { eoclip } bind def
/BT { } bind def
/ET { } bind def
/BDC { mark 3 1 roll /BDC pdfmark } bind def
/EMC { mark /EMC pdfmark } bind def
/cairo_store_point { /cairo_point_y exch def /cairo_point_x exch def } def
/Tj { show currentpoint cairo_store_point } bind def
/TJ {
  {
    dup
    type /stringtype eq
    { show } { -0.001 mul 0 cairo_font_matrix dtransform rmoveto } ifelse
  } forall
  currentpoint cairo_store_point
} bind def
/cairo_selectfont { cairo_font_matrix aload pop pop pop 0 0 6 array astore
    cairo_font exch selectfont cairo_point_x cairo_point_y moveto } bind def
/Tf { pop /cairo_font exch def /cairo_font_matrix where
      { pop cairo_selectfont } if } bind def
/Td { matrix translate cairo_font_matrix matrix concatmatrix dup
      /cairo_font_matrix exch def dup 4 get exch 5 get cairo_store_point
      /cairo_font where { pop cairo_selectfont } if } bind def
/Tm { 2 copy 8 2 roll 6 array astore /cairo_font_matrix exch def
      cairo_store_point /cairo_font where { pop cairo_selectfont } if } bind def
/g { setgray } bind def
/rg { setrgbcolor } bind def
/d1 { setcachedevice } bind def
/cairo_data_source {
  CairoDataIndex CairoData length lt
    { CairoData CairoDataIndex get /CairoDataIndex CairoDataIndex 1 add def }
    { () } ifelse
} def
/cairo_flush_ascii85_file { cairo_ascii85_file status { cairo_ascii85_file flushfile } if } def
/cairo_image { image cairo_flush_ascii85_file } def
/cairo_imagemask { imagemask cairo_flush_ascii85_file } def
%%EndProlog
%%BeginSetup
%%EndSetup
%%Page: 1 1
%%BeginPageSetup
%%PageBoundingBox: 72 0 312 384
%%EndPageSetup
q 72 0 240 384 rectclip
1 0 0 -1 0 384 cm q
0 g
257.438 309.738 m 257.438 303.625 250.957 294.469 242 293.055 c 241.922
 304.586 239.57 315.992 235.074 326.613 c 239.438 326.613 l 250.047 325.715
 257.438 318.797 257.438 309.738 c h
257.438 309.738 m f
238.699 172.125 m 145.301 172.125 l 147.816 195.188 167.797 213.215 192
 213.215 c 216.203 213.215 236.184 195.188 238.699 172.125 c h
238.699 172.125 m f
141.641 290.75 m 141.691 285.969 142.113 281.199 142.902 276.484 c 143.316
 273.516 145.816 271.285 148.809 271.215 c 234.84 271.215 l 237.832 271.289
 240.332 273.516 240.746 276.48 c 241.113 278.664 241.387 280.875 241.594
 283.102 c 248.336 283.742 254.613 286.828 259.234 291.781 c 264.273 296.977
 267.281 303.688 267.281 309.738 c 267.281 323.98 255.812 335.215 240.016
 336.445 c 239.824 336.461 l 229.887 336.461 l 227.094 340.926 223.711 344.996
 219.832 348.559 c 311.383 348.559 l 311.383 172.125 l 248.586 172.125 l
 246.625 194.086 231.691 212.441 211.379 219.711 c 211.379 242.809 l 211.367
 246.512 208.355 249.508 204.652 249.504 c 181.32 249.504 l 177.617 249.508
 174.605 246.512 174.594 242.809 c 174.594 220.367 l 153.281 213.605 137.438
 194.789 135.414 172.121 c 72.617 172.121 l 72.617 348.559 l 163.691 348.559
 l 149.938 336.047 141.375 314.648 141.641 290.75 c h
141.641 290.75 m f
231.48 281.062 m 152.172 281.062 l 151.75 284.312 151.523 287.582 151.488
 290.859 c 151.18 318.082 164.078 342.176 182.25 348.559 c 201.32 348.559
 l 219.238 342.219 232.176 318.527 232.176 291.82 c 232.176 288.223 231.945
 284.629 231.48 281.062 c h
231.48 281.062 m f
311.383 358.406 m 181.469 358.406 l 181.449 358.406 181.43 358.406 181.41
 358.406 c 181.391 358.406 181.367 358.406 181.348 358.406 c 72.617 358.406
 l 72.617 384 l 311.383 384 l h
311.383 358.406 m f
184.438 222.551 m 184.438 239.652 l 201.535 239.652 l 201.535 222.258 l
 195.883 223.219 190.121 223.316 184.438 222.551 c h
184.438 222.551 m f
311.383 108.098 m 311.383 48.492 262.891 0 203.289 0 c 180.711 0 l 121.109
 0 72.617 48.492 72.617 108.098 c 72.617 125.07 l 311.383 125.07 l h
192 91.297 m 174.57 91.297 160.387 77.336 160.387 60.18 c 160.387 43.02
 174.57 29.059 192 29.059 c 209.43 29.059 223.613 43.02 223.613 60.18 c 
223.613 77.336 209.43 91.297 192 91.297 c h
192 91.297 m f
72.617 134.918 238.766 27.359 re f
192 38.902 m 180 38.902 170.234 48.445 170.234 60.18 c 170.234 71.91 180
 81.453 192 81.453 c 204 81.453 213.766 71.91 213.766 60.18 c 213.766 48.445
 204.004 38.902 192 38.902 c h
192 38.902 m f
Q Q
showpage
%%Trailer
end
%%EOF
