%!PS-Adobe-3.0 EPSF-3.0
%%Creator: cairo 1.16.0 (https://cairographics.org)
%%CreationDate: Mon Sep 23 08:21:38 2019
%%Pages: 1
%%DocumentData: Clean7Bit
%%LanguageLevel: 2
%%BoundingBox: 92 0 292 384
%%EndComments
%%BeginProlog
50 dict begin
/q { gsave } bind def
/Q { grestore } bind def
/cm { 6 array astore concat } bind def
/w { setlinewidth } bind def
/J { setlinecap } bind def
/j { setlinejoin } bind def
/M { setmiterlimit } bind def
/d { setdash } bind def
/m { moveto } bind def
/l { lineto } bind def
/c { curveto } bind def
/h { closepath } bind def
/re { exch dup neg 3 1 roll 5 3 roll moveto 0 rlineto
      0 exch rlineto 0 rlineto closepath } bind def
/S { stroke } bind def
/f { fill } bind def
/f* { eofill } bind def
/n { newpath } bind def
/W { clip } bind def
/W* { eoclip } bind def
/BT { } bind def
/ET { } bind def
/BDC { mark 3 1 roll /BDC pdfmark } bind def
/EMC { mark /EMC pdfmark } bind def
/cairo_store_point { /cairo_point_y exch def /cairo_point_x exch def } def
/Tj { show currentpoint cairo_store_point } bind def
/TJ {
  {
    dup
    type /stringtype eq
    { show } { -0.001 mul 0 cairo_font_matrix dtransform rmoveto } ifelse
  } forall
  currentpoint cairo_store_point
} bind def
/cairo_selectfont { cairo_font_matrix aload pop pop pop 0 0 6 array astore
    cairo_font exch selectfont cairo_point_x cairo_point_y moveto } bind def
/Tf { pop /cairo_font exch def /cairo_font_matrix where
      { pop cairo_selectfont } if } bind def
/Td { matrix translate cairo_font_matrix matrix concatmatrix dup
      /cairo_font_matrix exch def dup 4 get exch 5 get cairo_store_point
      /cairo_font where { pop cairo_selectfont } if } bind def
/Tm { 2 copy 8 2 roll 6 array astore /cairo_font_matrix exch def
      cairo_store_point /cairo_font where { pop cairo_selectfont } if } bind def
/g { setgray } bind def
/rg { setrgbcolor } bind def
/d1 { setcachedevice } bind def
/cairo_data_source {
  CairoDataIndex CairoData length lt
    { CairoData CairoDataIndex get /CairoDataIndex CairoDataIndex 1 add def }
    { () } ifelse
} def
/cairo_flush_ascii85_file { cairo_ascii85_file status { cairo_ascii85_file flushfile } if } def
/cairo_image { image cairo_flush_ascii85_file } def
/cairo_imagemask { imagemask cairo_flush_ascii85_file } def
%%EndProlog
%%BeginSetup
%%EndSetup
%%Page: 1 1
%%BeginPageSetup
%%PageBoundingBox: 92 0 292 384
%%EndPageSetup
q 92 0 200 384 rectclip
1 0 0 -1 0 384 cm q
0 g
143.594 19.453 m 144.902 17.48 l 144.969 17.062 144.832 16.637 144.531 
16.336 c 144.012 15.82 143.176 15.82 142.656 16.336 c 142.359 16.637 142.219
 17.062 142.285 17.48 c h
143.594 19.453 m f
168.113 26.879 m 168.113 26.148 167.52 25.555 166.789 25.555 c 166.367 
25.555 165.969 25.758 165.719 26.102 c 165.246 28.422 l 167.57 27.949 l 
167.91 27.699 168.113 27.301 168.113 26.879 c h
168.113 26.879 m f
119.617 27.949 m 121.941 28.422 l 121.469 26.102 l 121.035 25.508 120.211
 25.379 119.617 25.809 c 119.027 26.242 118.898 27.07 119.328 27.66 c 119.41
 27.77 119.508 27.867 119.617 27.949 c h
119.617 27.949 m f
112.973 50.074 m 110.996 48.766 l 110.578 48.699 110.152 48.84 109.855 
49.141 c 109.34 49.656 109.34 50.492 109.855 51.012 c 110.152 51.312 110.578
 51.453 110.996 51.383 c h
112.973 50.074 m f
145.852 54.531 146.016 149.973 re f
119.074 73.27 m 119.074 74.004 119.664 74.594 120.398 74.594 c 120.82 74.594
 121.219 74.391 121.469 74.051 c 121.941 71.73 l 119.617 72.203 l 119.277
 72.453 119.074 72.848 119.074 73.27 c h
119.074 73.27 m f
135.551 101.195 m 135.551 49.379 l 135.551 46.535 137.855 44.23 140.699
 44.23 c 193.441 44.23 l 189.77 16.375 164.215 -3.23 136.359 0.441 c 108.508
 4.113 88.902 29.668 92.574 57.523 c 95.543 80.043 113.078 97.867 135.551
 101.195 c h
133.59 66.152 m 131.426 76.777 l 131.359 77.102 131.266 77.418 131.137 
77.723 c 128.684 83.652 121.883 86.473 115.949 84.02 c 110.02 81.562 107.199
 74.766 109.652 68.832 c 110.832 65.98 113.098 63.715 115.949 62.535 c 116.254
 62.41 116.566 62.312 116.891 62.246 c 127.516 60.082 l 130.301 59.516 133.023
 61.316 133.59 64.102 c 133.73 64.781 133.73 65.48 133.59 66.16 c h
156.047 22.43 m 158.504 16.496 165.305 13.68 171.238 16.137 c 177.172 18.594
 179.988 25.395 177.531 31.328 c 176.352 34.176 174.09 36.441 171.238 37.621
 c 170.934 37.746 170.617 37.844 170.293 37.906 c 159.672 40.07 l 156.883
 40.641 154.164 38.84 153.598 36.051 c 153.457 35.371 153.457 34.672 153.598
 33.996 c 155.758 23.371 l 155.824 23.051 155.922 22.734 156.047 22.43 c
 h
135.371 9.047 m 139.914 4.512 147.27 4.512 151.812 9.047 c 155.148 12.367
 156.145 17.371 154.336 21.715 c 154.207 22.02 154.055 22.312 153.871 22.586
 c 147.891 31.629 l 146.32 34 143.125 34.652 140.75 33.082 c 140.172 32.699
 139.68 32.203 139.297 31.629 c 133.316 22.586 l 133.133 22.312 132.977 
22.02 132.852 21.715 c 131.043 17.371 132.039 12.367 135.371 9.047 c h
120.398 15.25 m 125.102 15.242 129.348 18.074 131.137 22.426 c 131.266 
22.73 131.359 23.047 131.426 23.371 c 133.59 33.996 l 134.16 36.781 132.359
 39.504 129.57 40.07 c 128.895 40.207 128.191 40.207 127.516 40.07 c 116.891
 37.906 l 116.566 37.844 116.25 37.746 115.945 37.617 c 110.016 35.164 107.195
 28.363 109.652 22.43 c 111.453 18.082 115.691 15.25 120.395 15.25 c h
102.566 41.855 m 105.887 38.52 110.895 37.523 115.238 39.336 c 115.543 
39.461 115.836 39.617 116.109 39.797 c 125.152 45.777 l 127.523 47.348 128.176
 50.547 126.605 52.918 c 126.223 53.496 125.727 53.988 125.152 54.371 c 
116.109 60.352 l 115.836 60.535 115.543 60.691 115.238 60.816 c 109.309 
63.273 102.508 60.457 100.051 54.527 c 98.25 50.184 99.246 45.18 102.57 
41.855 c h
102.566 41.855 m f
145.852 214.809 146.016 138.922 re f
145.852 371.98 m 145.859 378.617 151.234 383.992 157.871 384 c 279.848 
384 l 286.484 383.992 291.859 378.617 291.867 371.98 c 291.867 364.035 l
 145.852 364.035 l h
145.852 371.98 m f
Q Q
showpage
%%Trailer
end
%%EOF
