%!PS-Adobe-3.0 EPSF-3.0
%%Creator: cairo 1.16.0 (https://cairographics.org)
%%CreationDate: Mon Sep 23 08:21:38 2019
%%Pages: 1
%%DocumentData: Clean7Bit
%%LanguageLevel: 2
%%BoundingBox: 86 0 298 384
%%EndComments
%%BeginProlog
50 dict begin
/q { gsave } bind def
/Q { grestore } bind def
/cm { 6 array astore concat } bind def
/w { setlinewidth } bind def
/J { setlinecap } bind def
/j { setlinejoin } bind def
/M { setmiterlimit } bind def
/d { setdash } bind def
/m { moveto } bind def
/l { lineto } bind def
/c { curveto } bind def
/h { closepath } bind def
/re { exch dup neg 3 1 roll 5 3 roll moveto 0 rlineto
      0 exch rlineto 0 rlineto closepath } bind def
/S { stroke } bind def
/f { fill } bind def
/f* { eofill } bind def
/n { newpath } bind def
/W { clip } bind def
/W* { eoclip } bind def
/BT { } bind def
/ET { } bind def
/BDC { mark 3 1 roll /BDC pdfmark } bind def
/EMC { mark /EMC pdfmark } bind def
/cairo_store_point { /cairo_point_y exch def /cairo_point_x exch def } def
/Tj { show currentpoint cairo_store_point } bind def
/TJ {
  {
    dup
    type /stringtype eq
    { show } { -0.001 mul 0 cairo_font_matrix dtransform rmoveto } ifelse
  } forall
  currentpoint cairo_store_point
} bind def
/cairo_selectfont { cairo_font_matrix aload pop pop pop 0 0 6 array astore
    cairo_font exch selectfont cairo_point_x cairo_point_y moveto } bind def
/Tf { pop /cairo_font exch def /cairo_font_matrix where
      { pop cairo_selectfont } if } bind def
/Td { matrix translate cairo_font_matrix matrix concatmatrix dup
      /cairo_font_matrix exch def dup 4 get exch 5 get cairo_store_point
      /cairo_font where { pop cairo_selectfont } if } bind def
/Tm { 2 copy 8 2 roll 6 array astore /cairo_font_matrix exch def
      cairo_store_point /cairo_font where { pop cairo_selectfont } if } bind def
/g { setgray } bind def
/rg { setrgbcolor } bind def
/d1 { setcachedevice } bind def
/cairo_data_source {
  CairoDataIndex CairoData length lt
    { CairoData CairoDataIndex get /CairoDataIndex CairoDataIndex 1 add def }
    { () } ifelse
} def
/cairo_flush_ascii85_file { cairo_ascii85_file status { cairo_ascii85_file flushfile } if } def
/cairo_image { image cairo_flush_ascii85_file } def
/cairo_imagemask { imagemask cairo_flush_ascii85_file } def
%%EndProlog
%%BeginSetup
%%EndSetup
%%Page: 1 1
%%BeginPageSetup
%%PageBoundingBox: 86 0 298 384
%%EndPageSetup
q 86 0 212 384 rectclip
1 0 0 -1 0 384 cm q
0 g
112.852 379.316 m 112.852 381.902 114.949 384 117.535 384 c 272.645 384
 l 275.23 384 277.324 381.902 277.324 379.316 c 277.324 376.73 275.23 374.637
 272.645 374.637 c 201.824 374.637 l 201.094 224.508 l 201.078 221.93 198.988
 219.848 196.41 219.848 c 196.387 219.848 l 193.801 219.863 191.715 221.969
 191.727 224.555 c 192.461 374.637 l 117.535 374.637 l 114.949 374.637 112.852
 376.73 112.852 379.316 c h
112.852 379.316 m f
184.293 134.754 m 200.809 129.031 211.531 119.328 221.898 109.938 c 238.359
 95.039 253.934 80.953 287.84 86.875 c 297.797 72.766 l 148.121 75.73 l 
182.383 135.383 l 183.012 135.184 183.648 134.977 184.293 134.754 c h
184.293 134.754 m f
281.789 95.441 m 255.516 92.164 243.301 103.195 228.176 116.887 c 217.625
 126.434 205.672 137.254 187.355 143.602 c 180.109 146.172 172.48 147.5 
164.793 147.535 c 156.914 147.527 149.102 146.055 141.758 143.195 c 196.309
 216.551 l h
281.789 95.441 m f
126.82 123.102 m 128.973 125.219 146.41 141.371 172.832 137.566 c 137.438
 75.941 l 92.414 76.832 l h
126.82 123.102 m f
147.316 30.582 m 147.328 13.707 133.66 0.012 116.781 0 c 99.906 -0.012 
86.215 13.656 86.203 30.535 c 86.188 47.41 99.859 61.102 116.734 61.117 
c 120.5 61.117 124.234 60.426 127.746 59.07 c 137.438 75.941 l 148.113 75.73
 l 135.863 54.395 l 143.102 48.613 147.316 39.848 147.316 30.582 c h
116.781 51.75 m 105.09 51.75 95.613 42.273 95.613 30.582 c 95.613 18.891
 105.09 9.414 116.781 9.41 c 128.473 9.41 137.953 18.887 137.953 30.582 
c 137.938 42.266 128.469 51.738 116.781 51.75 c h
116.781 51.75 m f
Q Q
showpage
%%Trailer
end
%%EOF
