%!PS-Adobe-3.0 EPSF-3.0
%%Creator: cairo 1.16.0 (https://cairographics.org)
%%CreationDate: Mon Sep 23 08:21:39 2019
%%Pages: 1
%%DocumentData: Clean7Bit
%%LanguageLevel: 2
%%BoundingBox: 44 0 340 384
%%EndComments
%%BeginProlog
50 dict begin
/q { gsave } bind def
/Q { grestore } bind def
/cm { 6 array astore concat } bind def
/w { setlinewidth } bind def
/J { setlinecap } bind def
/j { setlinejoin } bind def
/M { setmiterlimit } bind def
/d { setdash } bind def
/m { moveto } bind def
/l { lineto } bind def
/c { curveto } bind def
/h { closepath } bind def
/re { exch dup neg 3 1 roll 5 3 roll moveto 0 rlineto
      0 exch rlineto 0 rlineto closepath } bind def
/S { stroke } bind def
/f { fill } bind def
/f* { eofill } bind def
/n { newpath } bind def
/W { clip } bind def
/W* { eoclip } bind def
/BT { } bind def
/ET { } bind def
/BDC { mark 3 1 roll /BDC pdfmark } bind def
/EMC { mark /EMC pdfmark } bind def
/cairo_store_point { /cairo_point_y exch def /cairo_point_x exch def } def
/Tj { show currentpoint cairo_store_point } bind def
/TJ {
  {
    dup
    type /stringtype eq
    { show } { -0.001 mul 0 cairo_font_matrix dtransform rmoveto } ifelse
  } forall
  currentpoint cairo_store_point
} bind def
/cairo_selectfont { cairo_font_matrix aload pop pop pop 0 0 6 array astore
    cairo_font exch selectfont cairo_point_x cairo_point_y moveto } bind def
/Tf { pop /cairo_font exch def /cairo_font_matrix where
      { pop cairo_selectfont } if } bind def
/Td { matrix translate cairo_font_matrix matrix concatmatrix dup
      /cairo_font_matrix exch def dup 4 get exch 5 get cairo_store_point
      /cairo_font where { pop cairo_selectfont } if } bind def
/Tm { 2 copy 8 2 roll 6 array astore /cairo_font_matrix exch def
      cairo_store_point /cairo_font where { pop cairo_selectfont } if } bind def
/g { setgray } bind def
/rg { setrgbcolor } bind def
/d1 { setcachedevice } bind def
/cairo_data_source {
  CairoDataIndex CairoData length lt
    { CairoData CairoDataIndex get /CairoDataIndex CairoDataIndex 1 add def }
    { () } ifelse
} def
/cairo_flush_ascii85_file { cairo_ascii85_file status { cairo_ascii85_file flushfile } if } def
/cairo_image { image cairo_flush_ascii85_file } def
/cairo_imagemask { imagemask cairo_flush_ascii85_file } def
%%EndProlog
%%BeginSetup
%%EndSetup
%%Page: 1 1
%%BeginPageSetup
%%PageBoundingBox: 44 0 340 384
%%EndPageSetup
q 44 0 296 384 rectclip
1 0 0 -1 0 384 cm q
0 g
64.953 31.766 m 63.449 32.246 61.875 32.492 60.293 32.492 c 60.281 32.492
 l 52.254 32.492 45.441 38.512 44.766 46.203 c 44.008 54.504 50.125 61.844
 58.422 62.602 c 58.875 62.641 59.328 62.66 59.785 62.664 c 61.539 62.668
 63.281 62.965 64.938 63.539 c h
64.953 31.766 m f
64.922 104.441 m 63.262 105.012 61.523 105.305 59.77 105.309 c 59.668 105.309
 l 51.387 105.309 44.672 112.02 44.672 120.301 c 44.672 120.363 l 44.723
 128.711 51.492 135.461 59.844 135.48 c 61.566 135.484 63.273 135.77 64.902
 136.328 c h
64.922 104.441 m f
60.145 323.762 m 52.117 323.762 45.305 329.785 44.629 337.473 c 43.871 
345.773 49.984 353.113 58.285 353.871 c 58.738 353.91 59.191 353.934 59.648
 353.934 c 61.402 353.938 63.145 354.23 64.805 354.805 c 64.82 323.035 l
 63.312 323.516 61.742 323.762 60.16 323.762 c h
60.145 323.762 m f
64.852 250.051 m 63.168 250.637 61.395 250.941 59.609 250.941 c 59.602 
250.941 l 51.32 250.941 44.605 257.656 44.605 265.938 c 44.605 265.996 l
 44.656 274.348 51.43 281.094 59.777 281.113 c 60.172 281.113 l 61.758 281.117
 63.332 281.363 64.84 281.844 c h
64.852 250.051 m f
64.887 177.223 m 63.203 177.816 61.43 178.121 59.645 178.125 c 59.629 178.125
 l 51.348 178.125 44.637 184.84 44.637 193.121 c 44.637 193.18 l 44.688 
201.527 51.461 208.277 59.809 208.297 c 61.531 208.301 63.242 208.586 64.871
 209.141 c h
64.887 177.223 m f
143.547 211.629 m 146.93 248.816 165.469 280.152 191.223 290.32 c 192.621
 290.859 194.109 291.125 195.605 291.109 c 222.066 291.125 l 222.07 291.125
 l 223.57 291.141 225.059 290.871 226.457 290.332 c 252.16 280.133 270.879
 248.73 274.34 211.688 c h
143.547 211.629 m f
274.918 199.34 m 274.922 192.867 274.457 186.402 273.527 179.996 c 144.379
 179.934 l 143.52 185.832 143.051 191.781 142.98 197.742 c 142.969 198.801
 142.98 199.852 142.992 200.902 c 274.891 200.965 l 274.898 200.418 274.918
 199.879 274.918 199.34 c h
274.918 199.34 m f
285.637 198.641 m 285.637 198.875 285.645 199.109 285.645 199.344 c 285.637
 219.926 281.383 239.551 273.32 256.559 c 284.047 256.562 l 301.824 255.102
 314.711 242.945 314.719 227.59 c 314.723 212.766 298.82 199.512 285.637
 198.641 c h
285.637 198.641 m f
339.434 0.125 m 75.695 0 l 75.695 17.105 l 75.668 78.547 l 75.668 78.555
 l 75.664 89.43 l 75.633 151.27 l 75.629 162.148 l 75.598 224.082 l 75.594
 234.699 l 75.566 296.496 l 75.566 296.504 l 75.559 308.363 l 75.531 369.805
 l 75.523 383.879 l 339.262 384 l h
234.359 76.309 m 236.23 71.09 239.375 66.422 243.508 62.727 c 245.801 60.852
 249.18 61.188 251.055 63.48 c 252.934 65.773 252.594 69.152 250.301 71.031
 c 249.605 71.617 235.242 84.23 247.684 109.512 c 254.453 123.273 256.227
 134.516 252.957 142.93 c 250.145 150.172 244.609 152.512 243.988 152.754
 c 240.078 142.766 l 240.027 142.781 239.973 142.805 239.922 142.832 c 241.461
 141.906 242.594 140.43 243.082 138.699 c 244.953 133.328 243.168 124.645
 238.051 114.25 c 229.629 97.121 231.395 84.164 234.359 76.309 c h
198.656 76.293 m 200.531 71.074 203.676 66.406 207.809 62.711 c 210.102
 60.836 213.48 61.172 215.355 63.465 c 217.234 65.758 216.895 69.141 214.602
 71.016 c 213.891 71.617 199.551 84.227 211.984 109.496 c 218.754 123.258
 220.527 134.5 217.258 142.914 c 214.445 150.156 208.91 152.496 208.289 
152.738 c 204.383 142.746 l 204.328 142.766 204.273 142.789 204.223 142.812
 c 205.762 141.891 206.895 140.41 207.383 138.684 c 209.254 133.312 207.469
 124.629 202.352 114.23 c 193.926 97.105 195.691 84.148 198.656 76.293 c
 h
161.332 76.277 m 163.203 71.059 166.348 66.391 170.48 62.691 c 172.773 
60.816 176.152 61.156 178.027 63.449 c 179.902 65.742 179.566 69.121 177.273
 70.996 c 176.578 71.586 162.215 84.195 174.652 109.48 c 181.422 123.238
 183.199 134.484 179.93 142.898 c 177.117 150.137 171.582 152.48 170.961
 152.723 c 167.055 142.73 l 167 142.75 166.945 142.77 166.895 142.797 c 
168.434 141.871 169.566 140.395 170.055 138.664 c 171.926 133.293 170.141
 124.609 165.023 114.215 c 156.598 97.09 158.367 84.129 161.332 76.277 c
 h
284.672 267.285 m 284.461 267.301 l 267.496 267.293 l 257.801 282.965 244.789
 294.602 230.41 300.309 c 227.75 301.348 224.918 301.871 222.066 301.855
 c 222.055 301.855 l 195.594 301.844 l 192.75 301.859 189.93 301.336 187.281
 300.301 c 171.246 293.969 156.973 280.348 147.105 261.941 c 137.117 243.324
 131.984 221.078 132.258 197.617 c 132.344 190.207 133 182.812 134.223 175.504
 c 134.691 171.988 137.633 169.32 141.18 169.207 c 276.75 169.27 l 280.297
 169.387 283.238 172.055 283.699 175.578 c 284.379 179.625 284.875 183.742
 285.203 187.891 c 295.508 188.152 305.512 192.766 313.461 200.969 c 320.969
 208.719 325.453 218.68 325.449 227.602 c 325.434 248.762 308.285 265.449
 284.672 267.285 c h
284.672 267.285 m f
Q Q
showpage
%%Trailer
end
%%EOF
