%!PS-Adobe-3.0 EPSF-3.0
%%Creator: cairo 1.16.0 (https://cairographics.org)
%%CreationDate: Mon Sep 23 08:21:39 2019
%%Pages: 1
%%DocumentData: Clean7Bit
%%LanguageLevel: 2
%%BoundingBox: 87 0 297 384
%%EndComments
%%BeginProlog
50 dict begin
/q { gsave } bind def
/Q { grestore } bind def
/cm { 6 array astore concat } bind def
/w { setlinewidth } bind def
/J { setlinecap } bind def
/j { setlinejoin } bind def
/M { setmiterlimit } bind def
/d { setdash } bind def
/m { moveto } bind def
/l { lineto } bind def
/c { curveto } bind def
/h { closepath } bind def
/re { exch dup neg 3 1 roll 5 3 roll moveto 0 rlineto
      0 exch rlineto 0 rlineto closepath } bind def
/S { stroke } bind def
/f { fill } bind def
/f* { eofill } bind def
/n { newpath } bind def
/W { clip } bind def
/W* { eoclip } bind def
/BT { } bind def
/ET { } bind def
/BDC { mark 3 1 roll /BDC pdfmark } bind def
/EMC { mark /EMC pdfmark } bind def
/cairo_store_point { /cairo_point_y exch def /cairo_point_x exch def } def
/Tj { show currentpoint cairo_store_point } bind def
/TJ {
  {
    dup
    type /stringtype eq
    { show } { -0.001 mul 0 cairo_font_matrix dtransform rmoveto } ifelse
  } forall
  currentpoint cairo_store_point
} bind def
/cairo_selectfont { cairo_font_matrix aload pop pop pop 0 0 6 array astore
    cairo_font exch selectfont cairo_point_x cairo_point_y moveto } bind def
/Tf { pop /cairo_font exch def /cairo_font_matrix where
      { pop cairo_selectfont } if } bind def
/Td { matrix translate cairo_font_matrix matrix concatmatrix dup
      /cairo_font_matrix exch def dup 4 get exch 5 get cairo_store_point
      /cairo_font where { pop cairo_selectfont } if } bind def
/Tm { 2 copy 8 2 roll 6 array astore /cairo_font_matrix exch def
      cairo_store_point /cairo_font where { pop cairo_selectfont } if } bind def
/g { setgray } bind def
/rg { setrgbcolor } bind def
/d1 { setcachedevice } bind def
/cairo_data_source {
  CairoDataIndex CairoData length lt
    { CairoData CairoDataIndex get /CairoDataIndex CairoDataIndex 1 add def }
    { () } ifelse
} def
/cairo_flush_ascii85_file { cairo_ascii85_file status { cairo_ascii85_file flushfile } if } def
/cairo_image { image cairo_flush_ascii85_file } def
/cairo_imagemask { imagemask cairo_flush_ascii85_file } def
%%EndProlog
%%BeginSetup
%%EndSetup
%%Page: 1 1
%%BeginPageSetup
%%PageBoundingBox: 87 0 297 384
%%EndPageSetup
q 87 0 210 384 rectclip
1 0 0 -1 0 384 cm q
0 g
129.375 182.844 m 128.629 182.836 127.879 182.781 127.141 182.668 c 127.141
 192.68 l 141.062 192.68 l 143.781 192.68 145.988 194.883 145.988 197.602
 c 145.988 200.32 143.781 202.527 141.062 202.527 c 127.141 202.527 l 127.141
 229.375 l 127.141 258.055 150.391 281.309 179.07 281.309 c 207.754 281.309
 231.004 258.055 231.004 229.375 c 231.004 202.535 l 161.961 202.523 l 159.242
 202.523 157.039 200.316 157.039 197.598 c 157.039 194.879 159.242 192.676
 161.961 192.676 c 231.004 192.688 l 231.004 182.668 l 230.262 182.781 229.516
 182.836 228.766 182.844 c h
129.375 182.844 m f
138.996 150.555 m 217.547 150.555 l 221.023 150.594 223.875 147.805 223.914
 144.328 c 223.957 140.848 221.168 137.996 217.688 137.957 c 217.641 137.957
 217.594 137.957 217.543 137.957 c 202.41 137.957 l 202.398 137.957 202.387
 137.957 202.375 137.957 c 138.996 137.957 l 135.516 137.918 132.664 140.703
 132.625 144.184 c 132.586 147.664 135.371 150.516 138.852 150.555 c 138.898
 150.555 138.945 150.555 138.996 150.555 c h
138.996 150.555 m f
165.934 128.109 m 201.273 128.109 l 204.117 126.445 205.074 122.793 203.414
 119.945 c 202.34 118.117 200.379 116.992 198.258 116.992 c 190.48 116.992
 l 189.48 116.98 180.332 116.887 175.398 110.547 c 173.664 108.285 172.676
 105.539 172.57 102.688 c 165.93 102.688 l 159.301 102.688 153.91 108.391
 153.91 115.398 c 153.91 122.406 159.305 128.109 165.934 128.109 c h
165.934 128.109 m f
256.809 0.926 m 255.645 0.047 254.133 -0.227 252.734 0.191 c 122.695 40.387
 l 258.664 40.387 l 258.664 4.625 l 258.668 3.168 257.98 1.793 256.809 0.926
 c h
256.809 0.926 m f
240.852 201.207 m 240.852 229.375 l 240.855 236.883 239.48 244.328 236.801
 251.34 c 245.82 247.648 l 258.246 242.559 264.195 228.359 259.109 215.934
 c 255.949 208.219 249.059 202.66 240.852 201.207 c h
240.852 201.207 m f
293.559 50.234 m 90.84 50.234 l 88.461 50.973 l 88.434 50.98 88.402 50.984
 88.371 50.992 c 87.609 51.609 87.164 52.539 87.16 53.52 c 87.16 380.719
 l 87.16 382.531 88.629 384 90.441 384 c 293.559 384 l 295.371 384 296.84
 382.531 296.84 380.719 c 296.84 53.516 l 296.84 51.703 295.371 50.234 293.559
 50.234 c h
153.832 345.941 m 136.684 345.941 l 133.965 345.941 131.762 343.734 131.762
 341.016 c 131.762 338.297 133.965 336.094 136.684 336.094 c 153.832 336.094
 l 156.551 336.094 158.758 338.297 158.758 341.016 c 158.758 343.734 156.551
 345.941 153.832 345.941 c h
235.145 345.941 m 172.789 345.941 l 170.066 345.941 167.863 343.734 167.863
 341.016 c 167.863 338.297 170.066 336.094 172.789 336.094 c 235.145 336.094
 l 237.867 336.094 240.07 338.297 240.07 341.016 c 240.07 343.734 237.863
 345.941 235.145 345.941 c h
235.145 321.324 m 136.684 321.324 l 133.965 321.324 131.762 319.121 131.762
 316.402 c 131.762 313.684 133.965 311.477 136.684 311.477 c 235.145 311.477
 l 237.867 311.477 240.07 313.684 240.07 316.402 c 240.07 319.121 237.863
 321.324 235.145 321.324 c h
249.551 256.762 m 229.527 264.953 l 209.898 292.84 171.375 299.527 143.492
 279.895 c 127.059 268.324 117.281 249.477 117.293 229.375 c 117.293 177.367
 l 111.387 170.715 111.992 160.535 118.645 154.629 c 120.34 153.125 122.336
 151.992 124.496 151.312 c 120.578 143.324 123.875 133.676 131.859 129.758
 c 134.082 128.668 136.52 128.105 138.996 128.109 c 147.879 128.109 l 145.383
 124.34 144.059 119.918 144.066 115.398 c 144.066 102.961 153.875 92.844
 165.934 92.844 c 178.035 92.844 l 180.754 92.844 182.953 95.051 182.953
 97.77 c 182.953 98.188 182.898 98.605 182.793 99.012 c 182.145 101.488 
182.266 103.328 183.156 104.484 c 184.816 106.641 189.098 107.141 190.465
 107.145 c 198.262 107.145 l 206.992 107.141 214.07 114.215 214.074 122.945
 c 214.078 124.703 213.785 126.449 213.211 128.109 c 217.543 128.109 l 226.441
 128.094 233.672 135.293 233.691 144.191 c 233.695 146.52 233.195 148.82
 232.223 150.938 c 240.918 152.824 246.434 161.402 244.543 170.098 c 243.957
 172.797 242.684 175.301 240.852 177.367 c 240.852 191.246 l 259.57 193.59
 272.848 210.668 270.504 229.387 c 268.973 241.625 260.965 252.09 249.547
 256.762 c h
249.551 256.762 m f
228.766 160.398 m 129.375 160.398 l 125.898 160.398 123.078 163.219 123.078
 166.699 c 123.078 170.176 125.898 172.996 129.375 172.996 c 228.766 172.996
 l 232.246 172.996 235.066 170.176 235.066 166.699 c 235.066 163.219 232.246
 160.398 228.766 160.398 c h
228.766 160.398 m f
Q Q
showpage
%%Trailer
end
%%EOF
