%!PS-Adobe-3.0 EPSF-3.0
%%Creator: cairo 1.16.0 (https://cairographics.org)
%%CreationDate: Mon Sep 23 08:21:39 2019
%%Pages: 1
%%DocumentData: Clean7Bit
%%LanguageLevel: 2
%%BoundingBox: 53 0 331 384
%%EndComments
%%BeginProlog
50 dict begin
/q { gsave } bind def
/Q { grestore } bind def
/cm { 6 array astore concat } bind def
/w { setlinewidth } bind def
/J { setlinecap } bind def
/j { setlinejoin } bind def
/M { setmiterlimit } bind def
/d { setdash } bind def
/m { moveto } bind def
/l { lineto } bind def
/c { curveto } bind def
/h { closepath } bind def
/re { exch dup neg 3 1 roll 5 3 roll moveto 0 rlineto
      0 exch rlineto 0 rlineto closepath } bind def
/S { stroke } bind def
/f { fill } bind def
/f* { eofill } bind def
/n { newpath } bind def
/W { clip } bind def
/W* { eoclip } bind def
/BT { } bind def
/ET { } bind def
/BDC { mark 3 1 roll /BDC pdfmark } bind def
/EMC { mark /EMC pdfmark } bind def
/cairo_store_point { /cairo_point_y exch def /cairo_point_x exch def } def
/Tj { show currentpoint cairo_store_point } bind def
/TJ {
  {
    dup
    type /stringtype eq
    { show } { -0.001 mul 0 cairo_font_matrix dtransform rmoveto } ifelse
  } forall
  currentpoint cairo_store_point
} bind def
/cairo_selectfont { cairo_font_matrix aload pop pop pop 0 0 6 array astore
    cairo_font exch selectfont cairo_point_x cairo_point_y moveto } bind def
/Tf { pop /cairo_font exch def /cairo_font_matrix where
      { pop cairo_selectfont } if } bind def
/Td { matrix translate cairo_font_matrix matrix concatmatrix dup
      /cairo_font_matrix exch def dup 4 get exch 5 get cairo_store_point
      /cairo_font where { pop cairo_selectfont } if } bind def
/Tm { 2 copy 8 2 roll 6 array astore /cairo_font_matrix exch def
      cairo_store_point /cairo_font where { pop cairo_selectfont } if } bind def
/g { setgray } bind def
/rg { setrgbcolor } bind def
/d1 { setcachedevice } bind def
/cairo_data_source {
  CairoDataIndex CairoData length lt
    { CairoData CairoDataIndex get /CairoDataIndex CairoDataIndex 1 add def }
    { () } ifelse
} def
/cairo_flush_ascii85_file { cairo_ascii85_file status { cairo_ascii85_file flushfile } if } def
/cairo_image { image cairo_flush_ascii85_file } def
/cairo_imagemask { imagemask cairo_flush_ascii85_file } def
%%EndProlog
%%BeginSetup
%%EndSetup
%%Page: 1 1
%%BeginPageSetup
%%PageBoundingBox: 53 0 331 384
%%EndPageSetup
q 53 0 278 384 rectclip
1 0 0 -1 0 384 cm q
0 g
184.012 177.719 m 182.418 177.406 180.801 177.25 179.18 177.242 c 177.652
 177.238 176.129 177.402 174.641 177.73 c 178.309 180.922 l 188.035 189.414
 194.352 201.145 196.09 213.938 c 196.754 218.746 l 197.895 227.172 202.02
 234.91 208.375 240.562 c 218.434 249.449 l 227.621 239.445 226.168 218.219
 214.395 200.477 c 206.332 188.316 194.973 179.809 184.012 177.719 c h
184.012 177.719 m f
187 220.094 m 186.336 215.285 l 184.922 204.852 179.773 195.281 171.848
 188.352 c 165.59 182.91 l 156.379 192.902 157.824 214.152 169.605 231.91
 c 177.668 244.066 189.027 252.574 199.992 254.668 c 203.109 255.309 206.324
 255.301 209.438 254.641 c 201.855 247.938 l 193.734 240.73 188.465 230.852
 187 220.094 c h
187 220.094 m f
111.52 0 160.961 32.969 re f
192 135.586 m 148.258 135.586 112.672 171.746 112.672 216.191 c 112.672
 260.637 148.258 296.797 192 296.797 c 235.742 296.797 271.328 260.637 271.328
 216.191 c 271.328 171.746 235.742 135.586 192 135.586 c h
221.211 260.031 m 216.406 263.336 210.699 265.07 204.867 264.996 c 202.609
 264.988 200.359 264.77 198.141 264.34 c 184.629 261.758 170.895 251.672
 161.395 237.352 c 153.812 225.922 149.648 213.039 149.668 201.078 c 149.688
 188.426 154.344 178.223 162.781 172.352 c 169.207 167.879 177.184 166.395
 185.852 168.047 c 199.363 170.625 213.098 180.715 222.598 195.031 c 230.18
 206.465 234.344 219.344 234.324 231.305 c 234.309 243.961 229.648 254.164
 221.211 260.031 c h
221.211 260.031 m f
330.668 119.758 m 329.945 118.461 328.141 115.492 325.289 111.047 c 325.023
 110.629 324.734 110.219 324.438 109.824 c 273.883 42.812 l 110.047 42.812
 l 56.875 110.02 l 55.266 112.027 54.098 114.348 53.441 116.836 c 53.398
 117 53.359 117.145 53.332 117.27 c 53.332 384 l 330.668 384 l h
192 306.645 m 142.828 306.645 102.824 266.066 102.824 216.191 c 102.824
 166.316 142.828 125.742 192 125.742 c 241.172 125.742 281.176 166.316 281.176
 216.191 c 281.176 266.066 241.172 306.645 192 306.645 c h
192 306.645 m f
Q Q
showpage
%%Trailer
end
%%EOF
