%!PS-Adobe-3.0 EPSF-3.0
%%Creator: cairo 1.16.0 (https://cairographics.org)
%%CreationDate: Mon Sep 23 08:21:40 2019
%%Pages: 1
%%DocumentData: Clean7Bit
%%LanguageLevel: 2
%%BoundingBox: 0 64 384 320
%%EndComments
%%BeginProlog
50 dict begin
/q { gsave } bind def
/Q { grestore } bind def
/cm { 6 array astore concat } bind def
/w { setlinewidth } bind def
/J { setlinecap } bind def
/j { setlinejoin } bind def
/M { setmiterlimit } bind def
/d { setdash } bind def
/m { moveto } bind def
/l { lineto } bind def
/c { curveto } bind def
/h { closepath } bind def
/re { exch dup neg 3 1 roll 5 3 roll moveto 0 rlineto
      0 exch rlineto 0 rlineto closepath } bind def
/S { stroke } bind def
/f { fill } bind def
/f* { eofill } bind def
/n { newpath } bind def
/W { clip } bind def
/W* { eoclip } bind def
/BT { } bind def
/ET { } bind def
/BDC { mark 3 1 roll /BDC pdfmark } bind def
/EMC { mark /EMC pdfmark } bind def
/cairo_store_point { /cairo_point_y exch def /cairo_point_x exch def } def
/Tj { show currentpoint cairo_store_point } bind def
/TJ {
  {
    dup
    type /stringtype eq
    { show } { -0.001 mul 0 cairo_font_matrix dtransform rmoveto } ifelse
  } forall
  currentpoint cairo_store_point
} bind def
/cairo_selectfont { cairo_font_matrix aload pop pop pop 0 0 6 array astore
    cairo_font exch selectfont cairo_point_x cairo_point_y moveto } bind def
/Tf { pop /cairo_font exch def /cairo_font_matrix where
      { pop cairo_selectfont } if } bind def
/Td { matrix translate cairo_font_matrix matrix concatmatrix dup
      /cairo_font_matrix exch def dup 4 get exch 5 get cairo_store_point
      /cairo_font where { pop cairo_selectfont } if } bind def
/Tm { 2 copy 8 2 roll 6 array astore /cairo_font_matrix exch def
      cairo_store_point /cairo_font where { pop cairo_selectfont } if } bind def
/g { setgray } bind def
/rg { setrgbcolor } bind def
/d1 { setcachedevice } bind def
/cairo_data_source {
  CairoDataIndex CairoData length lt
    { CairoData CairoDataIndex get /CairoDataIndex CairoDataIndex 1 add def }
    { () } ifelse
} def
/cairo_flush_ascii85_file { cairo_ascii85_file status { cairo_ascii85_file flushfile } if } def
/cairo_image { image cairo_flush_ascii85_file } def
/cairo_imagemask { imagemask cairo_flush_ascii85_file } def
%%EndProlog
%%BeginSetup
%%EndSetup
%%Page: 1 1
%%BeginPageSetup
%%PageBoundingBox: 0 64 384 320
%%EndPageSetup
q 0 64 384 256 rectclip
1 0 0 -1 0 384 cm q
0 g
71.16 127.777 m 64.961 127.777 59.941 132.805 59.941 139.004 c 59.945 145.203
 64.973 150.227 71.172 150.223 c 77.367 150.223 82.391 145.191 82.391 138.996
 c 82.387 135.949 81.148 133.035 78.957 130.918 c 76.863 128.898 74.07 127.773
 71.16 127.777 c h
71.16 127.777 m f
177.547 64.352 m 2.129 124.648 l 0.484 125.215 -0.395 127.008 0.172 128.656
 c 0.332 129.129 0.605 129.555 0.965 129.902 c 122.367 247.055 l 123.621
 248.262 125.617 248.227 126.824 246.973 c 127.172 246.617 127.426 246.18
 127.57 245.703 c 181.586 68.25 l 182.094 66.586 181.152 64.824 179.488 
64.316 c 178.855 64.121 178.176 64.137 177.547 64.352 c h
86.324 153.633 m 82.453 157.668 77.125 159.984 71.535 160.07 c 71.406 160.07
 71.277 160.07 71.148 160.07 c 59.512 160.066 50.078 150.625 50.086 138.984
 c 50.09 127.348 59.527 117.914 71.168 117.922 c 82.809 117.926 92.242 127.367
 92.234 139.004 c 92.23 144.461 90.113 149.703 86.324 153.629 c h
121.496 206.094 m 116.508 211.262 108.277 211.41 103.109 206.426 c 97.941
 201.438 97.797 193.207 102.781 188.039 c 107.766 182.871 115.996 182.727
 121.164 187.711 c 123.648 190.105 125.078 193.387 125.137 196.836 c 125.203
 200.285 123.891 203.617 121.496 206.094 c h
144.203 135.348 m 141.07 138.609 136.766 140.48 132.246 140.551 c 132.141
 140.551 132.039 140.551 131.934 140.551 c 122.523 140.543 114.902 132.914
 114.906 123.504 c 114.91 114.094 122.543 106.473 131.953 106.477 c 141.359
 106.48 148.984 114.113 148.98 123.523 c 148.977 127.934 147.266 132.168
 144.203 135.344 c h
144.203 135.348 m f
131.945 116.324 m 131.812 116.324 l 127.844 116.398 124.684 119.672 124.754
 123.645 c 124.824 127.613 128.102 130.773 132.074 130.703 c 133.98 130.668
 135.793 129.879 137.117 128.508 c 139.875 125.648 139.793 121.098 136.934
 118.34 c 135.594 117.047 133.809 116.324 131.949 116.324 c h
131.945 116.324 m f
112.141 193.914 m 112.082 193.914 l 110.301 193.93 108.871 195.387 108.891
 197.164 c 108.906 198.945 110.359 200.375 112.141 200.355 c 113.918 200.34
 115.348 198.887 115.332 197.105 c 115.316 195.352 113.895 193.93 112.141
 193.914 c h
112.141 193.914 m f
309.723 225.535 m 305.75 225.531 302.531 228.75 302.527 232.719 c 302.523
 236.691 305.742 239.91 309.715 239.914 c 313.684 239.918 316.906 236.699
 316.906 232.727 c 316.906 232.359 316.879 231.992 316.824 231.629 c 316.273
 228.133 313.266 225.547 309.723 225.535 c h
309.723 225.535 m f
381.84 205.191 m 205.734 146.922 l 205.41 146.812 205.066 146.758 204.723
 146.754 c 203.984 146.762 203.273 147.031 202.711 147.508 c 201.863 148.211
 201.453 149.309 201.629 150.395 c 227.27 317.148 l 227.535 318.867 229.145
 320.051 230.867 319.785 c 231.359 319.707 231.828 319.516 232.23 319.227
 c 382.691 210.742 l 384.102 209.723 384.422 207.754 383.406 206.34 c 383.016
 205.801 382.469 205.398 381.84 205.191 c h
247.438 167.477 m 254.531 166.383 261.172 171.25 262.262 178.348 c 263.355
 185.445 258.488 192.082 251.391 193.176 c 244.293 194.266 237.656 189.398
 236.566 182.305 c 236.566 182.301 236.566 182.301 236.566 182.301 c 235.484
 175.207 240.348 168.578 247.438 167.477 c h
255.793 257.277 m 242.082 259.387 229.262 249.98 227.152 236.273 c 225.047
 222.562 234.449 209.742 248.16 207.633 c 261.867 205.527 274.688 214.93
 276.797 228.641 c 278.832 242.332 269.461 255.109 255.789 257.277 c h
312.309 249.562 m 303.008 250.996 294.309 244.613 292.879 235.312 c 291.449
 226.016 297.828 217.316 307.129 215.883 c 316.43 214.453 325.125 220.836
 326.555 230.137 c 327.91 239.418 321.566 248.066 312.305 249.562 c h
312.309 249.562 m f
249.891 183.441 m 251.609 183.176 252.793 181.57 252.531 179.848 c 252.297
 178.309 250.969 177.172 249.414 177.172 c 249.254 177.172 249.09 177.184
 248.934 177.207 c 247.211 177.473 246.031 179.082 246.297 180.805 c 246.559
 182.523 248.168 183.703 249.891 183.441 c h
249.891 183.441 m f
251.98 217.188 m 243.547 217.184 236.711 224.012 236.703 232.445 c 236.699
 240.875 243.527 247.715 251.961 247.723 c 260.391 247.727 267.23 240.895
 267.238 232.465 c 267.238 231.684 267.18 230.906 267.059 230.137 c 265.945
 222.672 259.523 217.16 251.98 217.188 c h
251.98 217.188 m f
Q Q
showpage
%%Trailer
end
%%EOF
