%!PS-Adobe-3.0 EPSF-3.0
%%Creator: cairo 1.16.0 (https://cairographics.org)
%%CreationDate: Mon Sep 23 08:21:40 2019
%%Pages: 1
%%DocumentData: Clean7Bit
%%LanguageLevel: 2
%%BoundingBox: 41 0 343 384
%%EndComments
%%BeginProlog
50 dict begin
/q { gsave } bind def
/Q { grestore } bind def
/cm { 6 array astore concat } bind def
/w { setlinewidth } bind def
/J { setlinecap } bind def
/j { setlinejoin } bind def
/M { setmiterlimit } bind def
/d { setdash } bind def
/m { moveto } bind def
/l { lineto } bind def
/c { curveto } bind def
/h { closepath } bind def
/re { exch dup neg 3 1 roll 5 3 roll moveto 0 rlineto
      0 exch rlineto 0 rlineto closepath } bind def
/S { stroke } bind def
/f { fill } bind def
/f* { eofill } bind def
/n { newpath } bind def
/W { clip } bind def
/W* { eoclip } bind def
/BT { } bind def
/ET { } bind def
/BDC { mark 3 1 roll /BDC pdfmark } bind def
/EMC { mark /EMC pdfmark } bind def
/cairo_store_point { /cairo_point_y exch def /cairo_point_x exch def } def
/Tj { show currentpoint cairo_store_point } bind def
/TJ {
  {
    dup
    type /stringtype eq
    { show } { -0.001 mul 0 cairo_font_matrix dtransform rmoveto } ifelse
  } forall
  currentpoint cairo_store_point
} bind def
/cairo_selectfont { cairo_font_matrix aload pop pop pop 0 0 6 array astore
    cairo_font exch selectfont cairo_point_x cairo_point_y moveto } bind def
/Tf { pop /cairo_font exch def /cairo_font_matrix where
      { pop cairo_selectfont } if } bind def
/Td { matrix translate cairo_font_matrix matrix concatmatrix dup
      /cairo_font_matrix exch def dup 4 get exch 5 get cairo_store_point
      /cairo_font where { pop cairo_selectfont } if } bind def
/Tm { 2 copy 8 2 roll 6 array astore /cairo_font_matrix exch def
      cairo_store_point /cairo_font where { pop cairo_selectfont } if } bind def
/g { setgray } bind def
/rg { setrgbcolor } bind def
/d1 { setcachedevice } bind def
/cairo_data_source {
  CairoDataIndex CairoData length lt
    { CairoData CairoDataIndex get /CairoDataIndex CairoDataIndex 1 add def }
    { () } ifelse
} def
/cairo_flush_ascii85_file { cairo_ascii85_file status { cairo_ascii85_file flushfile } if } def
/cairo_image { image cairo_flush_ascii85_file } def
/cairo_imagemask { imagemask cairo_flush_ascii85_file } def
%%EndProlog
%%BeginSetup
%%EndSetup
%%Page: 1 1
%%BeginPageSetup
%%PageBoundingBox: 41 0 343 384
%%EndPageSetup
q 41 0 302 384 rectclip
1 0 0 -1 0 384 cm q
0 g
68.891 106.293 m 68.633 107.363 69.293 108.438 70.363 108.691 c 71.031 
108.852 71.738 108.656 72.227 108.176 c 73.715 104.988 l 70.199 104.867 
l 69.543 105.082 69.051 105.621 68.891 106.293 c h
68.891 106.293 m f
109.996 56.219 m 110.488 55.234 110.09 54.035 109.105 53.543 c 108.121 
53.051 106.926 53.445 106.43 54.43 c 106.293 54.703 106.223 55.004 106.219
 55.309 c 107.422 58.613 l h
109.996 56.219 m f
90.348 121.352 m 89.855 122.336 90.254 123.531 91.238 124.023 c 92.223 
124.52 93.422 124.121 93.914 123.137 c 94.051 122.863 94.121 122.562 94.125
 122.258 c 92.926 118.953 l h
90.348 121.352 m f
83.965 62.324 m 84.09 58.809 l 83.742 57.766 82.613 57.203 81.57 57.551
 c 80.523 57.898 79.961 59.027 80.309 60.07 c 80.406 60.359 80.566 60.621
 80.777 60.836 c h
83.965 62.324 m f
70.004 81.535 m 67.605 78.961 l 66.621 78.469 65.422 78.867 64.93 79.848
 c 64.438 80.832 64.836 82.031 65.82 82.523 c 66.09 82.66 66.391 82.734 
66.699 82.734 c h
70.004 81.535 m f
239.543 200.344 m 234.273 195.527 229.641 191.316 221.148 190.539 c 205.75
 324.125 l 205.469 326.547 203.422 328.375 200.984 328.375 c 200.797 328.375
 200.609 328.363 200.426 328.344 c 197.793 328.039 195.902 325.66 196.207
 323.027 c 196.207 323.023 l 211.406 191.199 l 205.328 192.742 201.391 196.336
 197.008 200.344 c 190.621 206.184 183.379 212.801 169.266 212.801 c 155.152
 212.801 147.918 206.184 141.531 200.344 c 135.699 195.008 130.66 190.398
 120.277 190.398 c 116.754 190.332 113.254 191 110.004 192.359 c 126.785
 373.832 l 127.297 379.605 132.145 384.023 137.941 384 c 267.684 384 l 273.48
 384.023 278.332 379.602 278.836 373.824 c 294.758 200.598 l 288.434 206.375
 281.199 212.801 267.293 212.801 c 253.172 212.801 245.934 206.184 239.543
 200.344 c h
239.543 200.344 m f
100.805 91.895 m 99.125 89.844 99.43 86.82 101.48 85.141 c 102.336 84.438
 103.41 84.055 104.52 84.055 c 151.344 84.055 l 148.414 56.094 124.84 34.863
 96.727 34.859 c 96 34.859 95.273 34.875 94.543 34.902 c 65.047 36.039 41.391
 61.012 41.805 90.574 c 42.254 120.906 67.207 145.133 97.539 144.684 c 110.547
 144.492 123.066 139.688 132.863 131.125 c h
102.16 45.441 m 107.621 42.094 114.758 43.809 118.102 49.27 c 120.551 53.266
 120.348 58.348 117.594 62.141 c 117.41 62.391 117.207 62.621 116.984 62.828
 c 108.664 70.59 l 106.723 72.398 103.688 72.289 101.879 70.352 c 101.441
 69.879 101.098 69.324 100.879 68.719 c 96.992 58.031 l 96.891 57.742 96.812
 57.441 96.762 57.141 c 96.02 52.508 98.152 47.883 102.16 45.441 c h
70.926 56.73 m 72.426 50.504 78.688 46.676 84.91 48.176 c 89.465 49.27 
92.91 53 93.645 57.629 c 93.695 57.93 93.711 58.238 93.703 58.547 c 93.301
 69.91 l 93.207 72.562 90.984 74.633 88.336 74.539 c 87.691 74.516 87.059
 74.363 86.473 74.094 c 76.176 69.281 l 75.895 69.152 75.629 68.992 75.383
 68.812 c 71.582 66.062 69.824 61.289 70.926 56.73 c h
56.828 86.801 m 53.48 81.34 55.195 74.203 60.656 70.859 c 64.652 68.41 
69.734 68.609 73.527 71.367 c 73.777 71.547 74.008 71.754 74.219 71.977 
c 81.973 80.297 l 83.781 82.238 83.676 85.273 81.734 87.082 c 81.266 87.523
 80.707 87.863 80.102 88.082 c 69.414 91.969 l 69.125 92.074 68.828 92.148
 68.523 92.199 c 67.918 92.293 67.309 92.34 66.695 92.34 c 62.664 92.344
 58.926 90.242 56.828 86.801 c h
70.848 118.355 m 69.926 118.355 69.012 118.246 68.117 118.031 c 61.895 
116.535 58.062 110.273 59.559 104.047 c 60.656 99.492 64.387 96.043 69.016
 95.309 c 69.32 95.262 69.629 95.242 69.934 95.254 c 81.301 95.656 l 83.949
 95.746 86.023 97.973 85.93 100.621 c 85.906 101.266 85.754 101.898 85.48
 102.48 c 80.672 112.789 l 80.539 113.066 80.387 113.332 80.203 113.578 
c 78.031 116.578 74.551 118.352 70.848 118.352 c h
98.188 132.129 m 92.727 135.473 85.59 133.758 82.246 128.297 c 79.801 124.297
 80 119.223 82.754 115.43 c 82.934 115.18 83.141 114.949 83.363 114.742 
c 91.684 106.984 l 93.625 105.18 96.66 105.285 98.469 107.223 c 98.906 107.695
 99.246 108.25 99.469 108.855 c 103.352 119.543 l 103.457 119.832 103.535
 120.133 103.586 120.434 c 104.324 125.066 102.191 129.688 98.188 132.129
 c h
98.188 132.129 m f
143.145 128.539 m 144.707 130.445 144.57 133.227 142.828 134.969 c 132.996
 144.906 120.234 151.422 106.422 153.559 c 109.094 182.469 l 112.711 181.332
 116.488 180.766 120.277 180.801 c 134.391 180.801 141.629 187.422 148.016
 193.262 c 153.848 198.598 158.887 203.203 169.27 203.203 c 179.652 203.203
 184.695 198.594 190.531 193.258 c 195.992 188.266 202.09 182.719 212.559
 181.211 c 222.652 93.66 l 114.641 93.66 l h
143.145 128.539 m f
246.02 193.258 m 251.859 198.594 256.898 203.203 267.293 203.203 c 277.684
 203.203 282.719 198.594 288.555 193.258 c 290.898 191.027 293.387 188.953
 296 187.047 c 304.582 93.656 l 232.32 93.656 l 222.246 181.004 l 233.797
 182.117 240.262 187.996 246.02 193.258 c h
246.02 193.258 m f
337.402 0 m 284.746 0 l 255.512 -0.008 230.914 21.914 227.574 50.961 c 
222.652 93.656 l 232.32 93.656 l 237.113 52.055 l 239.902 27.859 260.391
 9.598 284.746 9.602 c 337.402 9.602 l 340.051 9.602 342.199 7.453 342.199
 4.801 c 342.199 2.148 340.051 0 337.402 0 c h
337.402 0 m f
Q Q
showpage
%%Trailer
end
%%EOF
