%!PS-Adobe-3.0 EPSF-3.0
%%Creator: cairo 1.16.0 (https://cairographics.org)
%%CreationDate: Mon Sep 23 08:21:40 2019
%%Pages: 1
%%DocumentData: Clean7Bit
%%LanguageLevel: 2
%%BoundingBox: 64 0 320 384
%%EndComments
%%BeginProlog
50 dict begin
/q { gsave } bind def
/Q { grestore } bind def
/cm { 6 array astore concat } bind def
/w { setlinewidth } bind def
/J { setlinecap } bind def
/j { setlinejoin } bind def
/M { setmiterlimit } bind def
/d { setdash } bind def
/m { moveto } bind def
/l { lineto } bind def
/c { curveto } bind def
/h { closepath } bind def
/re { exch dup neg 3 1 roll 5 3 roll moveto 0 rlineto
      0 exch rlineto 0 rlineto closepath } bind def
/S { stroke } bind def
/f { fill } bind def
/f* { eofill } bind def
/n { newpath } bind def
/W { clip } bind def
/W* { eoclip } bind def
/BT { } bind def
/ET { } bind def
/BDC { mark 3 1 roll /BDC pdfmark } bind def
/EMC { mark /EMC pdfmark } bind def
/cairo_store_point { /cairo_point_y exch def /cairo_point_x exch def } def
/Tj { show currentpoint cairo_store_point } bind def
/TJ {
  {
    dup
    type /stringtype eq
    { show } { -0.001 mul 0 cairo_font_matrix dtransform rmoveto } ifelse
  } forall
  currentpoint cairo_store_point
} bind def
/cairo_selectfont { cairo_font_matrix aload pop pop pop 0 0 6 array astore
    cairo_font exch selectfont cairo_point_x cairo_point_y moveto } bind def
/Tf { pop /cairo_font exch def /cairo_font_matrix where
      { pop cairo_selectfont } if } bind def
/Td { matrix translate cairo_font_matrix matrix concatmatrix dup
      /cairo_font_matrix exch def dup 4 get exch 5 get cairo_store_point
      /cairo_font where { pop cairo_selectfont } if } bind def
/Tm { 2 copy 8 2 roll 6 array astore /cairo_font_matrix exch def
      cairo_store_point /cairo_font where { pop cairo_selectfont } if } bind def
/g { setgray } bind def
/rg { setrgbcolor } bind def
/d1 { setcachedevice } bind def
/cairo_data_source {
  CairoDataIndex CairoData length lt
    { CairoData CairoDataIndex get /CairoDataIndex CairoDataIndex 1 add def }
    { () } ifelse
} def
/cairo_flush_ascii85_file { cairo_ascii85_file status { cairo_ascii85_file flushfile } if } def
/cairo_image { image cairo_flush_ascii85_file } def
/cairo_imagemask { imagemask cairo_flush_ascii85_file } def
%%EndProlog
%%BeginSetup
%%EndSetup
%%Page: 1 1
%%BeginPageSetup
%%PageBoundingBox: 64 0 320 384
%%EndPageSetup
q 64 0 256 384 rectclip
1 0 0 -1 0 384 cm q
0 g
297.734 4.59 m 297.277 1.973 294.375 0 290.988 0 c 92.02 0 l 88.633 0 85.734
 1.969 85.277 4.59 c 81.984 23.395 l 301.027 23.395 l h
297.734 4.59 m f
220.59 177.555 m 220.59 201.734 207.789 221.336 192 221.336 c 176.211 221.336
 163.41 201.734 163.41 177.555 c 163.41 153.375 176.211 133.773 192 133.773
 c 207.789 133.773 220.59 153.375 220.59 177.555 c h
220.59 177.555 m f
112.004 384 m 271.988 384 l 276.137 384 281.102 376.516 281.586 365.773
 c 287.754 256.328 l 96.246 256.328 l 102.414 365.715 l 102.891 376.516 
107.852 384 112.004 384 c h
112.004 384 m f
304.426 246.48 m 313.879 111.715 l 70.121 111.715 l 79.57 246.48 l h
164.246 140.324 m 171.523 129.75 181.379 123.926 192 123.926 c 202.621 
123.926 212.477 129.754 219.754 140.324 c 226.645 150.336 230.438 163.559
 230.438 177.555 c 230.438 191.551 226.645 204.773 219.754 214.785 c 212.477
 225.359 202.621 231.184 192 231.184 c 181.379 231.184 171.523 225.355 164.246
 214.785 c 157.355 204.773 153.562 191.551 153.562 177.555 c 153.562 163.559
 157.355 150.336 164.246 140.324 c h
164.246 140.324 m f
300.746 61.891 m 83.254 61.891 l 86.688 101.867 l 297.312 101.867 l h
300.746 61.891 m f
64 33.238 256 18.809 re f
Q Q
showpage
%%Trailer
end
%%EOF
