%!PS-Adobe-3.0 EPSF-3.0
%%Creator: cairo 1.16.0 (https://cairographics.org)
%%CreationDate: Mon Sep 23 08:21:41 2019
%%Pages: 1
%%DocumentData: Clean7Bit
%%LanguageLevel: 2
%%BoundingBox: 0 6 384 378
%%EndComments
%%BeginProlog
50 dict begin
/q { gsave } bind def
/Q { grestore } bind def
/cm { 6 array astore concat } bind def
/w { setlinewidth } bind def
/J { setlinecap } bind def
/j { setlinejoin } bind def
/M { setmiterlimit } bind def
/d { setdash } bind def
/m { moveto } bind def
/l { lineto } bind def
/c { curveto } bind def
/h { closepath } bind def
/re { exch dup neg 3 1 roll 5 3 roll moveto 0 rlineto
      0 exch rlineto 0 rlineto closepath } bind def
/S { stroke } bind def
/f { fill } bind def
/f* { eofill } bind def
/n { newpath } bind def
/W { clip } bind def
/W* { eoclip } bind def
/BT { } bind def
/ET { } bind def
/BDC { mark 3 1 roll /BDC pdfmark } bind def
/EMC { mark /EMC pdfmark } bind def
/cairo_store_point { /cairo_point_y exch def /cairo_point_x exch def } def
/Tj { show currentpoint cairo_store_point } bind def
/TJ {
  {
    dup
    type /stringtype eq
    { show } { -0.001 mul 0 cairo_font_matrix dtransform rmoveto } ifelse
  } forall
  currentpoint cairo_store_point
} bind def
/cairo_selectfont { cairo_font_matrix aload pop pop pop 0 0 6 array astore
    cairo_font exch selectfont cairo_point_x cairo_point_y moveto } bind def
/Tf { pop /cairo_font exch def /cairo_font_matrix where
      { pop cairo_selectfont } if } bind def
/Td { matrix translate cairo_font_matrix matrix concatmatrix dup
      /cairo_font_matrix exch def dup 4 get exch 5 get cairo_store_point
      /cairo_font where { pop cairo_selectfont } if } bind def
/Tm { 2 copy 8 2 roll 6 array astore /cairo_font_matrix exch def
      cairo_store_point /cairo_font where { pop cairo_selectfont } if } bind def
/g { setgray } bind def
/rg { setrgbcolor } bind def
/d1 { setcachedevice } bind def
/cairo_data_source {
  CairoDataIndex CairoData length lt
    { CairoData CairoDataIndex get /CairoDataIndex CairoDataIndex 1 add def }
    { () } ifelse
} def
/cairo_flush_ascii85_file { cairo_ascii85_file status { cairo_ascii85_file flushfile } if } def
/cairo_image { image cairo_flush_ascii85_file } def
/cairo_imagemask { imagemask cairo_flush_ascii85_file } def
%%EndProlog
%%BeginSetup
%%EndSetup
%%Page: 1 1
%%BeginPageSetup
%%PageBoundingBox: 0 6 384 378
%%EndPageSetup
q 0 6 384 372 rectclip
1 0 0 -1 0 384 cm q
0 g
134.621 170.898 m 140.762 182.078 151.121 190.332 163.391 193.816 c 189.016
 201.094 215.707 186.301 223.121 160.719 c 230.551 135.234 215.914 108.559
 190.43 101.133 c 186.07 99.859 181.551 99.215 177.012 99.211 c 155.473 
99.25 136.539 113.492 130.531 134.18 c 126.93 146.473 128.402 159.699 134.621
 170.898 c h
187.367 139.164 m 192.309 132.922 l 192.531 132.645 192.773 132.391 193.043
 132.16 c 197.34 128.473 203.816 128.965 207.504 133.258 c 210.207 136.406
 210.75 140.871 208.875 144.574 c 207.137 148.023 203.602 150.199 199.738
 150.195 c 199.477 150.195 199.211 150.188 198.949 150.164 c 198.598 150.137
 198.25 150.078 197.91 149.984 c 190.23 147.875 l 187.301 147.07 185.578
 144.047 186.379 141.117 c 186.574 140.402 186.914 139.738 187.371 139.156
 c h
185.109 157.992 m 191.355 162.93 l 191.629 163.148 191.883 163.395 192.113
 163.664 c 195.805 167.961 195.312 174.434 191.016 178.125 c 186.719 181.816
 180.242 181.324 176.555 177.027 c 174.781 174.961 173.902 172.281 174.109
 169.566 c 174.137 169.215 174.195 168.867 174.293 168.531 c 176.398 160.852
 l 177.203 157.922 180.227 156.195 183.156 157 c 183.871 157.195 184.539
 157.531 185.117 157.992 c h
160.172 119.922 m 162.73 114.867 168.898 112.844 173.953 115.402 c 177.656
 117.27 179.867 121.191 179.543 125.328 c 179.516 125.68 179.453 126.027
 179.359 126.367 c 177.25 134.047 l 176.449 136.977 173.422 138.699 170.492
 137.895 c 169.781 137.699 169.113 137.363 168.535 136.902 c 162.289 131.961
 l 162.016 131.742 161.762 131.5 161.531 131.234 c 158.824 128.09 158.285
 123.617 160.172 119.922 c h
144.781 150.32 m 146.648 146.613 150.57 144.402 154.711 144.73 c 155.062
 144.758 155.406 144.82 155.746 144.914 c 163.426 147.023 l 166.355 147.824
 168.078 150.852 167.273 153.781 c 167.078 154.492 166.742 155.16 166.281
 155.738 c 161.344 161.98 l 161.125 162.258 160.879 162.512 160.609 162.742
 c 156.312 166.434 149.836 165.941 146.148 161.645 c 143.445 158.496 142.902
 154.031 144.777 150.328 c h
144.781 150.32 m f
203.836 287.746 m 208.637 284.68 l 208.934 284.492 209.246 284.332 209.574
 284.203 c 214.137 282.391 219.305 284.617 221.121 289.184 c 222.285 292.113
 221.809 295.441 219.871 297.93 c 229.191 296.105 l 229.891 284.777 224.641
 273.906 215.332 267.414 c 200.426 257.004 179.91 260.586 169.414 275.434
 c 162.543 285.078 161.43 297.684 166.504 308.383 c 208.441 300.168 l 208.422
 300.156 208.402 300.148 208.383 300.137 c 203.688 296.918 l 201.18 295.203
 200.543 291.781 202.258 289.273 c 202.676 288.664 203.215 288.145 203.836
 287.746 c h
187.402 296.652 m 182.602 299.715 l 182.305 299.906 181.992 300.066 181.664
 300.195 c 177.094 302 171.922 299.762 170.113 295.191 c 168.309 290.621
 170.547 285.449 175.117 283.641 c 177.312 282.773 179.766 282.812 181.934
 283.754 c 182.254 283.895 182.566 284.062 182.855 284.262 c 187.551 287.48
 l 190.055 289.199 190.695 292.621 188.977 295.125 c 188.562 295.734 188.023
 296.254 187.402 296.652 c h
200.336 284.129 m 199.312 285.625 197.613 286.52 195.801 286.52 c 195.711
 286.52 l 193.863 286.492 192.156 285.539 191.164 283.98 c 188.098 279.184
 l 187.91 278.887 187.75 278.574 187.621 278.246 c 186.289 274.898 187.113
 271.078 189.707 268.578 c 191.395 266.918 193.68 266.016 196.043 266.074
 c 200.957 266.156 204.875 270.203 204.797 275.117 c 204.777 276.285 204.527
 277.441 204.062 278.512 c 203.922 278.836 203.754 279.141 203.555 279.43
 c h
200.336 284.129 m f
132.188 234.176 m 131.324 233.926 130.43 233.801 129.531 233.801 c 125.207
 233.812 121.41 236.672 120.207 240.82 c 118.719 245.918 121.641 251.258
 126.738 252.75 c 126.777 252.758 l 131.918 254.219 137.273 251.25 138.754
 246.117 c 140.246 241.02 137.32 235.68 132.223 234.188 c 132.211 234.184
 132.195 234.18 132.184 234.176 c h
132.188 234.176 m f
46.922 349.828 m 56 348.219 63.883 342.629 68.406 334.598 c 73.004 326.457
 73.723 316.691 70.359 307.969 c 54.215 265.758 52.473 219.996 65.312 175.629
 c 78.352 130.594 106.047 90.977 143.293 64.074 c 157.215 54.059 160.379
 34.652 150.363 20.73 c 149.188 19.094 147.852 17.578 146.383 16.199 c 144.832
 14.75 l 132.848 3.648 114.332 3.664 102.371 14.789 c 57.047 57.035 26.93
 103.113 12.848 151.75 c -3.824 209.121 -4.281 269.988 11.535 327.602 c 
15.754 343.086 31.141 352.75 46.922 349.828 c h
46.922 349.828 m f
286.789 185.289 m 292.523 186.938 298.672 186.324 303.973 183.582 c 272.676
 151.84 l 271.91 153.27 271.297 154.777 270.844 156.34 c 267.238 168.707
 274.34 181.656 286.711 185.262 c 286.738 185.273 286.766 185.277 286.793
 185.289 c h
286.789 185.289 m f
309.18 257.445 m 314.32 258.898 319.672 255.93 321.16 250.801 c 322.648
 245.699 319.723 240.363 314.625 238.871 c 313.75 238.617 312.844 238.488
 311.934 238.484 c 307.613 238.496 303.812 241.355 302.609 245.504 c 301.121
 250.605 304.047 255.945 309.148 257.434 c 309.16 257.438 309.172 257.441
 309.18 257.445 c h
309.18 257.445 m f
149.73 72.992 m 114.461 98.461 88.234 136 75.879 178.688 c 63.703 220.738
 65.348 264.082 80.629 304.039 c 83.156 310.621 84.004 317.727 83.094 324.719
 c 155.445 310.547 l 149.953 296.781 151.828 281.164 160.43 269.09 c 174.43
 249.293 201.789 244.527 221.66 258.414 c 233.316 266.535 240.262 279.84
 240.266 294.047 c 253.5 292.672 265.957 300.535 270.41 313.074 c 288.957
 366.066 l 290.684 370.73 295.863 373.113 300.527 371.387 c 305.094 369.695
 307.488 364.684 305.934 360.066 c 295.551 331.312 l 291.754 320.582 297.375
 308.809 308.105 305.012 c 318.836 301.215 330.609 306.836 334.406 317.562
 c 353.676 371.504 l 355.301 376.203 360.426 378.695 365.125 377.07 c 369.824
 375.441 372.316 370.316 370.691 365.617 c 370.684 365.59 370.672 365.562
 370.664 365.535 c 348.359 302.664 l 344.047 290.504 350.406 277.145 362.57
 272.832 c 363.656 272.445 364.773 272.141 365.906 271.918 c 381.848 268.809
 l 382.828 268.531 383.594 267.762 383.871 266.781 c 384.172 265.801 383.934
 264.734 383.238 263.977 c 311.945 191.668 l 296.012 201.973 274.738 197.41
 264.434 181.477 c 256.996 169.973 257.098 155.148 264.699 143.75 c 166.816
 44.477 l 165.289 55.93 159.109 66.242 149.73 72.992 c h
292.043 242.445 m 295.227 231.5 306.652 225.172 317.617 228.289 c 328.562
 231.434 334.887 242.855 331.742 253.797 c 331.734 253.82 331.73 253.84 
331.723 253.863 c 328.566 264.828 317.121 271.168 306.148 268.023 c 295.203
 264.879 288.883 253.457 292.027 242.512 c 292.035 242.492 292.039 242.469
 292.047 242.449 c h
149.324 249.176 m 146.168 260.141 134.723 266.477 123.754 263.332 c 112.809
 260.191 106.484 248.77 109.629 237.824 c 109.633 237.805 109.641 237.781
 109.648 237.758 c 112.832 226.812 124.254 220.488 135.223 223.602 c 146.164
 226.746 152.488 238.164 149.344 249.109 c 149.34 249.129 149.332 249.152
 149.324 249.176 c h
193.293 90.508 m 224.645 99.52 242.754 132.242 233.742 163.594 c 233.723
 163.652 233.707 163.715 233.691 163.773 c 224.645 195.23 191.824 213.406
 160.359 204.387 c 129.008 195.375 110.902 162.652 119.91 131.301 c 119.93
 131.242 119.945 131.184 119.965 131.121 c 129.078 99.723 161.84 81.578 
193.293 90.508 c h
193.293 90.508 m f
Q Q
showpage
%%Trailer
end
%%EOF
