%!PS-Adobe-3.0 EPSF-3.0
%%Creator: cairo 1.16.0 (https://cairographics.org)
%%CreationDate: Mon Sep 23 08:21:41 2019
%%Pages: 1
%%DocumentData: Clean7Bit
%%LanguageLevel: 2
%%BoundingBox: 4 0 380 384
%%EndComments
%%BeginProlog
50 dict begin
/q { gsave } bind def
/Q { grestore } bind def
/cm { 6 array astore concat } bind def
/w { setlinewidth } bind def
/J { setlinecap } bind def
/j { setlinejoin } bind def
/M { setmiterlimit } bind def
/d { setdash } bind def
/m { moveto } bind def
/l { lineto } bind def
/c { curveto } bind def
/h { closepath } bind def
/re { exch dup neg 3 1 roll 5 3 roll moveto 0 rlineto
      0 exch rlineto 0 rlineto closepath } bind def
/S { stroke } bind def
/f { fill } bind def
/f* { eofill } bind def
/n { newpath } bind def
/W { clip } bind def
/W* { eoclip } bind def
/BT { } bind def
/ET { } bind def
/BDC { mark 3 1 roll /BDC pdfmark } bind def
/EMC { mark /EMC pdfmark } bind def
/cairo_store_point { /cairo_point_y exch def /cairo_point_x exch def } def
/Tj { show currentpoint cairo_store_point } bind def
/TJ {
  {
    dup
    type /stringtype eq
    { show } { -0.001 mul 0 cairo_font_matrix dtransform rmoveto } ifelse
  } forall
  currentpoint cairo_store_point
} bind def
/cairo_selectfont { cairo_font_matrix aload pop pop pop 0 0 6 array astore
    cairo_font exch selectfont cairo_point_x cairo_point_y moveto } bind def
/Tf { pop /cairo_font exch def /cairo_font_matrix where
      { pop cairo_selectfont } if } bind def
/Td { matrix translate cairo_font_matrix matrix concatmatrix dup
      /cairo_font_matrix exch def dup 4 get exch 5 get cairo_store_point
      /cairo_font where { pop cairo_selectfont } if } bind def
/Tm { 2 copy 8 2 roll 6 array astore /cairo_font_matrix exch def
      cairo_store_point /cairo_font where { pop cairo_selectfont } if } bind def
/g { setgray } bind def
/rg { setrgbcolor } bind def
/d1 { setcachedevice } bind def
/cairo_data_source {
  CairoDataIndex CairoData length lt
    { CairoData CairoDataIndex get /CairoDataIndex CairoDataIndex 1 add def }
    { () } ifelse
} def
/cairo_flush_ascii85_file { cairo_ascii85_file status { cairo_ascii85_file flushfile } if } def
/cairo_image { image cairo_flush_ascii85_file } def
/cairo_imagemask { imagemask cairo_flush_ascii85_file } def
%%EndProlog
%%BeginSetup
%%EndSetup
%%Page: 1 1
%%BeginPageSetup
%%PageBoundingBox: 4 0 380 384
%%EndPageSetup
q 4 0 376 384 rectclip
1 0 0 -1 0 384 cm q
0 g
46.965 72.5 m 76.02 102.27 l 111.312 102.27 l 114.066 102.27 116.297 104.5
 116.297 107.254 c 116.297 110.008 114.066 112.238 111.312 112.238 c 85.75
 112.238 l 114.777 141.984 l 151.824 141.984 l 154.578 141.984 156.809 144.215
 156.809 146.969 c 156.809 149.723 154.578 151.953 151.824 151.953 c 124.508
 151.953 l 153.531 181.699 l 188.77 181.699 l 191.523 181.699 193.758 183.93
 193.758 186.684 c 193.758 189.438 191.523 191.668 188.77 191.668 c 163.266
 191.668 l 192.289 221.41 l 236.406 221.41 l 239.16 221.41 241.391 223.645
 241.391 226.398 c 241.391 229.148 239.16 231.383 236.406 231.383 c 202.02
 231.383 l 231.043 261.125 l 277.508 261.125 l 280.262 261.125 282.496 263.355
 282.496 266.109 c 282.496 268.863 280.262 271.094 277.508 271.094 c 240.773
 271.094 l 269.801 300.84 l 299.66 300.84 l 302.414 300.84 304.645 303.07
 304.645 305.824 c 304.645 308.578 302.414 310.809 299.66 310.809 c 279.531
 310.809 l 309.141 341.148 l 379.895 341.148 l 46.965 0 l h
64.195 62.863 m 82.086 62.266 l 84.84 62.176 87.145 64.332 87.234 67.082
 c 87.328 69.836 85.172 72.141 82.418 72.23 c 64.527 72.828 l 64.363 72.828
 l 61.609 72.875 59.34 70.68 59.293 67.926 c 59.246 65.172 61.441 62.902
 64.195 62.859 c h
64.195 62.863 m f
4.105 384 m 337.035 384 l 4.105 42.859 l h
21.336 105.719 m 39.227 105.125 l 41.98 105.035 44.285 107.188 44.375 109.941
 c 44.469 112.691 42.312 115 39.559 115.09 c 21.668 115.684 l 21.613 115.684
 21.555 115.684 21.504 115.684 c 18.75 115.73 16.48 113.535 16.434 110.785
 c 16.387 108.031 18.582 105.762 21.336 105.715 c h
21.504 145.133 m 68.453 145.133 l 71.207 145.133 73.441 147.363 73.441 
150.117 c 73.441 152.871 71.207 155.102 68.453 155.102 c 21.504 155.102 
l 18.75 155.102 16.516 152.871 16.516 150.117 c 16.516 147.363 18.75 145.133
 21.504 145.133 c h
21.504 184.844 m 108.965 184.844 l 111.719 184.852 113.945 187.086 113.941
 189.84 c 113.938 192.586 111.711 194.812 108.965 194.816 c 21.504 194.816
 l 18.75 194.816 16.516 192.586 16.516 189.832 c 16.516 187.078 18.75 184.844
 21.504 184.844 c h
21.504 224.559 m 145.914 224.559 l 148.668 224.559 150.898 226.793 150.898
 229.543 c 150.898 232.297 148.668 234.531 145.914 234.531 c 21.504 234.531
 l 18.75 234.531 16.516 232.297 16.516 229.543 c 16.516 226.793 18.75 224.559
 21.504 224.559 c h
21.504 264.273 m 193.547 264.273 l 196.297 264.273 198.531 266.504 198.531
 269.258 c 198.531 272.012 196.297 274.242 193.547 274.242 c 21.504 274.242
 l 18.75 274.242 16.516 272.012 16.516 269.258 c 16.516 266.504 18.75 264.273
 21.504 264.273 c h
21.504 303.988 m 234.652 303.988 l 237.402 303.988 239.637 306.219 239.637
 308.973 c 239.637 311.727 237.402 313.957 234.652 313.957 c 21.504 313.957
 l 18.75 313.957 16.516 311.727 16.516 308.973 c 16.516 306.219 18.75 303.988
 21.504 303.988 c h
21.504 343.703 m 256.805 343.703 l 259.559 343.703 261.789 345.934 261.789
 348.688 c 261.789 351.441 259.559 353.672 256.805 353.672 c 21.504 353.672
 l 18.75 353.672 16.516 351.441 16.516 348.688 c 16.516 345.934 18.75 343.703
 21.504 343.703 c h
21.504 343.703 m f
Q Q
showpage
%%Trailer
end
%%EOF
