%!PS-Adobe-3.0 EPSF-3.0
%%Creator: cairo 1.16.0 (https://cairographics.org)
%%CreationDate: Mon Sep 23 08:21:41 2019
%%Pages: 1
%%DocumentData: Clean7Bit
%%LanguageLevel: 2
%%BoundingBox: 0 0 384 384
%%EndComments
%%BeginProlog
50 dict begin
/q { gsave } bind def
/Q { grestore } bind def
/cm { 6 array astore concat } bind def
/w { setlinewidth } bind def
/J { setlinecap } bind def
/j { setlinejoin } bind def
/M { setmiterlimit } bind def
/d { setdash } bind def
/m { moveto } bind def
/l { lineto } bind def
/c { curveto } bind def
/h { closepath } bind def
/re { exch dup neg 3 1 roll 5 3 roll moveto 0 rlineto
      0 exch rlineto 0 rlineto closepath } bind def
/S { stroke } bind def
/f { fill } bind def
/f* { eofill } bind def
/n { newpath } bind def
/W { clip } bind def
/W* { eoclip } bind def
/BT { } bind def
/ET { } bind def
/BDC { mark 3 1 roll /BDC pdfmark } bind def
/EMC { mark /EMC pdfmark } bind def
/cairo_store_point { /cairo_point_y exch def /cairo_point_x exch def } def
/Tj { show currentpoint cairo_store_point } bind def
/TJ {
  {
    dup
    type /stringtype eq
    { show } { -0.001 mul 0 cairo_font_matrix dtransform rmoveto } ifelse
  } forall
  currentpoint cairo_store_point
} bind def
/cairo_selectfont { cairo_font_matrix aload pop pop pop 0 0 6 array astore
    cairo_font exch selectfont cairo_point_x cairo_point_y moveto } bind def
/Tf { pop /cairo_font exch def /cairo_font_matrix where
      { pop cairo_selectfont } if } bind def
/Td { matrix translate cairo_font_matrix matrix concatmatrix dup
      /cairo_font_matrix exch def dup 4 get exch 5 get cairo_store_point
      /cairo_font where { pop cairo_selectfont } if } bind def
/Tm { 2 copy 8 2 roll 6 array astore /cairo_font_matrix exch def
      cairo_store_point /cairo_font where { pop cairo_selectfont } if } bind def
/g { setgray } bind def
/rg { setrgbcolor } bind def
/d1 { setcachedevice } bind def
/cairo_data_source {
  CairoDataIndex CairoData length lt
    { CairoData CairoDataIndex get /CairoDataIndex CairoDataIndex 1 add def }
    { () } ifelse
} def
/cairo_flush_ascii85_file { cairo_ascii85_file status { cairo_ascii85_file flushfile } if } def
/cairo_image { image cairo_flush_ascii85_file } def
/cairo_imagemask { imagemask cairo_flush_ascii85_file } def
%%EndProlog
%%BeginSetup
%%EndSetup
%%Page: 1 1
%%BeginPageSetup
%%PageBoundingBox: 0 0 384 384
%%EndPageSetup
q 0 0 384 384 rectclip
1 0 0 -1 0 384 cm q
0 g
215.055 177.172 m 215.059 170.996 214.613 164.828 213.723 158.719 c 90.523
 158.719 l 89.703 164.344 89.262 170.02 89.199 175.707 c 89.188 176.711 
89.199 177.719 89.207 178.723 c 215.031 178.723 l 215.039 178.207 215.055
 177.691 215.055 177.172 c h
215.055 177.172 m f
225.281 176.504 m 225.281 176.727 225.289 176.949 225.289 177.172 c 225.289
 197.172 221.047 215.961 213.609 231.762 c 223.789 231.762 l 240.746 230.359
 253.035 218.758 253.035 204.109 c 253.035 189.965 237.859 177.332 225.281
 176.504 c h
225.281 176.504 m f
89.742 188.953 m 91.238 205.309 95.816 220.852 103.059 233.719 c 111.75
 249.156 123.883 260.148 137.289 264.754 c 166.828 264.754 l 180.027 260.188
 192.055 249.367 200.77 234.199 c 208.227 221.211 212.969 205.473 214.508
 188.957 c h
89.742 188.953 m f
384 15.762 m 383.992 7.059 376.938 0.008 368.238 0 c 15.762 0 l 7.059 0.008
 0.008 7.059 0 15.762 c 0 19.684 l 0.008 28.387 7.059 35.441 15.762 35.449
 c 326.48 35.449 l 340.828 35.465 352.461 47.094 352.477 61.445 c 352.477
 384 l 384 384 l h
384 15.762 m f
69.035 45.684 m 68.992 102.551 l 250.988 102.551 l 251.098 45.684 l h
69.035 45.684 m f
294.168 112.785 m 27.043 112.785 l 27.043 297.324 l 294.168 297.324 l h
224.391 241.98 m 224.191 241.996 l 208.094 241.996 l 198.316 257.891 184.91
 269.621 169.254 274.734 c 168.48 274.992 l 135.652 274.992 l 134.883 274.742
 l 101.426 263.883 78.43 223.109 78.969 175.594 c 79.043 168.523 79.668 
161.473 80.832 154.5 c 81.273 151.141 84.082 148.598 87.465 148.484 c 216.789
 148.484 l 220.172 148.598 222.977 151.141 223.422 154.496 c 224.07 158.363
 224.547 162.289 224.859 166.246 c 234.691 166.492 244.238 170.887 251.824
 178.707 c 258.992 186.102 263.273 195.594 263.273 204.113 c 263.27 224.297
 246.922 240.227 224.391 241.98 c h
224.391 241.98 m f
Q Q
showpage
%%Trailer
end
%%EOF
