%!PS-Adobe-3.0 EPSF-3.0
%%Creator: cairo 1.16.0 (https://cairographics.org)
%%CreationDate: Mon Sep 23 08:21:41 2019
%%Pages: 1
%%DocumentData: Clean7Bit
%%LanguageLevel: 2
%%BoundingBox: 10 0 374 384
%%EndComments
%%BeginProlog
50 dict begin
/q { gsave } bind def
/Q { grestore } bind def
/cm { 6 array astore concat } bind def
/w { setlinewidth } bind def
/J { setlinecap } bind def
/j { setlinejoin } bind def
/M { setmiterlimit } bind def
/d { setdash } bind def
/m { moveto } bind def
/l { lineto } bind def
/c { curveto } bind def
/h { closepath } bind def
/re { exch dup neg 3 1 roll 5 3 roll moveto 0 rlineto
      0 exch rlineto 0 rlineto closepath } bind def
/S { stroke } bind def
/f { fill } bind def
/f* { eofill } bind def
/n { newpath } bind def
/W { clip } bind def
/W* { eoclip } bind def
/BT { } bind def
/ET { } bind def
/BDC { mark 3 1 roll /BDC pdfmark } bind def
/EMC { mark /EMC pdfmark } bind def
/cairo_store_point { /cairo_point_y exch def /cairo_point_x exch def } def
/Tj { show currentpoint cairo_store_point } bind def
/TJ {
  {
    dup
    type /stringtype eq
    { show } { -0.001 mul 0 cairo_font_matrix dtransform rmoveto } ifelse
  } forall
  currentpoint cairo_store_point
} bind def
/cairo_selectfont { cairo_font_matrix aload pop pop pop 0 0 6 array astore
    cairo_font exch selectfont cairo_point_x cairo_point_y moveto } bind def
/Tf { pop /cairo_font exch def /cairo_font_matrix where
      { pop cairo_selectfont } if } bind def
/Td { matrix translate cairo_font_matrix matrix concatmatrix dup
      /cairo_font_matrix exch def dup 4 get exch 5 get cairo_store_point
      /cairo_font where { pop cairo_selectfont } if } bind def
/Tm { 2 copy 8 2 roll 6 array astore /cairo_font_matrix exch def
      cairo_store_point /cairo_font where { pop cairo_selectfont } if } bind def
/g { setgray } bind def
/rg { setrgbcolor } bind def
/d1 { setcachedevice } bind def
/cairo_data_source {
  CairoDataIndex CairoData length lt
    { CairoData CairoDataIndex get /CairoDataIndex CairoDataIndex 1 add def }
    { () } ifelse
} def
/cairo_flush_ascii85_file { cairo_ascii85_file status { cairo_ascii85_file flushfile } if } def
/cairo_image { image cairo_flush_ascii85_file } def
/cairo_imagemask { imagemask cairo_flush_ascii85_file } def
%%EndProlog
%%BeginSetup
%%EndSetup
%%Page: 1 1
%%BeginPageSetup
%%PageBoundingBox: 10 0 374 384
%%EndPageSetup
q 10 0 364 384 rectclip
1 0 0 -1 0 384 cm q
0 g
52.77 127.926 m 52.422 254.227 l 39.68 254.227 l 37.008 254.227 34.84 256.395
 34.84 259.07 c 34.84 355.168 l 34.766 367.34 44.57 377.266 56.742 377.34
 c 68.914 377.41 78.84 367.605 78.914 355.434 c 78.914 355.344 78.914 355.258
 78.914 355.168 c 78.914 259.07 l 78.914 256.395 76.746 254.227 74.07 254.227
 c 62.105 254.227 l 62.453 127.93 l 86.609 125.426 104.977 105.082 105.004
 80.793 c 105.004 17.055 l 105.004 14.379 102.836 12.215 100.16 12.215 c
 97.488 12.215 95.32 14.379 95.32 17.055 c 95.32 80.793 l 95.414 101.613
 78.617 118.566 57.797 118.664 c 36.98 118.758 20.027 101.961 19.93 81.141
 c 19.93 81.027 19.93 80.91 19.93 80.793 c 19.93 17.055 l 19.93 14.379 17.762
 12.215 15.086 12.215 c 12.414 12.215 10.246 14.379 10.246 17.055 c 10.246
 80.793 l 10.277 105.07 28.625 125.406 52.77 127.926 c h
52.77 127.926 m f
43.48 95.801 m 46.152 95.801 48.32 93.633 48.32 90.957 c 48.32 17.055 l
 48.32 14.379 46.152 12.215 43.48 12.215 c 40.805 12.215 38.637 14.379 38.637
 17.055 c 38.637 90.957 l 38.637 93.633 40.805 95.801 43.48 95.801 c h
43.48 95.801 m f
66.891 17.055 m 66.891 90.957 l 66.891 93.633 69.059 95.801 71.73 95.801
 c 74.406 95.801 76.574 93.633 76.574 90.957 c 76.574 17.055 l 76.574 14.379
 74.406 12.215 71.73 12.215 c 69.059 12.215 66.891 14.379 66.891 17.055 
c h
66.891 17.055 m f
184.301 134.852 m 183.953 261.156 l 171.211 261.156 l 168.539 261.156 166.371
 263.324 166.371 265.996 c 166.371 362.094 l 166.445 374.266 176.371 384.074
 188.539 384 c 200.609 383.926 210.371 374.164 210.445 362.094 c 210.445
 265.996 l 210.445 263.324 208.277 261.156 205.602 261.156 c 193.637 261.156
 l 193.984 134.859 l 218.141 132.352 236.508 112.008 236.535 87.723 c 236.535
 15.914 l 236.535 13.238 234.367 11.07 231.691 11.07 c 146.617 11.07 l 143.945
 11.07 141.777 13.238 141.777 15.914 c 141.777 87.723 l 141.809 111.996 
160.156 132.332 184.301 134.852 c h
184.301 134.852 m f
282.59 22.77 m 272.941 36.891 267.621 55.57 267.621 75.375 c 267.621 95.176
 272.938 113.863 282.59 127.98 c 291.676 141.27 303.621 149.152 316.578 
150.531 c 316.234 260.871 l 303.492 260.871 l 300.816 260.871 298.648 263.039
 298.648 265.715 c 298.648 361.812 l 298.723 373.984 308.652 383.789 320.82
 383.715 c 332.887 383.641 342.652 373.879 342.727 361.812 c 342.727 265.719
 l 342.727 263.043 340.559 260.875 337.883 260.875 c 325.918 260.875 l 326.262
 150.348 l 338.652 148.551 350.043 140.77 358.785 127.984 c 368.438 113.863
 373.754 95.184 373.754 75.379 c 373.754 55.57 368.438 36.891 358.785 22.77
 c 348.746 8.086 335.215 0 320.688 0 c 306.156 0 292.633 8.086 282.59 22.77
 c h
282.59 22.77 m f
Q Q
showpage
%%Trailer
end
%%EOF
