%!PS-Adobe-3.0 EPSF-3.0
%%Creator: cairo 1.16.0 (https://cairographics.org)
%%CreationDate: Mon Sep 23 08:21:41 2019
%%Pages: 1
%%DocumentData: Clean7Bit
%%LanguageLevel: 2
%%BoundingBox: 29 0 355 384
%%EndComments
%%BeginProlog
50 dict begin
/q { gsave } bind def
/Q { grestore } bind def
/cm { 6 array astore concat } bind def
/w { setlinewidth } bind def
/J { setlinecap } bind def
/j { setlinejoin } bind def
/M { setmiterlimit } bind def
/d { setdash } bind def
/m { moveto } bind def
/l { lineto } bind def
/c { curveto } bind def
/h { closepath } bind def
/re { exch dup neg 3 1 roll 5 3 roll moveto 0 rlineto
      0 exch rlineto 0 rlineto closepath } bind def
/S { stroke } bind def
/f { fill } bind def
/f* { eofill } bind def
/n { newpath } bind def
/W { clip } bind def
/W* { eoclip } bind def
/BT { } bind def
/ET { } bind def
/BDC { mark 3 1 roll /BDC pdfmark } bind def
/EMC { mark /EMC pdfmark } bind def
/cairo_store_point { /cairo_point_y exch def /cairo_point_x exch def } def
/Tj { show currentpoint cairo_store_point } bind def
/TJ {
  {
    dup
    type /stringtype eq
    { show } { -0.001 mul 0 cairo_font_matrix dtransform rmoveto } ifelse
  } forall
  currentpoint cairo_store_point
} bind def
/cairo_selectfont { cairo_font_matrix aload pop pop pop 0 0 6 array astore
    cairo_font exch selectfont cairo_point_x cairo_point_y moveto } bind def
/Tf { pop /cairo_font exch def /cairo_font_matrix where
      { pop cairo_selectfont } if } bind def
/Td { matrix translate cairo_font_matrix matrix concatmatrix dup
      /cairo_font_matrix exch def dup 4 get exch 5 get cairo_store_point
      /cairo_font where { pop cairo_selectfont } if } bind def
/Tm { 2 copy 8 2 roll 6 array astore /cairo_font_matrix exch def
      cairo_store_point /cairo_font where { pop cairo_selectfont } if } bind def
/g { setgray } bind def
/rg { setrgbcolor } bind def
/d1 { setcachedevice } bind def
/cairo_data_source {
  CairoDataIndex CairoData length lt
    { CairoData CairoDataIndex get /CairoDataIndex CairoDataIndex 1 add def }
    { () } ifelse
} def
/cairo_flush_ascii85_file { cairo_ascii85_file status { cairo_ascii85_file flushfile } if } def
/cairo_image { image cairo_flush_ascii85_file } def
/cairo_imagemask { imagemask cairo_flush_ascii85_file } def
%%EndProlog
%%BeginSetup
%%EndSetup
%%Page: 1 1
%%BeginPageSetup
%%PageBoundingBox: 29 0 355 384
%%EndPageSetup
q 29 0 326 384 rectclip
1 0 0 -1 0 384 cm q
0 g
126.457 4.801 m 126.457 81.453 l 126.457 84.105 128.605 86.254 131.258 
86.254 c 133.91 86.254 136.059 84.105 136.059 81.453 c 136.059 4.801 l 136.059
 2.148 133.91 0 131.258 0 c 128.605 0 126.457 2.148 126.457 4.801 c h
126.457 4.801 m f
167.402 56.43 m 167.402 81.453 l 167.402 84.105 169.551 86.254 172.199 
86.254 c 174.852 86.254 177 84.105 177 81.453 c 177 56.43 l 177 53.781 174.852
 51.633 172.199 51.633 c 169.551 51.633 167.402 53.781 167.402 56.43 c h
167.402 56.43 m f
210.621 21.176 m 210.621 81.453 l 210.621 84.105 212.77 86.254 215.418 
86.254 c 218.07 86.254 220.219 84.105 220.219 81.453 c 220.219 21.176 l 
220.219 18.523 218.07 16.375 215.418 16.375 c 212.77 16.375 210.621 18.523
 210.621 21.176 c h
210.621 21.176 m f
310.734 162.332 m 295.742 153.668 278.508 149.684 261.234 150.883 c 261.898
 160.461 l 304.555 157.508 341.531 189.699 344.48 232.355 c 346.133 256.207
 336.668 279.484 318.844 295.422 c 256.875 350.82 l 263.277 357.973 l 325.242
 302.574 l 361.07 270.535 364.141 215.523 332.105 179.695 c 325.945 172.812
 318.734 166.949 310.734 162.332 c h
310.734 162.332 m f
40.488 169.824 m 41.176 169.023 l 42.211 167.809 43.73 167.105 45.328 167.109
 c 62.965 167.109 l 62.965 113.512 l 40.484 113.512 l h
40.488 169.824 m f
72.566 167.105 m 88.508 167.105 l 90.109 167.105 91.629 167.805 92.668 
169.027 c 112.383 192.102 l 113.555 193.477 113.559 193.898 113.602 199.023
 c 113.621 201.312 113.641 204.355 113.652 207.398 c 113.68 213.484 113.695
 219.57 113.695 219.652 c 113.695 287.129 l 113.688 294.195 107.961 299.922
 100.895 299.93 c 40.488 299.93 l 40.488 372.801 l 40.492 378.98 45.504 
383.992 51.688 384 c 245.566 384 l 251.746 383.992 256.758 378.984 256.766
 372.801 c 256.766 113.512 l 72.566 113.512 l h
72.566 167.105 m f
90.355 92.66 m 83.055 92.668 76.504 97.125 73.812 103.91 c 106.895 103.91
 l 104.203 97.125 97.652 92.668 90.355 92.66 c h
90.355 92.66 m f
104.094 287.129 m 104.094 219.648 l 104.094 217.457 104.047 202.035 103.98
 197.047 c 86.602 176.707 l 47.234 176.707 l 29.852 197.047 l 29.789 202.035
 29.742 217.457 29.742 219.652 c 29.742 287.129 l 29.742 288.895 31.176 
290.328 32.941 290.328 c 100.895 290.328 l 102.66 290.328 104.094 288.895
 104.094 287.129 c h
81.957 195.121 m 53.57 195.121 l 50.922 195.121 48.77 192.973 48.77 190.32
 c 48.77 187.668 50.922 185.52 53.57 185.52 c 81.957 185.52 l 84.609 185.52
 86.758 187.668 86.758 190.32 c 86.758 192.973 84.609 195.121 81.957 195.121
 c h
81.957 195.121 m f
Q Q
showpage
%%Trailer
end
%%EOF
