%!PS-Adobe-3.0 EPSF-3.0
%%Creator: cairo 1.16.0 (https://cairographics.org)
%%CreationDate: Mon Sep 23 08:21:42 2019
%%Pages: 1
%%DocumentData: Clean7Bit
%%LanguageLevel: 2
%%BoundingBox: 8 0 376 384
%%EndComments
%%BeginProlog
50 dict begin
/q { gsave } bind def
/Q { grestore } bind def
/cm { 6 array astore concat } bind def
/w { setlinewidth } bind def
/J { setlinecap } bind def
/j { setlinejoin } bind def
/M { setmiterlimit } bind def
/d { setdash } bind def
/m { moveto } bind def
/l { lineto } bind def
/c { curveto } bind def
/h { closepath } bind def
/re { exch dup neg 3 1 roll 5 3 roll moveto 0 rlineto
      0 exch rlineto 0 rlineto closepath } bind def
/S { stroke } bind def
/f { fill } bind def
/f* { eofill } bind def
/n { newpath } bind def
/W { clip } bind def
/W* { eoclip } bind def
/BT { } bind def
/ET { } bind def
/BDC { mark 3 1 roll /BDC pdfmark } bind def
/EMC { mark /EMC pdfmark } bind def
/cairo_store_point { /cairo_point_y exch def /cairo_point_x exch def } def
/Tj { show currentpoint cairo_store_point } bind def
/TJ {
  {
    dup
    type /stringtype eq
    { show } { -0.001 mul 0 cairo_font_matrix dtransform rmoveto } ifelse
  } forall
  currentpoint cairo_store_point
} bind def
/cairo_selectfont { cairo_font_matrix aload pop pop pop 0 0 6 array astore
    cairo_font exch selectfont cairo_point_x cairo_point_y moveto } bind def
/Tf { pop /cairo_font exch def /cairo_font_matrix where
      { pop cairo_selectfont } if } bind def
/Td { matrix translate cairo_font_matrix matrix concatmatrix dup
      /cairo_font_matrix exch def dup 4 get exch 5 get cairo_store_point
      /cairo_font where { pop cairo_selectfont } if } bind def
/Tm { 2 copy 8 2 roll 6 array astore /cairo_font_matrix exch def
      cairo_store_point /cairo_font where { pop cairo_selectfont } if } bind def
/g { setgray } bind def
/rg { setrgbcolor } bind def
/d1 { setcachedevice } bind def
/cairo_data_source {
  CairoDataIndex CairoData length lt
    { CairoData CairoDataIndex get /CairoDataIndex CairoDataIndex 1 add def }
    { () } ifelse
} def
/cairo_flush_ascii85_file { cairo_ascii85_file status { cairo_ascii85_file flushfile } if } def
/cairo_image { image cairo_flush_ascii85_file } def
/cairo_imagemask { imagemask cairo_flush_ascii85_file } def
%%EndProlog
%%BeginSetup
%%EndSetup
%%Page: 1 1
%%BeginPageSetup
%%PageBoundingBox: 8 0 376 384
%%EndPageSetup
q 8 0 368 384 rectclip
1 0 0 -1 0 384 cm q
0 g
105.477 89.113 m 107.891 90.34 110.844 89.375 112.066 86.961 c 112.453 
86.203 151.195 11.004 201.492 9.816 c 201.891 9.809 202.289 9.805 202.688
 9.805 c 229.863 9.805 256.09 31.699 280.652 74.91 c 314.133 133.812 327.902
 187.996 333.555 223.078 c 339.688 261.129 337.867 285.555 337.848 285.793
 c 347.621 286.574 l 347.703 285.551 349.562 261.004 343.289 221.891 c 337.527
 185.926 323.461 130.391 289.172 70.066 c 262.328 22.844 232.727 -0.715 
201.258 0.016 c 177.477 0.578 153.707 14.754 130.605 42.145 c 120.129 54.617
 110.984 68.152 103.32 82.523 c 102.094 84.938 103.059 87.887 105.477 89.113
 c h
105.477 89.113 m f
303.238 291.086 71.773 58.855 re f
206.398 144.555 m 159.484 89.645 l 55.906 89.645 l 8.988 144.555 l 8.988
 384 l 206.398 384 l h
144.82 135.109 m 74.75 135.109 l 72.043 135.109 69.848 132.914 69.848 130.207
 c 69.848 127.5 72.043 125.305 74.75 125.305 c 144.82 125.305 l 147.527 
125.305 149.723 127.5 149.723 130.207 c 149.723 132.914 147.527 135.109 
144.82 135.109 c h
144.82 135.109 m f
Q Q
showpage
%%Trailer
end
%%EOF
