%!PS-Adobe-3.0 EPSF-3.0
%%Creator: cairo 1.16.0 (https://cairographics.org)
%%CreationDate: Mon Sep 23 08:21:42 2019
%%Pages: 1
%%DocumentData: Clean7Bit
%%LanguageLevel: 2
%%BoundingBox: 0 11 384 373
%%EndComments
%%BeginProlog
50 dict begin
/q { gsave } bind def
/Q { grestore } bind def
/cm { 6 array astore concat } bind def
/w { setlinewidth } bind def
/J { setlinecap } bind def
/j { setlinejoin } bind def
/M { setmiterlimit } bind def
/d { setdash } bind def
/m { moveto } bind def
/l { lineto } bind def
/c { curveto } bind def
/h { closepath } bind def
/re { exch dup neg 3 1 roll 5 3 roll moveto 0 rlineto
      0 exch rlineto 0 rlineto closepath } bind def
/S { stroke } bind def
/f { fill } bind def
/f* { eofill } bind def
/n { newpath } bind def
/W { clip } bind def
/W* { eoclip } bind def
/BT { } bind def
/ET { } bind def
/BDC { mark 3 1 roll /BDC pdfmark } bind def
/EMC { mark /EMC pdfmark } bind def
/cairo_store_point { /cairo_point_y exch def /cairo_point_x exch def } def
/Tj { show currentpoint cairo_store_point } bind def
/TJ {
  {
    dup
    type /stringtype eq
    { show } { -0.001 mul 0 cairo_font_matrix dtransform rmoveto } ifelse
  } forall
  currentpoint cairo_store_point
} bind def
/cairo_selectfont { cairo_font_matrix aload pop pop pop 0 0 6 array astore
    cairo_font exch selectfont cairo_point_x cairo_point_y moveto } bind def
/Tf { pop /cairo_font exch def /cairo_font_matrix where
      { pop cairo_selectfont } if } bind def
/Td { matrix translate cairo_font_matrix matrix concatmatrix dup
      /cairo_font_matrix exch def dup 4 get exch 5 get cairo_store_point
      /cairo_font where { pop cairo_selectfont } if } bind def
/Tm { 2 copy 8 2 roll 6 array astore /cairo_font_matrix exch def
      cairo_store_point /cairo_font where { pop cairo_selectfont } if } bind def
/g { setgray } bind def
/rg { setrgbcolor } bind def
/d1 { setcachedevice } bind def
/cairo_data_source {
  CairoDataIndex CairoData length lt
    { CairoData CairoDataIndex get /CairoDataIndex CairoDataIndex 1 add def }
    { () } ifelse
} def
/cairo_flush_ascii85_file { cairo_ascii85_file status { cairo_ascii85_file flushfile } if } def
/cairo_image { image cairo_flush_ascii85_file } def
/cairo_imagemask { imagemask cairo_flush_ascii85_file } def
%%EndProlog
%%BeginSetup
%%EndSetup
%%Page: 1 1
%%BeginPageSetup
%%PageBoundingBox: 0 11 384 373
%%EndPageSetup
q 0 11 384 362 rectclip
1 0 0 -1 0 384 cm q
0 g
235.445 156.473 m 235.445 156.379 l 262.539 156.348 284.496 134.395 284.527
 107.301 c 284.699 95.613 280.102 84.363 271.793 76.141 c 262.898 67.293
 250.148 62.234 236.781 62.234 c 236.48 62.234 l 212.25 62.375 186.168 78.812
 186.168 114.574 c 186.105 114.574 l 190.445 126.488 196.668 138.211 205.914
 147.582 c 211.801 153.547 221.691 156.512 235.445 156.473 c h
235.445 156.473 m f
45.461 289.855 m 55.867 292.699 68.02 294.094 81.488 294.094 c 116.383 
294.094 160.129 284.754 205.445 267.102 c 259.125 246.195 303.758 217.242
 309.266 199.754 c 312.836 188.406 311.164 178.328 304.285 169.805 c 297.023
 160.793 285.57 158.609 265.992 162.5 c 232.965 169.062 211.102 166.363 
199.152 154.254 c 175.871 130.664 170.238 95.047 166.871 73.766 c 166.133
 69.098 165.426 64.617 164.715 61.719 c 157.051 64.656 135.934 77.961 115.195
 99.355 c 94.66 120.543 69.32 154.77 65.23 197.504 c 64.918 200.766 65.512
 207.477 66.496 211.867 c 67.043 214.453 68.918 216.551 71.426 217.383 c
 72.438 217.262 73.473 217.141 74.543 217.027 c 183.766 205.559 197.48 190.777
 198.617 189.254 c 199.566 186.812 202.316 185.598 204.762 186.551 c 206.898
 187.379 208.141 189.617 207.707 191.867 c 206.5 198.227 191.195 214.328
 75.531 226.473 c 75.059 226.523 74.594 226.574 74.133 226.625 c 73.777 
226.746 73.414 226.824 73.043 226.855 c 72.824 226.891 l 72.254 227.004 
71.672 227.043 71.09 227 c 69.953 227.148 68.844 227.301 67.746 227.449 
c 64.383 227.91 61.203 228.344 58.328 228.508 c 39.121 229.617 25.52 246.602
 23.934 261.707 c 22.488 275.461 30.336 285.723 45.461 289.855 c h
45.461 289.855 m f
146.625 368.801 m 146.625 368.746 l 146.918 368.734 147.215 368.727 147.508
 368.715 c 189.176 364.648 226.078 354.812 257.855 339.223 c 306.406 315.41
 330.703 283.719 340.867 266.945 c 345.914 258.617 347.625 253.23 347.91
 244.773 c 348.676 222.363 338.211 209.445 316.812 206.324 c 310.777 218.57
 294.551 231.039 281.352 239.684 c 261.797 252.488 236.062 265.371 208.891
 275.953 c 179.367 287.449 149.414 295.824 122.254 300.172 c 108.828 302.41
 95.246 303.578 81.637 303.676 c 67.246 303.676 54.32 302.121 42.957 299.016
 c 38.441 297.832 34.129 295.98 30.156 293.527 c 25.469 296.305 15.312 302.848
 7.293 311.699 c 2.812 316.641 -3.133 333.59 1.953 347.031 c 6.211 358.293
 17.188 364.992 34.578 366.938 c 75.008 371.465 112.359 372.086 146.625 
368.801 c h
146.625 368.801 m f
353.273 263.867 m 352.012 266.621 350.582 269.293 348.988 271.871 c 338.289
 289.531 312.762 322.875 262.035 347.758 c 242.414 357.262 221.805 364.578
 200.582 369.559 c 206.074 369.844 211.531 370.16 216.945 370.473 c 264.289
 373.207 309.008 375.789 350.828 357.863 c 360.219 353.652 368.406 347.16
 374.641 338.973 c 382.645 328.32 385.535 316.57 383.234 304.059 c 379.766
 285.199 361.992 270.207 353.273 263.867 c h
353.273 263.867 m f
260.297 66.949 m 262.918 66.953 265.047 64.828 265.051 62.207 c 265.051
 61.992 265.035 61.777 265.008 61.562 c 262.633 44.023 269.816 34.434 295.77
 20.52 c 298.082 19.277 298.949 16.398 297.711 14.09 c 296.473 11.777 293.594
 10.906 291.281 12.148 c 266.152 25.621 252.262 38.234 255.594 62.836 c 
255.914 65.191 257.922 66.949 260.297 66.949 c h
260.297 66.949 m f
Q Q
showpage
%%Trailer
end
%%EOF
