%!PS-Adobe-3.0 EPSF-3.0
%%Creator: cairo 1.16.0 (https://cairographics.org)
%%CreationDate: Mon Sep 23 08:21:42 2019
%%Pages: 1
%%DocumentData: Clean7Bit
%%LanguageLevel: 2
%%BoundingBox: 25 0 359 384
%%EndComments
%%BeginProlog
50 dict begin
/q { gsave } bind def
/Q { grestore } bind def
/cm { 6 array astore concat } bind def
/w { setlinewidth } bind def
/J { setlinecap } bind def
/j { setlinejoin } bind def
/M { setmiterlimit } bind def
/d { setdash } bind def
/m { moveto } bind def
/l { lineto } bind def
/c { curveto } bind def
/h { closepath } bind def
/re { exch dup neg 3 1 roll 5 3 roll moveto 0 rlineto
      0 exch rlineto 0 rlineto closepath } bind def
/S { stroke } bind def
/f { fill } bind def
/f* { eofill } bind def
/n { newpath } bind def
/W { clip } bind def
/W* { eoclip } bind def
/BT { } bind def
/ET { } bind def
/BDC { mark 3 1 roll /BDC pdfmark } bind def
/EMC { mark /EMC pdfmark } bind def
/cairo_store_point { /cairo_point_y exch def /cairo_point_x exch def } def
/Tj { show currentpoint cairo_store_point } bind def
/TJ {
  {
    dup
    type /stringtype eq
    { show } { -0.001 mul 0 cairo_font_matrix dtransform rmoveto } ifelse
  } forall
  currentpoint cairo_store_point
} bind def
/cairo_selectfont { cairo_font_matrix aload pop pop pop 0 0 6 array astore
    cairo_font exch selectfont cairo_point_x cairo_point_y moveto } bind def
/Tf { pop /cairo_font exch def /cairo_font_matrix where
      { pop cairo_selectfont } if } bind def
/Td { matrix translate cairo_font_matrix matrix concatmatrix dup
      /cairo_font_matrix exch def dup 4 get exch 5 get cairo_store_point
      /cairo_font where { pop cairo_selectfont } if } bind def
/Tm { 2 copy 8 2 roll 6 array astore /cairo_font_matrix exch def
      cairo_store_point /cairo_font where { pop cairo_selectfont } if } bind def
/g { setgray } bind def
/rg { setrgbcolor } bind def
/d1 { setcachedevice } bind def
/cairo_data_source {
  CairoDataIndex CairoData length lt
    { CairoData CairoDataIndex get /CairoDataIndex CairoDataIndex 1 add def }
    { () } ifelse
} def
/cairo_flush_ascii85_file { cairo_ascii85_file status { cairo_ascii85_file flushfile } if } def
/cairo_image { image cairo_flush_ascii85_file } def
/cairo_imagemask { imagemask cairo_flush_ascii85_file } def
%%EndProlog
%%BeginSetup
%%EndSetup
%%Page: 1 1
%%BeginPageSetup
%%PageBoundingBox: 25 0 359 384
%%EndPageSetup
q 25 0 334 384 rectclip
1 0 0 -1 0 384 cm q
0 g
74.207 4.684 m 74.207 78.66 l 74.207 81.246 76.305 83.34 78.891 83.34 c
 81.477 83.34 83.57 81.246 83.57 78.66 c 83.57 4.684 l 83.57 2.098 81.477
 0 78.891 0 c 76.305 0 74.207 2.098 74.207 4.684 c h
74.207 4.684 m f
102.441 4.684 m 102.441 78.66 l 102.441 81.246 104.535 83.34 107.121 83.34
 c 109.707 83.34 111.805 81.246 111.805 78.66 c 111.805 4.684 l 111.805 
2.098 109.707 0 107.121 0 c 104.535 0 102.441 2.098 102.441 4.684 c h
102.441 4.684 m f
353.078 75.285 m 353.078 55.492 347.777 36.824 338.152 22.723 c 328.152
 8.07 314.676 0 300.211 0 c 282.133 0 265.426 13.051 255.766 34.383 c 235.562
 25.973 213.887 21.668 192.004 21.715 c 173.418 21.715 156.781 24.348 140.207
 29.945 c 140.207 4.684 l 140.207 2.098 138.113 0 135.527 0 c 132.941 0 
130.844 2.098 130.844 4.684 c 130.844 68.484 l 130.938 89.375 114.082 106.383
 93.195 106.48 c 72.309 106.574 55.297 89.719 55.203 68.828 c 55.199 68.715
 55.199 68.602 55.203 68.484 c 55.203 4.684 l 55.203 2.098 53.105 0 50.52
 0 c 47.934 0 45.836 2.098 45.836 4.684 c 45.836 68.484 l 45.828 77.965 
48.68 87.223 54.023 95.051 c 10.43 159.617 17.23 245.73 70.414 302.652 c
 70.414 359.289 l 70.414 371.363 80.203 381.152 92.277 381.152 c 104.352
 381.152 114.141 371.363 114.141 359.289 c 114.141 336.152 l 165.918 363.531
 228.273 361.699 278.352 331.32 c 278.352 362.008 l 278.281 374.082 288.008
 383.926 300.082 384 c 312.156 384.074 322.004 374.344 322.074 362.27 c 
322.074 362.184 322.074 362.094 322.074 362.008 c 322.074 292.844 l 345.699
 263.23 358.57 226.473 358.594 188.59 c 358.652 164.52 353.461 140.73 343.383
 118.871 c 349.73 106.117 353.078 91.105 353.078 75.285 c h
87.98 242.258 m 75.094 242.258 l 72.508 242.258 70.414 244.352 70.414 246.938
 c 70.414 288.461 l 26.926 235.281 22.844 160.078 60.312 102.5 c 67.918 
109.867 77.789 114.453 88.328 115.512 c h
295.918 261.133 m 283.035 261.133 l 280.449 261.133 278.352 263.23 278.352
 265.816 c 278.352 320.242 l 228.957 352.742 165.5 354.762 114.141 325.469
 c 114.141 246.938 l 114.141 244.352 112.043 242.258 109.457 242.258 c 97.344
 242.258 l 97.691 115.512 l 121.828 113.059 140.195 92.746 140.207 68.484
 c 140.207 39.859 l 156.797 33.875 173.352 31.078 192.004 31.078 c 212.727
 31.031 233.25 35.121 252.371 43.109 c 249.012 53.504 247.316 64.363 247.348
 75.285 c 247.348 95.074 252.648 113.742 262.273 127.848 c 271.359 141.156
 283.309 149.035 296.266 150.363 c h
349.23 188.59 m 349.211 220.137 339.754 250.957 322.078 277.082 c 322.078
 265.816 l 322.078 263.23 319.98 261.133 317.395 261.133 c 305.285 261.133
 l 305.633 150.176 l 317.781 148.449 328.945 140.941 337.512 128.781 c 345.305
 147.754 349.285 168.074 349.23 188.59 c h
349.23 188.59 m f
192.891 106.383 m 146.051 106.383 107.941 144.555 107.941 191.477 c 107.941
 238.398 146.051 276.57 192.891 276.57 c 239.734 276.57 277.84 238.398 277.84
 191.477 c 277.84 144.555 239.73 106.383 192.891 106.383 c h
192.891 267.203 m 151.211 267.203 117.305 233.23 117.305 191.473 c 117.305
 149.715 151.211 115.742 192.891 115.742 c 234.57 115.742 268.477 149.715
 268.477 191.473 c 268.477 233.23 234.57 267.207 192.891 267.207 c h
192.891 267.203 m f
Q Q
showpage
%%Trailer
end
%%EOF
