%!PS-Adobe-3.0 EPSF-3.0
%%Creator: cairo 1.16.0 (https://cairographics.org)
%%CreationDate: Mon Sep 23 08:21:42 2019
%%Pages: 1
%%DocumentData: Clean7Bit
%%LanguageLevel: 2
%%BoundingBox: 28 0 356 384
%%EndComments
%%BeginProlog
50 dict begin
/q { gsave } bind def
/Q { grestore } bind def
/cm { 6 array astore concat } bind def
/w { setlinewidth } bind def
/J { setlinecap } bind def
/j { setlinejoin } bind def
/M { setmiterlimit } bind def
/d { setdash } bind def
/m { moveto } bind def
/l { lineto } bind def
/c { curveto } bind def
/h { closepath } bind def
/re { exch dup neg 3 1 roll 5 3 roll moveto 0 rlineto
      0 exch rlineto 0 rlineto closepath } bind def
/S { stroke } bind def
/f { fill } bind def
/f* { eofill } bind def
/n { newpath } bind def
/W { clip } bind def
/W* { eoclip } bind def
/BT { } bind def
/ET { } bind def
/BDC { mark 3 1 roll /BDC pdfmark } bind def
/EMC { mark /EMC pdfmark } bind def
/cairo_store_point { /cairo_point_y exch def /cairo_point_x exch def } def
/Tj { show currentpoint cairo_store_point } bind def
/TJ {
  {
    dup
    type /stringtype eq
    { show } { -0.001 mul 0 cairo_font_matrix dtransform rmoveto } ifelse
  } forall
  currentpoint cairo_store_point
} bind def
/cairo_selectfont { cairo_font_matrix aload pop pop pop 0 0 6 array astore
    cairo_font exch selectfont cairo_point_x cairo_point_y moveto } bind def
/Tf { pop /cairo_font exch def /cairo_font_matrix where
      { pop cairo_selectfont } if } bind def
/Td { matrix translate cairo_font_matrix matrix concatmatrix dup
      /cairo_font_matrix exch def dup 4 get exch 5 get cairo_store_point
      /cairo_font where { pop cairo_selectfont } if } bind def
/Tm { 2 copy 8 2 roll 6 array astore /cairo_font_matrix exch def
      cairo_store_point /cairo_font where { pop cairo_selectfont } if } bind def
/g { setgray } bind def
/rg { setrgbcolor } bind def
/d1 { setcachedevice } bind def
/cairo_data_source {
  CairoDataIndex CairoData length lt
    { CairoData CairoDataIndex get /CairoDataIndex CairoDataIndex 1 add def }
    { () } ifelse
} def
/cairo_flush_ascii85_file { cairo_ascii85_file status { cairo_ascii85_file flushfile } if } def
/cairo_image { image cairo_flush_ascii85_file } def
/cairo_imagemask { imagemask cairo_flush_ascii85_file } def
%%EndProlog
%%BeginSetup
%%EndSetup
%%Page: 1 1
%%BeginPageSetup
%%PageBoundingBox: 28 0 356 384
%%EndPageSetup
q 28 0 328 384 rectclip
1 0 0 -1 0 384 cm q
0 g
191.602 69.82 m 189.383 69.605 187.41 71.227 187.195 73.445 c 186.98 75.664
 188.602 77.637 190.82 77.855 c 193.039 78.07 195.012 76.445 195.23 74.227
 c 195.332 73.164 195.008 72.102 194.332 71.273 c 193.648 70.449 192.668
 69.926 191.602 69.82 c h
191.602 69.82 m f
139.566 95.102 m 138.988 95.062 138.484 95.496 138.445 96.078 c 138.406
 96.637 138.809 97.125 139.363 97.195 c 139.641 97.227 139.922 97.141 140.133
 96.961 c 140.352 96.785 140.488 96.531 140.512 96.25 c 140.57 95.672 140.145
 95.16 139.566 95.102 c h
139.566 95.102 m f
154.988 38.715 m 151.129 38.34 147.691 41.16 147.312 45.023 c 146.934 48.887
 149.758 52.324 153.617 52.703 c 157.48 53.082 160.922 50.258 161.297 46.395
 c 161.676 42.531 158.855 39.094 154.992 38.715 c 154.988 38.715 154.988
 38.715 154.988 38.715 c h
154.988 38.715 m f
245.777 74.176 m 130.215 0.168 l 129.727 -0.148 129.074 -0.004 128.762 
0.484 c 128.672 0.625 128.617 0.785 128.602 0.949 c 116.453 125.172 l 116.398
 125.75 116.82 126.262 117.398 126.32 c 117.562 126.336 117.73 126.312 117.883
 126.25 c 117.926 126.234 l 154.52 112.219 l 159.82 110.188 165.691 110.199
 170.984 112.258 c 176.887 114.547 179.812 121.188 177.523 127.086 c 164.672
 160.191 l 164.328 161.074 164.766 162.07 165.652 162.414 c 166.535 162.758
 167.531 162.316 167.871 161.434 c 185.613 115.727 l 187.918 109.672 194.691
 106.633 200.742 108.938 c 206.793 111.238 209.832 118.012 207.527 124.062
 c 207.512 124.109 207.492 124.16 207.473 124.207 c 199.523 144.688 l 199.18
 145.574 199.617 146.566 200.504 146.91 c 201.387 147.254 202.379 146.816
 202.723 145.934 c 221.949 97.586 l 225.648 88.328 233.004 81.004 242.277
 77.344 c 245.594 76.039 l 246.133 75.824 246.398 75.215 246.188 74.676 
c 246.105 74.469 245.961 74.293 245.773 74.176 c h
150.312 97.211 m 149.766 102.781 145.086 107.035 139.484 107.047 c 139.129
 107.047 138.766 107.031 138.406 106.996 c 132.414 106.41 128.035 101.078
 128.621 95.086 c 129.207 89.098 134.535 84.715 140.527 85.301 c 146.52 
85.887 150.898 91.219 150.312 97.211 c h
171.098 47.352 m 170.254 55.98 163.008 62.562 154.336 62.582 c 153.781 
62.582 153.227 62.555 152.664 62.5 c 143.391 61.59 136.605 53.336 137.516
 44.062 c 138.422 34.789 146.676 28.008 155.949 28.914 c 165.223 29.82 172.008
 38.074 171.098 47.348 c h
205.027 75.191 m 204.324 82.293 198.359 87.707 191.219 87.723 c 190.77 
87.723 190.316 87.703 189.859 87.656 c 182.227 86.91 176.645 80.117 177.391
 72.484 c 178.141 64.855 184.934 59.273 192.562 60.02 c 200.195 60.766 205.777
 67.559 205.031 75.191 c h
205.027 75.191 m f
279.879 219.914 m 306.078 199.23 l 233.113 165.73 l 243.883 219.914 l 245.418
 219.914 l 243.586 213.375 247.402 206.586 253.941 204.754 c 260.48 202.922
 267.27 206.738 269.102 213.281 c 269.707 215.449 269.707 217.746 269.102
 219.914 c h
260.477 196.363 m 258.641 197.824 256.363 198.617 254.016 198.617 c 253.602
 198.617 253.188 198.594 252.773 198.543 c 247.039 197.871 242.938 192.672
 243.613 186.938 c 244.285 181.203 249.48 177.102 255.219 177.773 c 257.973
 178.098 260.484 179.504 262.203 181.68 c 265.77 186.215 264.996 192.781
 260.473 196.363 c h
280.73 194.883 m 284.461 191.93 289.879 192.559 292.832 196.293 c 295.785
 200.023 295.152 205.441 291.422 208.395 c 289.902 209.598 288.02 210.25
 286.082 210.254 c 285.742 210.254 285.398 210.234 285.059 210.191 c 280.336
 209.633 276.961 205.348 277.52 200.621 c 277.789 198.359 278.941 196.293
 280.73 194.883 c h
280.73 194.883 m f
253.992 187.547 m 253.855 187.547 253.723 187.59 253.617 187.676 c 253.352
 187.887 253.309 188.27 253.516 188.531 c 253.723 188.797 254.105 188.844
 254.371 188.633 c 254.637 188.426 254.684 188.043 254.473 187.777 c 254.359
 187.629 254.18 187.543 253.992 187.547 c h
253.992 187.547 m f
286.828 202.605 m 287.363 202.184 287.457 201.406 287.035 200.871 c 286.832
 200.613 286.535 200.449 286.207 200.41 c 286.16 200.402 286.113 200.402
 286.066 200.402 c 285.387 200.406 284.84 200.961 284.848 201.641 c 284.852
 202.32 285.406 202.867 286.086 202.863 c 286.355 202.859 286.617 202.77
 286.828 202.605 c h
286.828 202.605 m f
257.555 214.18 m 257.457 214.168 257.363 214.164 257.266 214.164 c 255.914
 214.164 254.812 215.262 254.812 216.617 c 254.812 217.168 255 217.703 255.34
 218.137 c 256.184 219.199 257.727 219.379 258.789 218.539 c 259.852 217.695
 260.031 216.156 259.191 215.094 c 258.789 214.586 258.199 214.254 257.559
 214.18 c h
257.555 214.18 m f
207.414 203.062 m 208.551 203.098 209.5 202.203 209.535 201.066 c 209.57
 199.93 208.676 198.98 207.539 198.945 c 207.477 198.945 l 206.34 198.945
 205.418 199.867 205.418 201.004 c 205.414 201.527 205.617 202.035 205.977
 202.418 c 206.348 202.816 206.867 203.047 207.414 203.062 c h
207.414 203.062 m f
292.902 381.824 m 292.902 373.207 l 91.098 373.207 l 91.098 381.824 l 91.102
 383.023 92.074 384 93.273 384 c 290.727 384 l 291.926 384 292.898 383.023
 292.902 381.824 c h
292.902 381.824 m f
77.566 214.797 m 75.691 214.371 73.82 215.543 73.391 217.418 c 73.195 218.266
 73.328 219.156 73.758 219.914 c 79.828 219.914 l 80.777 218.238 80.188 
216.113 78.512 215.164 c 78.215 214.996 77.898 214.875 77.566 214.797 c 
h
77.566 214.797 m f
102.793 219.914 m 102.367 199.453 l 45.031 204.566 l 54.676 219.91 l 63.574
 219.91 l 62.621 212.613 67.766 205.922 75.066 204.969 c 82.367 204.016 
89.055 209.164 90.008 216.461 c 90.156 217.605 90.156 218.766 90.008 219.91
 c h
102.793 219.914 m f
239.836 229.762 m 28.75 229.762 l 28.75 263.66 l 297.824 263.66 l 300.543
 263.66 302.746 265.863 302.746 268.582 c 302.746 271.301 300.543 273.504
 297.824 273.504 c 28.75 273.504 l 28.75 332.184 l 28.77 349.398 42.719 
363.344 59.93 363.367 c 324.07 363.367 l 341.281 363.344 355.23 349.398 
355.25 332.184 c 355.25 273.504 l 320.832 273.504 l 318.113 273.504 315.906
 271.301 315.906 268.582 c 315.906 265.863 318.113 263.656 320.832 263.656
 c 355.25 263.656 l 355.25 229.762 l h
239.836 229.762 m f
131.844 199.648 m 133.77 199.633 135.32 198.051 135.301 196.125 c 135.281
 194.195 133.703 192.648 131.773 192.664 c 131.699 192.664 l 129.77 192.703
 128.238 194.301 128.277 196.227 c 128.316 198.156 129.914 199.688 131.84
 199.648 c h
131.844 199.648 m f
112.645 219.914 m 144.93 219.914 l 169.895 196.414 l 111.559 168.125 l 
h
122.145 186.922 m 127.246 181.605 135.691 181.434 141.008 186.535 c 146.32
 191.637 146.496 200.078 141.395 205.395 c 138.945 207.945 135.582 209.422
 132.047 209.496 c 131.77 209.496 l 124.402 209.492 118.43 203.52 118.434
 196.152 c 118.434 192.711 119.766 189.402 122.148 186.918 c h
122.145 186.922 m f
206.004 175.945 m 159.297 219.914 l 218.793 219.914 l 215.773 209.531 l
 215.727 209.578 215.684 209.629 215.637 209.676 c 213.434 211.758 210.516
 212.918 207.484 212.91 c 207.363 212.91 207.238 212.91 207.117 212.906 
c 203.957 212.82 200.965 211.473 198.809 209.168 c 194.301 204.379 194.527
 196.844 199.316 192.336 c 201.613 190.172 204.68 189.012 207.832 189.105
 c 208.527 189.129 209.223 189.215 209.902 189.359 c h
206.004 175.945 m f
Q Q
showpage
%%Trailer
end
%%EOF
